#VRML V2.0 utf8


Group {
  children 
    Group {
      children 
        Transform {
          scale 1.74 1.74 1.74
          children 
            Group {
              children 
                Shape {
                  appearance 
                  Appearance {
                    material 
                    Material {
                      diffuseColor 0.65864992 0.50308388 0.31538299
                      ambientIntensity 0.10572245

                    }

                  }
                  geometry 
                  IndexedFaceSet {
                    coord 
                    Coordinate {
                      point [ 0.01169043 -0.0033898349 0.020485099,
                          0.01163446 -0.005456686 0.02023392,
                          0.0094427457 -0.0063650012 0.02155905,
                          0.0151335 -0.0032976861 -0.01676481,
                          0.01490521 -0.0057063689 -0.01535069,
                          0.01956981 -0.005096375 -0.01378709,
                          -0.02223896 -0.0040224791 -0.019146681,
                          -0.020166511 -0.0061082239 -0.018807409,
                          -0.019237099 -0.0057803388 -0.022333501,
                          0.01463782 -0.0069517489 -0.01170468,
                          0.019950859 -0.0054749842 -0.0105853,
                          0.02198243 0.003488719 -0.01066285,
                          0.019891379 0.0059050322 -0.01053553,
                          0.019442139 0.0055512181 -0.01372551,
                          0.01057773 0.0062251091 0.01800972,
                          0.01388609 0.005387425 0.01788049,
                          0.01223123 0.0051445961 0.021091631,
                          -0.002013325 -0.0039061301 0.02427691,
                          -0.001683473 -0.0070024128 0.023131071,
                          -0.0061742659 -0.006618618 0.02250373,
                          -0.0065496559 -0.005890667 -0.022148481,
                          -0.00070220901 -0.0057837958 -0.02130645,
                          -0.00067969901 -0.0035728209 -0.02298086,
                          -0.0062747588 -0.0070347181 -0.0181024,
                          -0.00076347101 -0.0070347781 -0.01735609,
                          -0.0022403591 0.0087534776 0.01815021,
                          -0.0023867481 0.0065866108 0.023113601,
                          -0.0073291059 0.0061328998 0.02234548,
                          0.0093405843 0.0024942751 0.02338629,
                          0.01241952 0.00253421 0.0214765,
                          0.01181513 -0.00055429997 0.020726969,
                          0.01517271 -0.000241164 -0.01706606,
                          0.020769291 -0.00016341099 -0.01458191,
                          0.020449869 0.0035870669 -0.01436394,
                          -0.022661859 0.00053008302 -0.0192244,
                          -0.020269571 -0.001135945 -0.023223691,
                          -0.020119069 0.001874625 -0.023040351,
                          0.02241635 -0.000126449 -0.01067101,
                          0.02051997 -0.003119766 -0.01437133,
                          -0.0023014541 0.0032532809 0.024274111,
                          -0.002194881 -0.00091435498 0.02427035,
                          -0.0062912102 -0.001066803 0.024276789,
                          -0.0067825308 0.002213299 -0.02384549,
                          -0.0067679281 -0.00083554903 -0.02416884,
                          -0.00070474099 -0.00061895599 -0.02328765,
                          -0.01865565 -0.002918124 0.0039325352,
                          -0.01734077 -0.0049071312 0.004686892,
                          -0.01883089 -0.0064412951 -0.001753985,
                          0.017532401 -0.0055612321 0.006701469,
                          0.019361369 -0.0055453768 0.00098556501,
                          0.01402604 -0.0073205228 0.001230001,
                          0.019392541 0.002454936 0.0066843028,
                          0.01748758 0.004758954 0.0067478409,
                          0.019393859 0.0050739041 0.001080572,
                          0.01446896 0.006612896 -0.0031796689,
                          0.019978641 0.0053926702 -0.0030408499,
                          -0.0060725212 -0.0083447089 0.004863977,
                          -0.00104624 -0.0081323981 0.0051546092,
                          -0.00080559403 -0.0080460897 -0.0010204311,
                          -0.0063906899 0.0078594685 -0.0068703881,
                          -0.00099630002 0.0083611598 -0.0064826012,
                          -0.001404166 0.0080817929 -0.000351016,
                          0.019779921 -0.00039451101 0.0066860309,
                          0.021969071 -0.00035131999 0.00089140498,
                          0.02160573 -0.0032078619 0.00088874198,
                          -0.01301133 -0.0029534099 0.0191884,
                          -0.01075875 -0.0051655169 0.01981925,
                          -0.01310586 -0.004143476 0.01792293,
                          -0.01457941 -0.003887176 -0.023871539,
                          -0.01456737 -0.0060030809 -0.022309661,
                          -0.01069688 -0.0059850812 -0.022245159,
                          -0.01072663 -0.007062315 -0.018251181,
                          -0.01499122 0.003670692 0.018274721,
                          -0.01581764 0.004797935 0.016231891,
                          -0.01351487 0.0065355892 0.01509219,
                          -0.01368266 0.0018579951 0.020028289,
                          -0.01153266 0.00064469699 0.02147668,
                          -0.01312923 -0.00100255 0.020258181,
                          -0.01465064 0.001884222 -0.023863129,
                          -0.01464492 -0.001047551 -0.024189649,
                          -0.01078861 -0.00094769697 -0.02428096,
                          -0.01481968 -0.0073533049 0.0045908089,
                          -0.01084452 -0.0087311864 0.0047567482,
                          -0.01092463 -0.0084763756 -0.0015994899,
                          -0.01527142 0.0055180779 -0.00089397503,
                          -0.01508384 0.0078290701 -0.007120132,
                          -0.01108485 0.0088633886 -0.0068344469,
                          0.0056815138 -0.003757715 0.02428096,
                          0.0061419602 -0.0067689409 0.02255409,
                          0.0022835729 -0.00696063 0.022961371,
                          0.004292428 -0.0057299128 -0.019415669,
                          0.01025462 -0.0056911702 -0.01796364,
                          0.01043921 -0.0033569329 -0.01937085,
                          0.0041497941 -0.007152318 -0.015863409,
                          0.0097629419 -0.0071861739 -0.01453936,
                          0.0021619201 0.0069522848 0.018207129,
                          0.0064634681 0.0064304471 0.0181235,
                          0.005917131 0.0053804512 0.022603029,
                          0.001731872 0.0033781519 0.024273749,
                          0.0058119888 0.0024179809 0.024277151,
                          0.005642354 0.000271831 0.024276851,
                          0.004242897 0.0032977459 -0.020983569,
                          0.004275321 -0.00045354399 -0.02129548,
                          0.01043736 -0.000346516 -0.01964777,
                          0.003507196 -0.0080238581 0.0057514901,
                          0.0080705276 -0.0078150034 0.0065555568,
                          0.00878477 -0.007831037 0.00063869101,
                          0.0091553917 0.0087612271 -0.0043566222,
                          0.0086015463 0.006627738 0.00076789799,
                          0.0036289089 0.006972014 3.7894901e-005,
                          -0.02173149 -0.0041158791 -0.0076304669,
                          -0.019652659 -0.0064389701 -0.0076683159,
                          -0.020079911 -0.0063575502 -0.01326525,
                          0.01441311 -0.0073800082 -0.0031968351,
                          0.019977329 -0.0055354228 -0.003151655,
                          0.0199837 -0.0055353642 -0.0063237539,
                          0.01997154 0.005618691 -0.0070397849,
                          0.02220278 0.002991735 -0.0068961969,
                          -0.006081163 -0.0080426326 -0.0073679681,
                          -0.00068046403 -0.0080203414 -0.0068807001,
                          -0.00071900501 -0.0077747102 -0.01244801,
                          -0.022009309 0.000188012 -0.0076100822,
                          -0.02265328 0.000261234 -0.01329731,
                          -0.02201217 0.004415452 -0.01321715,
                          0.022661859 -0.00030886999 -0.0032620421,
                          0.022632951 -0.00022234301 -0.0065871468,
                          0.02226644 -0.0031500449 -0.0063546891,
                          0.01462215 0.007187068 -0.007601439,
                          -0.001027584 0.0071066609 -0.0173549,
                          -0.001013696 0.008351922 -0.01227593,
                          -0.006481587 0.0078696599 -0.01268947,
                          -0.0153473 -0.0079823732 -0.0076047182,
                          -0.0108391 -0.008178412 -0.007574141,
                          -0.01082742 -0.0078790784 -0.01316154,
                          -0.01100933 0.008116602 -0.0182721,
                          -0.01110583 0.0090063214 -0.01278179,
                          -0.01537066 0.0082487464 -0.01283603,
                          0.0042330022 -0.0078991046 -0.0060540428,
                          0.0092141619 -0.0078336587 -0.0047670598,
                          0.0094983568 -0.0076739779 -0.0097818375,
                          0.0095917583 0.0082086921 -0.0140627,
                          0.009407877 0.0093250265 -0.0094805947,
                          0.004036366 0.009132742 -0.01102393,
                          0.01278281 0.0058441162 0.0068849921,
                          0.01575654 0.0050584669 0.0126416,
                          -0.0021082161 0.0076634879 0.0056301951,
                          -0.002030432 0.008028388 0.01171433,
                          -0.0071604252 0.0092248907 0.01088738,
                          0.01338428 -0.0055996771 0.01725262,
                          0.01556456 -0.0055580731 0.01242589,
                          0.01178526 -0.0070328112 0.01263266,
                          0.01487839 0.00255233 0.017747041,
                          -0.0061670542 -0.0085664392 0.018070931,
                          -0.001531839 -0.008573412 0.018346479,
                          -0.001293957 -0.00835359 0.01160508,
                          0.01468122 -0.00050379703 0.017319441,
                          0.017408431 -0.000449983 0.01242941,
                          0.01714473 -0.003304719 0.01241749,
                          -0.0152508 0.0062195649 0.01231658,
                          -0.01474255 0.006525218 0.0090680709,
                          -0.01206809 0.0076994891 0.0096629849,
                          -0.01427865 -0.003399133 0.017159751,
                          -0.01521474 -0.0033085339 0.01554989,
                          -0.0150758 -0.0027707811 0.01679289,
                          0.0078399181 0.0066148629 0.006630599,
                          0.0071616168 0.0065649152 0.01252543,
                          0.002663373 0.0072037568 0.01208126,
                          0.006764113 -0.0076939459 0.01827383,
                          0.007434844 -0.0077758431 0.01261895,
                          0.0030900231 -0.0081691742 0.01204597,
                          0.00954777 0.0053540459 0.02189487,
                          0.015046 0.0035624499 -0.01673823,
                          -0.02231013 0.003886699 -0.019107221,
                          -0.019354099 0.0041552782 -0.022304891,
                          -0.006887197 0.002755641 0.024279291,
                          -0.006698668 0.0049999952 -0.0221368,
                          -0.000751224 0.002801358 -0.02297329,
                          0.02156388 0.0025502441 0.00090134901,
                          -0.016598159 0.004775404 0.00060484401,
                          -0.017761171 0.0036321869 0.0021225209,
                          -0.01914 0.0025233619 -0.001357376,
                          -0.01470714 0.0046678181 -0.022292551,
                          -0.01081669 0.001997649 -0.023945451,
                          0.004152297 0.0057711601 -0.019392191,
                          0.01036757 0.0034611819 -0.0193631,
                          0.02224075 0.002673089 -0.0032660961,
                          -0.02084267 0.0041089049 -0.0074552889,
                          -0.019517539 0.0067105289 -0.01311033,
                          0.017194441 0.0024759171 0.01250982,
                          0.0088936677 -0.0036255119 0.022494489,
                          -0.02004897 -0.003921031 -0.02305215,
                          -0.0063418141 -0.0036951301 0.024279829,
                          -0.0067110062 -0.0036867261 -0.023853829,
                          0.022045489 -0.003156781 -0.01058417,
                          -0.019097921 -0.00093514699 0.0033900139,
                          -0.020410061 -0.0038908119 -0.0018757581,
                          0.019461749 -0.003250658 0.006676137,
                          -0.01078784 -0.0028275249 0.02127355,
                          -0.01074516 -0.0037981861 -0.02395373,
                          0.001713037 -0.000830848 0.024270231,
                          0.0043144221 -0.0034642811 -0.020991139,
                          -0.02221667 -0.0041179652 -0.01331162,
                          0.02229535 -0.0031749599 -0.003222584,
                          0.01444619 -0.0033597939 0.01724064,
                          0.0088474751 -0.000628929 0.02285647,
                          0.0129289 -0.0071861139 0.0068449969,
                          0.01398831 0.006132781 0.001298725,
                          0.01448673 -0.0073032971 -0.0070006251,
                          0.01463109 0.007715404 -0.01135891,
                          0.01173108 0.0061246152 0.01269048,
                          0.01050877 -0.0070492621 0.017830011,
                          0.01010334 0.0060328841 -0.017860049,
                          0.001847207 -0.003855109 0.024277801,
                          0.0018054839 0.0055471058 0.02305012,
                          0.003974258 -0.0079289665 -0.00031463601,
                          0.0040720101 0.0088989129 -0.0055634971,
                          0.0042602411 -0.0076960921 -0.01135796,
                          0.0039126272 0.0076781511 -0.015708441,
                          0.0030220151 0.0075181122 0.0060523148,
                          0.002753376 -0.0082648387 0.01831805,
                          -0.00084293698 0.0053306222 -0.021299889,
                          -0.0073440671 0.0089957109 0.017351029,
                          -0.0127958 0.0038515921 0.01956981,
                          -0.01043856 -0.001106977 0.02211171,
                          -0.0060907002 -0.0081757298 -0.001430392,
                          -0.006715118 0.0075193038 -0.00036588599,
                          -0.0061461921 -0.0077997441 -0.01300919,
                          -0.0065729609 0.0067703719 -0.018091731,
                          -0.01309329 0.0068976278 0.005857884,
                          -0.0086905947 0.0080233812 0.0053357482,
                          -0.01041048 -0.007873415 0.01650363,
                          -0.0060182209 -0.0086408854 0.01134687,
                          -0.01084184 0.0048596258 -0.02225077,
                          -0.01510214 -0.006943047 -0.01838886,
                          -0.0140776 -0.001238822 0.019479871,
                          -0.01433604 -0.00085917301 0.019354761,
                          -0.01433247 -0.00053293101 0.0195015,
                          -0.01434469 -1.64373e-005 0.019586381,
                          -0.01481747 0.00188744 0.01904767,
                          -0.01528376 -0.008055686 -0.001678407,
                          -0.01738476 0.0044198632 -0.0023244021,
                          -0.018493829 0.0063605299 -0.0075247278,
                          -0.01537996 -0.0077404971 -0.01313906,
                          -0.01532077 0.0075791469 -0.01835417,
                          -0.01396137 -0.001750409 0.01920104,
                          -0.01533097 -0.001302123 0.01754367,
                          -0.01464766 -0.001270532 0.018725811,
                          -0.01465457 -0.0022308819 0.017916501,
                          -0.017148489 -0.004053771 0.0072909589,
                          -0.01650762 -0.004748404 0.007885932,
                          -0.01780325 -0.0034436579 0.0061243172,
                          -0.01574683 0.00513941 0.0035155411,
                          -0.01169675 0.0067986841 0.001024603,
                          -0.018694339 -0.001680731 0.0050845742,
                          -0.01055729 -0.0087477555 0.01107281,
                          -0.020532539 -0.0012407301 -0.001948416,
                          -0.020180341 0.006203949 -0.01874285,
                          0.01473993 0.0060749049 -0.01516383,
                          -0.016789069 7.41136e-006 0.01432853,
                          -0.017324921 -0.000234376 0.01221364,
                          -0.016953761 0.0024878969 0.01298362,
                          -0.01627594 0.001987278 0.01572209,
                          -0.016493199 0.0042524328 0.01446568,
                          -0.016687689 -0.001303553 0.01414453,
                          -0.015699919 -0.0020686979 0.01609581,
                          -0.01613998 -0.002711772 0.01386374,
                          -0.01516777 -0.000121358 0.01825433,
                          -0.016084069 -0.000673634 0.016129609,
                          -0.015810659 0.0056991568 0.01471132,
                          -0.018663161 0.00212109 0.0028581021,
                          -0.01857185 0.000148547 0.005105793,
                          -0.01707273 -0.00191611 0.01169443,
                          -0.01716065 0.003809094 0.0073401332,
                          -0.01661914 0.004589438 0.01056474,
                          -0.017468389 0.002277493 0.01007837,
                          -0.0182929 -0.001094341 0.0067354441,
                          -0.01773411 -0.00068742101 0.009506762,
                          -0.01743155 -0.002708137 0.0085428953,
                          -0.016470131 -0.004190444 0.009137094,
                          -0.0179637 0.00074353802 0.007343709,
                          -0.01572614 0.0055779209 0.0072617531,
                          -0.01780593 0.003009855 0.0047915569,
                          -0.01823049 -0.0023946159 0.0061053028,
                          -0.018775159 -0.00091738999 0.005121171,
                          -0.015674351 0.002946496 0.017463859,
                          -0.01543909 -0.003858625 0.01380276,
                          -0.01455521 0.0028542869 0.019049941,
                          -0.01413828 -0.004852294 0.01501637,
                          -0.01488929 -0.0055221911 0.01032739,
                          -0.016163111 -0.00367397 0.01149082,
                          -0.0152238 -0.004544198 0.01273536 ]

                    }
                    normal 
                    Normal {
                      vector [ -0.54854453 0.11549251 -0.82810652,
                          -0.33327499 0.50063455 0.79893231,
                          0.66841769 0.70345539 0.24159543,
                          -0.29346171 0.94465858 0.14663035,
                          -0.73972261 -0.64943224 0.17620531,
                          -0.24783923 -0.94805527 -0.19941653,
                          0.15910873 0.3575089 -0.92025638,
                          -0.12477275 0.59981591 0.79034972,
                          -0.040759485 0.95272934 0.30107403,
                          0.14436847 -0.90842348 -0.39233235,
                          -0.50630832 0.29567245 -0.81008005,
                          -0.40313792 -0.087278187 0.91096783,
                          0.84178352 -0.074640028 0.53463012,
                          -0.91688752 0.10475897 0.38515323,
                          -0.0016039879 0.00086133537 -0.99999833,
                          -0.13934927 -0.10509583 0.98465055,
                          0.84405178 0.44382602 -0.3009901,
                          -0.31823182 0.9428072 -0.099212214,
                          -0.74288017 -0.60639256 -0.28357938,
                          -0.21249869 -0.9714725 -0.10528836,
                          -0.042908732 0.99900341 0.012290872,
                          0.095310196 -0.99468422 -0.038979825,
                          -0.92916745 0.11851276 -0.35014659,
                          0.66217101 0.5205695 -0.53901494,
                          -0.016167974 0.59374928 0.80448765,
                          -0.0088284528 0.96547735 0.26033744,
                          0.31035268 -0.77362198 -0.55244035,
                          0.57577455 0.045790154 -0.81632525,
                          0.026388491 -0.11059905 0.99351478,
                          0.32606104 0.94474554 0.0337638,
                          0.25841957 -0.90817261 -0.32930514,
                          -0.11563424 0.48077634 -0.86918527,
                          -0.20569792 0.51713192 0.83082062,
                          -0.086043328 0.91753626 0.38823181,
                          -0.12150229 -0.96300316 -0.24054547,
                          0.00085066102 7.2494491e-005 -0.9999997,
                          -0.25611082 -0.082296364 0.96313798,
                          -0.044302311 0.99898577 -0.0080549372,
                          -0.0073724049 -0.9228794 -0.38501877,
                          0.74398893 0.66653007 -0.047097512,
                          -0.31466377 0.94920301 -0.00061435439,
                          -0.76075208 -0.64808321 -0.035279054,
                          -0.0081050321 0.99899286 0.044131938,
                          0.98228014 -0.14940937 -0.11314817,
                          -0.99206829 0.12513763 0.011881352,
                          -0.2736125 -0.95911968 -0.07228858,
                          0.067514651 -0.96906066 0.23740953,
                          0.043019135 0.99763888 0.053536408,
                          0.17064708 -0.9721657 0.16054146,
                          -0.021042855 0.99930936 0.030627538,
                          -0.032843851 -0.97135967 0.23533352,
                          -0.22517981 -0.97417533 -0.016630674,
                          -0.23605815 -0.96981096 0.061183006,
                          -0.36644688 0.91699052 -0.15762356,
                          -0.90365195 -0.30198964 -0.30366999,
                          -0.00043297478 0.99946922 0.032575171,
                          -0.8707695 0.082459494 -0.48472786,
                          0.40609968 -0.91355377 -0.022419658,
                          0.67402768 0.64754623 -0.3554863,
                          -0.13821602 -0.99010414 -0.024293417,
                          -0.086897135 0.99591029 -0.024730304,
                          -0.92019707 -0.10036171 0.37837157,
                          -0.2945089 -0.16014926 -0.9421342,
                          -0.35760114 -0.44953662 0.81855875,
                          0.6832763 -0.42145786 0.59624386,
                          0.034507439 -0.32781285 -0.94411236,
                          -0.072421417 -0.51976359 0.85123497,
                          -0.92799109 -0.12637217 -0.35051775,
                          0.67746902 -0.73475063 -0.034312483,
                          0.033211231 -0.49062061 0.87074023,
                          -0.11358722 -0.48574361 -0.86668986,
                          -0.20270881 -0.53508407 0.82011849,
                          -0.99114496 -0.13277814 -0.0012879597,
                          0.67070848 -0.72090459 -0.17448969,
                          -0.90787464 0.11498204 -0.40316603,
                          -0.58611482 0.094417088 -0.804708,
                          -0.40685162 0.094766922 0.90856534,
                          0.86686659 0.098760381 0.48866037,
                          -0.0007835204 -0.002240299 -0.9999972,
                          -0.1443826 0.10101161 0.98435283,
                          -0.80876023 0.48647082 0.33053428,
                          0.9435038 0.12666012 -0.30619901,
                          -0.70267469 0.66409284 -0.25539997,
                          0.6120038 0.4083721 -0.67726189,
                          0.018704724 0.11173565 0.99356198,
                          0.001965527 -0.001000613 -0.99999762,
                          -0.25870237 0.093822569 0.96138984,
                          0.99429101 0.064584456 -0.084937818,
                          -0.72233844 0.69143265 0.012167508,
                          -0.74680066 0.52216041 -0.41187063,
                          -0.46016955 0.38768101 -0.79871619,
                          -0.42642757 0.48766464 0.76180232,
                          -0.21958995 0.92803401 0.30088747,
                          -0.054890029 -0.97110009 -0.23227522,
                          -0.34625971 0.20978515 -0.91438204,
                          -0.47608498 -0.074236646 0.87626028,
                          -0.09218362 0.99486321 -0.041826718,
                          -0.079679698 -0.99019867 -0.11470792,
                          -0.092394054 0.99555463 0.018289154,
                          -0.33496261 -0.93294269 -0.13197753,
                          -0.15502545 -0.9877153 0.019637994,
                          -0.16811807 0.98502755 -0.038172621,
                          -0.17452955 -0.44534409 -0.87818456,
                          -0.41846055 -0.48995548 0.7647447,
                          -0.40629867 -0.0048802197 -0.91372728,
                          -0.48420253 0.091968954 0.8701089,
                          -0.04349314 0.38472658 -0.92200536,
                          -0.30169442 0.54628325 0.78138036,
                          -0.089391768 0.92585832 0.36714524,
                          -0.23465209 -0.92881912 -0.28676403,
                          -0.00011548885 0.00083647214 -0.9999997,
                          -0.36732361 -0.090074912 0.92572129,
                          -0.025618011 0.99957842 0.0136638,
                          -0.17847535 -0.92600197 -0.3326664,
                          -0.031049665 0.99879265 0.03807028,
                          0.074467666 -0.952923 0.29392579,
                          -0.16805929 -0.98386931 -0.061297242,
                          -0.071743228 0.9973585 0.011361413,
                          0.015144641 -0.49169034 -0.87063849,
                          -0.26506835 -0.53870982 0.79970664,
                          0.00026355215 -0.0024913209 -0.9999969,
                          -0.37032378 0.088660263 0.92466193,
                          0.55819768 0.45393211 -0.69452208,
                          -0.032344628 0.61016244 0.79161578,
                          -0.015086537 0.96189415 0.27300575,
                          0.52381033 -0.73835784 -0.4247947,
                          0.46100706 0.072457977 -0.88443339,
                          -0.024535196 -0.11337647 0.99324918,
                          -0.081297219 0.99632466 0.026982214,
                          -0.20919098 -0.97594076 -0.061472494,
                          -0.030375725 0.99859828 0.043345805,
                          -0.29204547 -0.93622088 0.19544816,
                          0.26018319 -0.95656562 0.13147962,
                          0.16380164 0.98646635 -0.007296118,
                          0.59420466 -0.33970478 -0.72905523,
                          0.0059126932 -0.50946456 0.86047137,
                          0.46282792 -0.0099361204 -0.88639247,
                          -0.02773229 0.11358754 0.99314094,
                          0.024217967 0.59380156 0.80424708,
                          0.045051791 0.97004724 0.23870222,
                          0.6038081 0.15324549 -0.78226072,
                          0.56697619 0.14662614 -0.8105793,
                          0.6521728 -0.05204282 -0.75628185,
                          0.16990624 -0.068362594 0.98308617,
                          0.68779606 0.71400249 -0.13090858,
                          0.40256846 -0.8261773 -0.39416978,
                          0.33668527 0.94080389 0.039130576,
                          0.33864141 -0.93369275 0.11636077,
                          0.14018042 -0.34616292 0.92764252,
                          0.47032595 0.50231963 -0.72558147,
                          0.14651187 0.1134651 0.98267996,
                          -0.25625199 -0.9661184 -0.030826008,
                          -0.064247943 -0.99189121 0.1096544,
                          0.79292262 0.38930872 -0.46873516,
                          -0.13654163 -0.9897936 -0.040803708,
                          -0.47692922 0.81893092 -0.31920317,
                          -0.87711781 -0.13137738 -0.46195731,
                          0.12342762 0.94398338 -0.30604103,
                          -0.76339161 0.080505632 -0.64089954,
                          -0.13966092 0.9634707 -0.22851545,
                          -0.80099082 0.28457177 -0.52671885,
                          -0.71896571 0.33760598 -0.60754472,
                          -0.095841937 -0.99539471 -0.0019755086,
                          -0.19151659 0.95419866 -0.22983991,
                          -0.16866823 -0.98418117 -0.054208335,
                          -0.023371598 0.94961619 -0.31254289,
                          0.37720928 -0.92586416 -0.022111036,
                          0.46512812 0.81073081 -0.35548741,
                          0.8067311 0.54132617 -0.23696211,
                          0.84614784 0.48480684 -0.22135103,
                          -0.33381659 0.93556368 -0.11526988,
                          -0.85564727 -0.4647851 -0.22769007,
                          -0.06240198 0.99754411 0.031810176,
                          -0.91966939 0.10376208 -0.37873715,
                          -0.088099204 0.99598849 -0.015668847,
                          -0.19550391 -0.9733516 -0.11985353,
                          0.10530857 -0.99280262 -0.057037231,
                          0.45175618 -0.87968874 0.1485399,
                          -0.18122537 -0.98310566 -0.025702128,
                          -0.93407285 -0.058634549 -0.35223573,
                          0.97240776 0.17452739 -0.15480161,
                          -0.73588598 0.61127806 -0.29122329,
                          -0.12521833 0.9908182 -0.050987728,
                          -0.084474064 -0.99399251 -0.069592819,
                          -0.044041965 0.99882674 0.020140266,
                          -0.21972819 -0.97331226 0.066202968,
                          -0.026279487 0.99860305 0.04584213,
                          0.25707608 -0.96181166 0.093969747,
                          0.47142774 -0.88168734 -0.019578254,
                          -0.21459107 -0.97516912 -0.05473578,
                          0.088091642 -0.99610752 -0.0031206068,
                          0.1753194 -0.98118716 -0.080838777,
                          -0.00094537647 -0.99399543 -0.10941759,
                          0.8468352 0.51872295 -0.11745996,
                          -0.31403166 0.94837046 -0.04447211,
                          -0.75437087 -0.63755792 -0.15634744,
                          -0.024821186 0.99968451 0.0038623272,
                          0.90676367 -0.28695208 -0.30893064,
                          -0.9790895 0.12297268 -0.16205378,
                          0.095022932 0.99417096 0.050940894,
                          -0.019943273 0.99979901 -0.0020690234,
                          -0.97726458 -0.13591294 -0.16273221,
                          0.58978516 -0.72609156 -0.35347486,
                          0.97356766 0.03882423 -0.22507465,
                          -0.71057558 0.69438463 -0.11363259,
                          -0.34614038 -0.92876583 -0.13259315,
                          -0.094502904 0.9952895 -0.021637224,
                          0.11316195 -0.99263501 -0.043245729,
                          -0.025096547 0.99967682 0.0040698787,
                          -0.2091248 -0.97788781 0.0015539785,
                          -0.062835433 0.99777555 0.022265283,
                          0.40273508 -0.91116226 -0.08710894,
                          0.41411078 0.91020107 0.0068198582,
                          0.72317553 0.69038159 0.019758232,
                          -0.30790386 0.95128554 0.015851112,
                          -0.7566148 -0.65286225 -0.036126923,
                          -0.01998977 0.98860192 0.14922069,
                          0.99455816 -0.10400158 -0.006157049,
                          -0.99087507 0.12285464 0.055439159,
                          0.021907585 0.98706234 0.15883331,
                          -0.034302767 0.9943909 0.10005035,
                          -0.34275359 -0.92719269 0.15110831,
                          0.00074630644 -0.9118396 0.41054618,
                          0.031494569 -0.77276105 0.63391525,
                          -0.060778078 -0.86956853 0.49005789,
                          -0.99197328 -0.11915968 0.042308591,
                          0.73418719 -0.67853087 0.023771692,
                          0.9950636 0.099215731 -0.0021776138,
                          -0.72174942 0.69118589 0.036603827,
                          -0.11292163 0.99110389 0.070441239,
                          -0.28624302 -0.88281089 0.3724378,
                          -0.042090423 0.99179226 0.12073375,
                          -0.049425792 -0.88828379 0.45662802,
                          -0.021604458 0.98859555 0.14903742,
                          0.02002627 -0.91614729 0.4003413,
                          0.27478677 0.94833535 0.15859488,
                          0.086056679 -0.79470241 0.60086805,
                          0.96907127 -0.064771488 -0.23812926,
                          0.967812 -0.044563737 -0.24769746,
                          0.50041705 0.027270406 -0.8653549,
                          0.87235558 0.39635432 -0.28618047,
                          0.84936702 0.18100554 -0.49579504,
                          0.89585167 0.25549331 -0.36355612,
                          0.84284252 0.21305521 -0.49419028,
                          0.89110148 -0.4395602 0.11280575,
                          0.37166813 -0.36194491 -0.85490286,
                          0.83746147 0.45859641 -0.29723334,
                          0.96709794 -0.17044355 -0.18886651,
                          0.88828939 0.39291078 -0.23783022,
                          0.93903166 0.11794767 -0.32296729,
                          0.91773063 0.005348844 -0.39716738,
                          0.84204918 0.10681368 -0.52871919,
                          0.94101101 -0.3291766 -0.078364901,
                          0.98204017 -0.086461842 -0.16769423,
                          0.94166195 0.24900083 -0.22643183,
                          0.59113079 0.3254694 -0.7379933,
                          0.67262751 0.51332438 -0.53298265,
                          0.26346183 -0.95529902 0.13413346,
                          0.86550164 0.4264836 -0.26271412,
                          0.85271525 0.44054076 -0.28071436,
                          0.98759073 -0.0605749 -0.14489743,
                          0.96334893 0.19974382 -0.17905696,
                          0.46602541 -0.88439798 -0.025703449,
                          0.77632654 -0.62653744 0.069051377,
                          0.65995836 -0.73404819 -0.16008861,
                          0.63586795 -0.76651829 -0.090121321,
                          0.95434761 -0.25019017 -0.1631733,
                          0.92379665 -0.30552679 -0.23076671,
                          0.48753479 -0.8674897 0.098850898,
                          0.55312306 0.27141377 -0.78764796,
                          0.85020852 0.48032594 -0.21548243,
                          0.93702573 0.18771024 -0.29452968,
                          0.56787318 0.057009544 -0.82113951,
                          0.60608917 0.42553931 -0.67199129,
                          0.69981742 0.45783854 -0.54830611,
                          0.89875048 0.36153525 -0.24807237,
                          0.81668514 -0.55839646 -0.14566667,
                          0.82756853 -0.54961091 -0.11427308,
                          0.96675676 -0.094535373 -0.23758058,
                          0.95524991 0.11422053 -0.27285767,
                          0.3698467 -0.8000015 -0.47245219,
                          0.35713935 -0.92658496 -0.11786442,
                          0.34333169 -0.93292528 -0.1085069,
                          0.84015077 0.45721897 -0.29171491,
                          0.73676622 -0.67415744 0.051840059,
                          0.97582185 -0.21279758 -0.049887903,
                          0.38345575 -0.91912657 0.090376876,
                          0.51069415 -0.84388345 0.16447552,
                          0.77697337 -0.62915683 0.021776278,
                          0.8102411 0.52586788 -0.25879043,
                          0.35671699 -0.93328202 -0.041686408,
                          0.97664589 0.11218926 -0.18323891,
                          0.18219399 -0.97189987 0.14905073,
                          0.96039367 0.11019111 -0.2559334,
                          0.96496534 -0.072631992 -0.25212401,
                          0.83953637 -0.25444719 -0.48003688,
                          0.89918607 0.25619745 -0.35472146,
                          0.89791054 0.12916049 -0.42080209,
                          0.83681333 0.16449332 -0.5221929,
                          0.89557886 -0.38452184 -0.22378923,
                          0.81609702 0.51291001 -0.26628742,
                          0.53568006 0.43067178 -0.72633934,
                          0.95749766 0.20593755 -0.20196071,
                          0.93267173 0.012037881 -0.36052564,
                          0.84697044 0.060883325 -0.52814233,
                          0.93835402 -0.31451052 -0.14344007,
                          0.97686988 -0.11539521 -0.18002565,
                          0.96075326 0.22272965 -0.16536239,
                          0.96682221 -0.25330621 -0.033026855,
                          0.98835468 -0.061767146 -0.13906839,
                          0.7276758 -0.68523616 0.030649599,
                          0.89544946 0.35993946 -0.26194263,
                          0.93480325 0.25723225 -0.24489687,
                          0.74950439 0.31906837 -0.58003318,
                          0.9409104 0.18319525 -0.28482854,
                          0.91914129 -0.27681726 -0.28027046,
                          0.94425714 -0.27297053 -0.18402606,
                          0.93631268 -0.18291059 -0.29977068,
                          0.80285549 -0.5911814 -0.076992579,
                          0.71078229 -0.70317483 -0.018270547,
                          0.96609282 -0.18683691 -0.17820419,
                          0.47982931 -0.45567104 -0.74975175,
                          0.66473716 0.54493648 -0.51104683,
                          0.65613371 0.74206662 -0.13720688,
                          0.45622608 -0.38721108 -0.8012026,
                          0.64891267 0.54962331 -0.52614313,
                          0.76934475 0.62198693 -0.14574307,
                          0.6462481 0.73412395 -0.2083877,
                          0.65365613 0.5219664 -0.54798251,
                          0.84000403 0.29386368 -0.45611113,
                          0.69978815 0.45738527 -0.54872143,
                          0.69685704 0.61401165 -0.37064821,
                          0.63544858 0.62939626 -0.44728684,
                          0.8043921 0.41527888 -0.42484912,
                          0.66095322 0.64052898 -0.39097771,
                          0.73557872 0.61023301 -0.29417619,
                          0.59981382 0.79974341 -0.025179222,
                          0.66927099 0.7101472 -0.21855743,
                          0.82758009 0.51735222 -0.21784872,
                          0.86092639 0.46846822 -0.19835173,
                          0.72776377 0.6343649 -0.26065502,
                          0.95414996 -0.069919437 -0.29104829,
                          0.80833292 -0.11630932 -0.57712221,
                          0.88679135 0.027559822 -0.46134755,
                          0.85691625 0.46835259 -0.2152686,
                          0.64149684 -0.172252 -0.74753672,
                          0.85646534 0.46942657 -0.21472271,
                          0.79708433 0.5682838 -0.20423058,
                          0.93855083 -0.1378963 -0.31639704,
                          0.7361986 0.61268914 -0.28744349,
                          0.9323222 0.062158722 -0.35624659,
                          0.79233062 -0.21357945 -0.57148588,
                          0.7240057 0.64794189 -0.23661602,
                          -0.58503044 0.15459576 -0.79614043,
                          -0.37922207 0.42520449 0.82182235,
                          0.7517345 0.49615741 0.43442288,
                          -0.22204266 0.92756093 0.30054602,
                          -0.7981047 -0.51247066 0.31686422,
                          -0.15063733 -0.95536697 -0.2541306,
                          0.024777304 0.52009571 -0.85374862,
                          -0.12556438 0.60135525 0.78905356,
                          -0.057173699 0.95967472 0.27523765,
                          0.036683932 -0.86694962 -0.49704406,
                          -0.5718829 0.2241576 -0.78911555,
                          -0.40020025 -0.091919482 0.91180629,
                          0.84436417 -0.10680641 0.52501595,
                          -0.92008299 0.12325765 0.37182659,
                          -0.0011806325 0.00047035058 -0.99999923,
                          -0.13366948 -0.092503965 0.98669934,
                          0.81058443 0.48630759 -0.32627887,
                          -0.3339892 0.93848586 -0.087724693,
                          -0.73639452 -0.61285061 -0.28659612,
                          -0.19558556 -0.97265333 -0.12526673,
                          -0.026598666 0.99928415 0.026903693,
                          0.10533651 -0.99333984 -0.046694573,
                          -0.9327814 0.1051051 -0.34477812,
                          0.0026015276 0.61569089 0.7879836,
                          0.019074228 0.97167528 0.23554941,
                          0.37048581 -0.76923406 -0.52059507,
                          0.024668338 -0.11291302 0.99329865,
                          0.097506143 0.98822266 -0.11793495,
                          0.42350072 -0.88372403 -0.19919565,
                          -0.0091265105 0.38917899 -0.92111695,
                          -0.22132553 0.55820137 0.79964131,
                          -0.095327884 0.92542869 0.36673492,
                          -0.069516458 -0.95668721 -0.28269619,
                          0.0014519591 0.00082945713 -0.99999869,
                          -0.25311086 -0.076738514 0.96438903,
                          -0.023096502 0.99963719 0.013858861,
                          0.05066666 -0.94562441 -0.32129014,
                          0.72277075 0.68830311 -0.061978586,
                          -0.30762357 0.95141619 0.013233374,
                          -0.76987004 -0.63640738 -0.04781042,
                          -0.009066754 0.99902886 0.043118704,
                          0.94024193 -0.27165887 -0.2052965,
                          -0.99185371 0.12697592 0.010165109,
                          -0.30378884 -0.94335854 -0.1333679,
                          0.032990258 -0.97949368 0.19875592,
                          0.030612005 0.998586 0.043462139,
                          0.12053481 -0.98534936 0.12065712,
                          -0.015701171 0.99914819 0.038162716,
                          0.0033080464 -0.95503879 0.29646242,
                          -0.25602022 -0.96667141 0.00032488129,
                          -0.063313328 -0.97166103 0.22774208,
                          -0.4650993 0.87821496 -0.1114505,
                          -0.82351708 -0.44025874 -0.35775951,
                          -0.060021795 0.99812031 -0.012379351,
                          -0.86994821 0.084994122 -0.48576334,
                          -0.17675282 -0.98231739 -0.061733469,
                          -0.1408352 0.99000436 0.0075408053,
                          -0.91555887 -0.11076505 0.38663054,
                          -0.48477447 -0.37657538 -0.78942049,
                          -0.30126595 -0.53241009 0.79106158,
                          0.59729975 -0.62751549 0.49945709,
                          0.17753339 -0.47141349 -0.86385834,
                          -0.087370679 -0.5518719 0.82933944,
                          -0.92741996 -0.12830606 -0.35132605,
                          0.70313245 -0.70349669 -0.10342687,
                          0.01597468 -0.50934297 0.86041534,
                          -0.11393578 -0.48522109 -0.86693668,
                          -0.19339812 -0.50980401 0.83827037,
                          -0.99016404 -0.13982303 0.0049699033,
                          0.67941332 -0.7139672 -0.16925833,
                          -0.87201226 -0.050395247 -0.48688298,
                          -0.58217895 0.088656038 -0.80821282,
                          -0.40485808 0.098892204 0.90901613,
                          0.87068689 0.089137584 0.48369285,
                          -0.0015299862 -0.001127108 -0.99999821,
                          -0.14671513 0.10573361 0.98351169,
                          -0.73181611 0.66115749 0.16527559,
                          0.96452117 0.037411787 -0.2613413,
                          -0.7469449 0.6211037 -0.23728377,
                          0.020557398 0.11433379 0.99322969,
                          0.00088646618 -0.0024636853 -0.99999666,
                          -0.25619483 0.088387117 0.96257573,
                          0.98891485 0.098957323 -0.11070175,
                          -0.71351272 0.70064086 -0.0014199235,
                          -0.83833075 0.39543837 -0.37527356,
                          -0.30744156 0.25173002 -0.91766644,
                          -0.42748794 0.49129492 0.75886983,
                          -0.20329016 0.90769523 0.36710036,
                          -0.05269945 -0.97081113 -0.23398426,
                          -0.24513789 0.0195115 -0.96929193,
                          -0.48576984 -0.091108687 0.86932564,
                          -0.12729461 0.99170065 -0.018053442,
                          -0.26786655 -0.87883586 -0.39483568,
                          -0.088857502 0.99568725 0.02666904,
                          -0.21287417 -0.9512428 0.22320777,
                          -0.095200941 -0.99526936 -0.019387562,
                          -0.17357109 0.98420489 -0.034841262,
                          -0.20559844 -0.47593489 -0.85511136,
                          -0.42680249 -0.51696765 0.74201351,
                          -0.48679468 0.097357489 -0.868074,
                          -0.47851375 0.080140918 0.87441534,
                          -0.0043650814 0.34665385 -0.93798298,
                          -0.31349123 0.57531995 0.755467,
                          -0.12297652 0.94665092 0.29787412,
                          -0.34538722 -0.8562929 -0.38401845,
                          -4.9759448e-005 0.00090108078 -0.99999964,
                          -0.36201996 -0.080348402 0.9287011,
                          -0.026403924 0.99956757 0.012941963,
                          0.11220556 -0.99296671 -0.037777711,
                          -0.025453309 0.9986968 0.044238977,
                          0.033004198 -0.97072583 0.23791213,
                          -0.033228002 -0.99762964 0.060258329,
                          -0.045117114 0.99850172 0.030966872,
                          -0.095917985 -0.32946846 -0.93928182,
                          -0.26165333 -0.52898681 0.80728596,
                          1.6330519e-005 -0.002191761 -0.99999768,
                          -0.37246719 0.092747301 0.92339933,
                          0.553352 0.44490272 -0.70417553,
                          -0.036495797 0.61474663 0.78787977,
                          -0.028036375 0.9651714 0.26011184,
                          0.47293165 -0.72016793 -0.50763565,
                          0.51336175 0.0095554339 -0.85811913,
                          -0.018994182 -0.10553579 0.99423414,
                          -0.063444123 0.99715215 0.040773734,
                          0.070438661 -0.9661113 -0.24832934,
                          -0.018659605 0.99839628 0.053448055,
                          -0.2388 -0.95921791 0.15124662,
                          -0.013669979 0.98725247 -0.15857419,
                          0.52375102 -0.27343619 -0.80679464,
                          -0.0057471818 -0.5225867 0.85256678,
                          0.57516128 0.26092944 -0.77530992,
                          -0.030750642 0.1091577 0.99354869,
                          0.13284624 0.40726155 0.90359843,
                          0.15071231 0.97988075 0.13084234,
                          0.14808302 -0.10918275 0.98292965,
                          0.40056363 0.86611956 -0.29897439,
                          0.58077258 -0.76874232 -0.26784039,
                          0.28246045 0.95924878 -0.0076076849,
                          0.2678073 -0.96190155 0.05499791,
                          0.051728379 -0.48994857 0.87021524,
                          0.16766965 0.073830739 0.98307478,
                          -0.24659514 -0.96848017 -0.035171214,
                          -0.2207053 -0.97448587 -0.04082264,
                          -0.12124638 -0.99133086 -0.050619964,
                          -0.51237214 0.8066889 -0.29449588,
                          -0.80623358 -0.25710705 -0.53280717,
                          0.025281759 0.91523623 -0.40212381,
                          -0.75959659 0.088369019 -0.64436328,
                          -0.076806396 0.95785004 -0.27681056,
                          -0.75897276 0.13799877 -0.63633072,
                          -0.85752982 0.084883086 -0.50738293,
                          -0.050659657 -0.99825644 -0.030296441,
                          -0.18713564 0.95420063 -0.23341277,
                          -0.37810543 -0.92123407 0.091456428,
                          -0.070849359 0.9584356 -0.27637231,
                          0.32107472 -0.93993032 -0.1159397,
                          0.33429426 0.74685627 -0.57485056,
                          -0.3664048 0.92539471 -0.096913151,
                          -0.74395347 -0.60741943 -0.27852291,
                          -0.044810936 0.99793744 0.045966942,
                          -0.92410618 0.086916156 -0.37212005,
                          -0.049191318 0.99859333 0.019793604,
                          -0.22638541 -0.96900123 -0.098925456,
                          -0.057505298 -0.99601763 0.068133026,
                          -0.080817126 -0.99334699 0.082039095,
                          -0.91664767 -0.12484776 -0.37969747,
                          -0.78850347 0.5519284 -0.27136242,
                          -0.16823567 0.98545456 -0.024002291,
                          -0.15292382 -0.98799229 -0.022036184,
                          -0.02816331 0.9990527 0.03317678,
                          -0.022301806 -0.9971292 -0.072360873,
                          -0.080863133 0.99670535 0.0062920377,
                          -0.26593599 -0.95474553 -0.13318802,
                          0.092509374 -0.99571097 0.0013099343,
                          0.25194785 -0.96743971 -0.024139311,
                          0.048090704 -0.99791497 -0.043047071,
                          0.72959256 0.65602756 -0.19319053,
                          -0.31710988 0.94752538 -0.040459499,
                          -0.76669711 -0.62588626 -0.14297526,
                          -0.0061473656 0.99973029 0.022400156,
                          0.91096818 -0.25835943 -0.32153922,
                          -0.97869426 0.12463807 -0.16316548,
                          0.043360282 0.99898881 0.011893321,
                          -0.014314609 0.99988717 0.0045570452,
                          -0.97668475 -0.13814966 -0.16432144,
                          0.63253444 -0.67173547 -0.38557956,
                          0.96946841 0.063701428 -0.23679766,
                          -0.71948981 0.68644816 -0.10546795,
                          -0.33951947 -0.93299139 -0.11938857,
                          -0.084762372 0.99637508 -0.0072161001,
                          0.15252949 -0.9882983 0.0011178891,
                          -0.025314329 0.99967211 0.0038517427,
                          -0.2382156 -0.97095174 -0.02249461,
                          -0.030627683 0.99831194 0.049348667,
                          0.3522754 -0.92781812 -0.12270174,
                          0.33769941 0.9401021 -0.046552215,
                          0.70861709 0.70553792 0.0088386126,
                          -0.27949935 0.95810145 0.062624522,
                          -0.76042926 -0.64812344 -0.041029975,
                          -0.020166898 0.98863065 0.14900643,
                          0.98775262 -0.15173592 -0.036345899,
                          -0.99042392 0.12808035 0.05153637,
                          0.03082259 0.9879458 0.15170112,
                          -0.022398653 0.99248081 0.12033412,
                          -0.21671443 -0.89870048 0.38127753,
                          -0.0056029041 -0.91602427 0.40108398,
                          0.087598756 -0.79447776 0.60094225,
                          -0.077941239 -0.8874197 0.45432547,
                          -0.99056041 -0.12781288 0.049536489,
                          0.67731106 -0.73557204 -0.01354578,
                          0.99570519 0.092540547 0.0027563171,
                          -0.741898 0.67034012 0.015214965,
                          -0.10329578 0.99002975 0.095766202,
                          -0.25644118 -0.85314691 0.45428878,
                          -0.021687759 0.98856461 0.14923045,
                          -0.074916065 -0.91059834 0.40644595,
                          -0.011408079 0.98733836 0.15821785,
                          -0.25337887 -0.75374496 0.6063562,
                          0.15913349 0.98636812 0.041887373,
                          0.1932276 -0.83047956 0.52246231,
                          0.97883391 -0.16118973 -0.12610394,
                          0.60695273 0.76734966 -0.20684078,
                          0.6685729 0.63215971 -0.39164323,
                          0.32458076 0.902201 -0.28404352,
                          0.67649865 0.70551252 -0.21119115 ]

                    }
                    coordIndex [ 0, 1, 2, -1, 3, 4, 5, -1,
                        6, 7, 8, -1, 9, 10, 5, -1,
                        11, 12, 13, -1, 14, 15, 16, -1,
                        17, 18, 19, -1, 20, 21, 22, -1,
                        23, 24, 21, -1, 25, 26, 27, -1,
                        28, 29, 30, -1, 31, 32, 33, -1,
                        34, 35, 36, -1, 37, 32, 38, -1,
                        39, 40, 41, -1, 42, 43, 44, -1,
                        45, 46, 47, -1, 48, 49, 50, -1,
                        51, 52, 53, -1, 54, 55, 53, -1,
                        56, 57, 58, -1, 59, 60, 61, -1,
                        62, 63, 64, -1, 65, 66, 67, -1,
                        68, 69, 70, -1, 71, 70, 69, -1,
                        72, 73, 74, -1, 75, 76, 77, -1,
                        78, 79, 80, -1, 81, 82, 83, -1,
                        84, 85, 86, -1, 87, 88, 89, -1,
                        90, 91, 92, -1, 93, 94, 91, -1,
                        95, 96, 97, -1, 98, 99, 100, -1,
                        101, 102, 103, -1, 104, 105, 106, -1,
                        107, 108, 109, -1, 110, 111, 112, -1,
                        113, 114, 115, -1, 55, 116, 117, -1,
                        118, 119, 120, -1, 121, 122, 123, -1,
                        124, 125, 126, -1, 12, 116, 127, -1,
                        128, 129, 130, -1, 131, 132, 133, -1,
                        134, 135, 136, -1, 137, 138, 139, -1,
                        140, 141, 142, -1, 143, 52, 144, -1,
                        145, 146, 147, -1, 148, 149, 150, -1,
                        151, 15, 144, -1, 152, 153, 154, -1,
                        155, 156, 157, -1, 158, 159, 160, -1,
                        161, 162, 163, -1, 164, 165, 166, -1,
                        167, 168, 169, -1, 11, 33, 32, -1,
                        170, 16, 29, -1, 171, 33, 13, -1,
                        172, 36, 173, -1, 26, 39, 174, -1,
                        175, 42, 176, -1, 62, 51, 177, -1,
                        178, 179, 180, -1, 181, 78, 182, -1,
                        97, 99, 98, -1, 183, 101, 184, -1,
                        185, 117, 125, -1, 186, 123, 187, -1,
                        155, 151, 188, -1, 30, 0, 189, -1,
                        31, 3, 38, -1, 6, 190, 35, -1,
                        40, 17, 191, -1, 192, 22, 44, -1,
                        193, 38, 5, -1, 194, 45, 195, -1,
                        196, 64, 49, -1, 77, 197, 65, -1,
                        79, 68, 198, -1, 199, 100, 87, -1,
                        103, 102, 200, -1, 121, 110, 201, -1,
                        202, 126, 115, -1, 203, 157, 149, -1,
                        88, 87, 189, -1, 91, 4, 3, -1,
                        94, 9, 4, -1, 96, 14, 170, -1,
                        28, 204, 100, -1, 184, 103, 31, -1,
                        205, 50, 106, -1, 54, 206, 108, -1,
                        138, 113, 207, -1, 208, 127, 141, -1,
                        164, 143, 209, -1, 210, 150, 168, -1,
                        97, 170, 28, -1, 211, 184, 171, -1,
                        87, 100, 204, -1, 92, 3, 31, -1,
                        212, 89, 18, -1, 21, 90, 200, -1,
                        24, 93, 90, -1, 95, 213, 26, -1,
                        39, 98, 199, -1, 176, 44, 102, -1,
                        57, 104, 214, -1, 215, 109, 61, -1,
                        119, 137, 216, -1, 217, 142, 129, -1,
                        218, 166, 146, -1, 153, 219, 169, -1,
                        213, 98, 39, -1, 220, 176, 101, -1,
                        199, 212, 17, -1, 22, 200, 102, -1,
                        197, 191, 19, -1, 70, 20, 192, -1,
                        71, 23, 20, -1, 221, 27, 222, -1,
                        174, 41, 223, -1, 182, 80, 43, -1,
                        82, 56, 224, -1, 86, 59, 225, -1,
                        132, 118, 226, -1, 134, 227, 130, -1,
                        228, 229, 160, -1, 230, 152, 231, -1,
                        27, 174, 76, -1, 232, 182, 42, -1,
                        223, 41, 191, -1, 80, 198, 192, -1,
                        8, 69, 68, -1, 233, 69, 8, -1,
                        234, 235, 77, -1, 236, 237, 77, -1,
                        237, 238, 75, -1, 36, 35, 79, -1,
                        46, 81, 239, -1, 240, 241, 85, -1,
                        111, 131, 242, -1, 243, 136, 187, -1,
                        173, 36, 78, -1, 234, 77, 244, -1,
                        190, 68, 79, -1, 209, 144, 15, -1,
                        146, 25, 221, -1, 245, 246, 247, -1,
                        166, 165, 96, -1, 1, 148, 210, -1,
                        29, 16, 15, -1, 19, 18, 153, -1,
                        30, 155, 203, -1, 88, 167, 219, -1,
                        30, 29, 151, -1, 0, 203, 148, -1,
                        165, 209, 14, -1, 2, 210, 167, -1,
                        146, 166, 95, -1, 153, 18, 89, -1,
                        147, 221, 74, -1, 66, 19, 152, -1,
                        248, 249, 46, -1, 248, 46, 250, -1,
                        149, 48, 205, -1, 188, 144, 52, -1,
                        231, 154, 57, -1, 156, 62, 196, -1,
                        169, 168, 105, -1, 206, 53, 52, -1,
                        225, 61, 145, -1, 251, 252, 228, -1,
                        108, 164, 218, -1, 156, 188, 51, -1,
                        194, 253, 45, -1, 157, 196, 48, -1,
                        150, 205, 105, -1, 108, 206, 143, -1,
                        154, 169, 104, -1, 61, 109, 218, -1,
                        254, 231, 56, -1, 228, 252, 229, -1,
                        84, 178, 240, -1, 116, 55, 54, -1,
                        59, 130, 129, -1, 85, 136, 135, -1,
                        141, 107, 215, -1, 195, 47, 111, -1,
                        49, 114, 113, -1, 177, 53, 55, -1,
                        224, 58, 119, -1, 180, 255, 121, -1,
                        63, 124, 202, -1, 239, 83, 132, -1,
                        214, 106, 138, -1, 63, 177, 185, -1,
                        240, 180, 186, -1, 255, 195, 110, -1,
                        64, 202, 114, -1, 127, 54, 107, -1,
                        106, 50, 113, -1, 142, 215, 60, -1,
                        58, 214, 137, -1, 130, 59, 86, -1,
                        83, 224, 118, -1, 136, 85, 241, -1,
                        47, 239, 131, -1, 201, 112, 7, -1,
                        207, 115, 10, -1, 116, 12, 11, -1,
                        226, 120, 24, -1, 122, 34, 172, -1,
                        125, 37, 193, -1, 133, 71, 233, -1,
                        216, 139, 94, -1, 13, 12, 208, -1,
                        220, 128, 227, -1, 181, 232, 134, -1,
                        211, 140, 217, -1, 117, 11, 37, -1,
                        123, 172, 256, -1, 122, 201, 6, -1,
                        115, 126, 193, -1, 139, 207, 9, -1,
                        257, 208, 140, -1, 120, 216, 93, -1,
                        183, 217, 128, -1, 133, 226, 23, -1,
                        232, 175, 227, -1, 112, 242, 233, -1,
                        173, 181, 243, -1, 258, 259, 260, -1,
                        261, 260, 262, -1, 77, 237, 75, -1,
                        263, 264, 265, -1, 266, 246, 245, -1,
                        267, 245, 264, -1, 235, 266, 236, -1,
                        268, 262, 158, -1, 75, 222, 76, -1,
                        162, 265, 264, -1, 269, 270, 194, -1,
                        271, 263, 265, -1, 258, 267, 263, -1,
                        261, 266, 267, -1, 236, 266, 237, -1,
                        272, 273, 274, -1, 274, 260, 259, -1,
                        275, 276, 277, -1, 77, 235, 236, -1,
                        161, 65, 67, -1, 160, 229, 147, -1,
                        250, 277, 248, -1, 277, 278, 248, -1,
                        279, 274, 276, -1, 276, 259, 271, -1,
                        251, 178, 84, -1, 251, 280, 272, -1,
                        179, 251, 281, -1, 179, 178, 251, -1,
                        279, 281, 272, -1, 194, 255, 180, -1,
                        251, 228, 280, -1, 223, 197, 77, -1,
                        45, 250, 46, -1, 282, 253, 275, -1,
                        77, 76, 223, -1, 197, 66, 65, -1,
                        244, 246, 234, -1, 282, 277, 250, -1,
                        179, 269, 180, -1, 281, 269, 179, -1,
                        270, 279, 275, -1, 283, 275, 253, -1,
                        73, 268, 74, -1, 74, 268, 158, -1,
                        160, 74, 158, -1, 162, 264, 163, -1,
                        273, 159, 158, -1, 273, 262, 260, -1,
                        160, 159, 228, -1, 228, 159, 280, -1,
                        280, 273, 272, -1, 278, 249, 248, -1,
                        84, 252, 251, -1, 283, 253, 194, -1,
                        229, 252, 225, -1, 263, 259, 258, -1,
                        258, 260, 261, -1, 72, 284, 73, -1,
                        267, 264, 263, -1, 266, 245, 267, -1,
                        246, 266, 235, -1, 73, 262, 268, -1,
                        285, 265, 162, -1, 244, 77, 65, -1,
                        259, 263, 271, -1, 261, 267, 258, -1,
                        237, 266, 238, -1, 273, 260, 274, -1,
                        279, 276, 275, -1, 276, 271, 277, -1,
                        272, 274, 279, -1, 274, 259, 276, -1,
                        272, 281, 251, -1, 282, 250, 45, -1,
                        45, 253, 282, -1, 234, 246, 235, -1,
                        275, 277, 282, -1, 270, 269, 281, -1,
                        281, 279, 270, -1, 270, 275, 283, -1,
                        158, 262, 273, -1, 159, 273, 280, -1,
                        194, 270, 283, -1, 286, 72, 222, -1,
                        161, 163, 247, -1, 287, 230, 254, -1,
                        286, 222, 75, -1, 247, 65, 161, -1,
                        288, 289, 290, -1, 288, 290, 287, -1,
                        247, 244, 65, -1, 163, 264, 247, -1,
                        246, 244, 247, -1, 287, 162, 161, -1,
                        67, 66, 230, -1, 247, 264, 245, -1,
                        161, 67, 287, -1, 249, 278, 288, -1,
                        288, 254, 82, -1, 249, 288, 81, -1,
                        285, 289, 265, -1, 289, 271, 265, -1,
                        287, 290, 285, -1, 262, 284, 261, -1,
                        284, 72, 286, -1, 238, 266, 284, -1,
                        277, 271, 289, -1, 75, 238, 286, -1,
                        289, 278, 277, -1, 290, 289, 285, -1,
                        73, 284, 262, -1, 287, 285, 162, -1,
                        284, 266, 261, -1, 284, 286, 238, -1,
                        288, 278, 289, -1, 189, 0, 2, -1,
                        38, 3, 5, -1, 190, 6, 8, -1,
                        4, 9, 5, -1, 33, 11, 13, -1,
                        170, 14, 16, -1, 191, 17, 19, -1,
                        192, 20, 22, -1, 20, 23, 21, -1,
                        221, 25, 27, -1, 204, 28, 30, -1,
                        171, 31, 33, -1, 172, 34, 36, -1,
                        193, 37, 38, -1, 174, 39, 41, -1,
                        176, 42, 44, -1, 195, 45, 47, -1,
                        205, 48, 50, -1, 177, 51, 53, -1,
                        206, 54, 53, -1, 224, 56, 58, -1,
                        225, 59, 61, -1, 196, 62, 64, -1,
                        198, 68, 70, -1, 233, 71, 69, -1,
                        222, 72, 74, -1, 182, 78, 80, -1,
                        239, 81, 83, -1, 252, 84, 86, -1,
                        212, 87, 89, -1, 200, 90, 92, -1,
                        90, 93, 91, -1, 213, 95, 97, -1,
                        199, 98, 100, -1, 184, 101, 103, -1,
                        214, 104, 106, -1, 215, 107, 109, -1,
                        201, 110, 112, -1, 207, 113, 115, -1,
                        185, 55, 117, -1, 226, 118, 120, -1,
                        186, 121, 123, -1, 202, 124, 126, -1,
                        208, 12, 127, -1, 227, 128, 130, -1,
                        242, 131, 133, -1, 243, 134, 136, -1,
                        216, 137, 139, -1, 217, 140, 142, -1,
                        209, 143, 144, -1, 229, 145, 147, -1,
                        210, 148, 150, -1, 188, 151, 144, -1,
                        231, 152, 154, -1, 203, 155, 157, -1,
                        218, 164, 166, -1, 219, 167, 169, -1,
                        37, 11, 32, -1, 28, 170, 29, -1,
                        257, 171, 13, -1, 256, 172, 173, -1,
                        27, 26, 174, -1, 220, 175, 176, -1,
                        63, 62, 177, -1, 240, 178, 180, -1,
                        232, 181, 182, -1, 213, 97, 98, -1,
                        211, 183, 184, -1, 124, 185, 125, -1,
                        241, 186, 187, -1, 156, 155, 188, -1,
                        204, 30, 189, -1, 32, 31, 38, -1,
                        34, 6, 35, -1, 41, 40, 191, -1,
                        43, 192, 44, -1, 10, 193, 5, -1,
                        255, 194, 195, -1, 48, 196, 49, -1,
                        80, 79, 198, -1, 212, 199, 87, -1,
                        92, 103, 200, -1, 122, 121, 201, -1,
                        114, 202, 115, -1, 148, 203, 149, -1,
                        2, 88, 189, -1, 92, 91, 3, -1,
                        91, 94, 4, -1, 97, 96, 170, -1,
                        99, 28, 100, -1, 171, 184, 31, -1,
                        105, 205, 106, -1, 107, 54, 108, -1,
                        139, 138, 207, -1, 140, 208, 141, -1,
                        165, 164, 209, -1, 167, 210, 168, -1,
                        99, 97, 28, -1, 257, 211, 171, -1,
                        189, 87, 204, -1, 103, 92, 31, -1,
                        17, 212, 18, -1, 22, 21, 200, -1,
                        21, 24, 90, -1, 25, 95, 26, -1,
                        40, 39, 199, -1, 101, 176, 102, -1,
                        58, 57, 214, -1, 60, 215, 61, -1,
                        120, 119, 216, -1, 128, 217, 129, -1,
                        145, 218, 146, -1, 154, 153, 169, -1,
                        26, 213, 39, -1, 183, 220, 101, -1,
                        40, 199, 17, -1, 44, 22, 102, -1,
                        66, 197, 19, -1, 198, 70, 192, -1,
                        70, 71, 20, -1, 74, 221, 222, -1,
                        76, 174, 223, -1, 42, 182, 43, -1,
                        83, 82, 224, -1, 252, 86, 225, -1,
                        133, 132, 226, -1, 135, 134, 130, -1,
                        254, 230, 231, -1, 222, 27, 76, -1,
                        175, 232, 42, -1, 197, 223, 191, -1,
                        43, 80, 192, -1, 190, 8, 68, -1,
                        7, 233, 8, -1, 78, 36, 79, -1,
                        47, 46, 239, -1, 84, 240, 85, -1,
                        112, 111, 242, -1, 256, 243, 187, -1,
                        181, 173, 78, -1, 35, 190, 79, -1,
                        14, 209, 15, -1, 147, 146, 221, -1,
                        95, 166, 96, -1, 2, 1, 210, -1,
                        151, 29, 15, -1, 152, 19, 153, -1,
                        0, 30, 203, -1, 89, 88, 219, -1,
                        155, 30, 151, -1, 1, 0, 148, -1,
                        96, 165, 14, -1, 88, 2, 167, -1,
                        25, 146, 95, -1, 219, 153, 89, -1,
                        160, 147, 74, -1, 230, 66, 152, -1,
                        150, 149, 205, -1, 51, 188, 52, -1,
                        56, 231, 57, -1, 157, 156, 196, -1,
                        104, 169, 105, -1, 143, 206, 52, -1,
                        229, 225, 145, -1, 109, 108, 218, -1,
                        62, 156, 51, -1, 149, 157, 48, -1,
                        168, 150, 105, -1, 164, 108, 143, -1,
                        57, 154, 104, -1, 145, 61, 218, -1,
                        82, 254, 56, -1, 127, 116, 54, -1,
                        60, 59, 129, -1, 86, 85, 135, -1,
                        142, 141, 215, -1, 110, 195, 111, -1,
                        50, 49, 113, -1, 185, 177, 55, -1,
                        118, 224, 119, -1, 186, 180, 121, -1,
                        64, 63, 202, -1, 131, 239, 132, -1,
                        137, 214, 138, -1, 124, 63, 185, -1,
                        241, 240, 186, -1, 121, 255, 110, -1,
                        49, 64, 114, -1, 141, 127, 107, -1,
                        138, 106, 113, -1, 129, 142, 60, -1,
                        119, 58, 137, -1, 135, 130, 86, -1,
                        132, 83, 118, -1, 187, 136, 241, -1,
                        111, 47, 131, -1, 6, 201, 7, -1,
                        9, 207, 10, -1, 117, 116, 11, -1,
                        23, 226, 24, -1, 123, 122, 172, -1,
                        126, 125, 193, -1, 242, 133, 233, -1,
                        93, 216, 94, -1, 257, 13, 208, -1,
                        175, 220, 227, -1, 243, 181, 134, -1,
                        183, 211, 217, -1, 125, 117, 37, -1,
                        187, 123, 256, -1, 34, 122, 6, -1,
                        10, 115, 193, -1, 94, 139, 9, -1,
                        211, 257, 140, -1, 24, 120, 93, -1,
                        220, 183, 128, -1, 71, 133, 23, -1,
                        134, 232, 227, -1, 7, 112, 233, -1,
                        256, 173, 243, -1, 269, 194, 180, -1,
                        288, 287, 254, -1, 287, 67, 230, -1,
                        81, 288, 82, -1, 46, 249, 81, -1 ]
                    normalIndex [ 0, 0, 0, -1, 1, 1, 1, -1,
                        2, 2, 2, -1, 3, 3, 3, -1,
                        4, 4, 4, -1, 5, 5, 5, -1,
                        6, 6, 6, -1, 7, 7, 7, -1,
                        8, 8, 8, -1, 9, 9, 9, -1,
                        10, 10, 10, -1, 11, 11, 11, -1,
                        12, 12, 12, -1, 13, 13, 13, -1,
                        14, 14, 14, -1, 15, 15, 15, -1,
                        16, 16, 16, -1, 17, 17, 17, -1,
                        18, 18, 18, -1, 19, 19, 19, -1,
                        20, 20, 20, -1, 21, 21, 21, -1,
                        22, 22, 22, -1, 23, 23, 23, -1,
                        24, 24, 24, -1, 25, 25, 25, -1,
                        26, 26, 26, -1, 27, 27, 27, -1,
                        28, 28, 28, -1, 29, 29, 29, -1,
                        30, 30, 30, -1, 31, 31, 31, -1,
                        32, 32, 32, -1, 33, 33, 33, -1,
                        34, 34, 34, -1, 35, 35, 35, -1,
                        36, 36, 36, -1, 37, 37, 37, -1,
                        38, 38, 38, -1, 39, 39, 39, -1,
                        40, 40, 40, -1, 41, 41, 41, -1,
                        42, 42, 42, -1, 43, 43, 43, -1,
                        44, 44, 44, -1, 45, 45, 45, -1,
                        46, 46, 46, -1, 47, 47, 47, -1,
                        48, 48, 48, -1, 49, 49, 49, -1,
                        50, 50, 50, -1, 51, 51, 51, -1,
                        52, 52, 52, -1, 53, 53, 53, -1,
                        54, 54, 54, -1, 55, 55, 55, -1,
                        56, 56, 56, -1, 57, 57, 57, -1,
                        58, 58, 58, -1, 59, 59, 59, -1,
                        60, 60, 60, -1, 61, 61, 61, -1,
                        62, 62, 62, -1, 63, 63, 63, -1,
                        64, 64, 64, -1, 65, 65, 65, -1,
                        66, 66, 66, -1, 67, 67, 67, -1,
                        68, 68, 68, -1, 69, 69, 69, -1,
                        70, 70, 70, -1, 71, 71, 71, -1,
                        72, 72, 72, -1, 73, 73, 73, -1,
                        74, 74, 74, -1, 75, 75, 75, -1,
                        76, 76, 76, -1, 77, 77, 77, -1,
                        78, 78, 78, -1, 79, 79, 79, -1,
                        80, 80, 80, -1, 81, 81, 81, -1,
                        82, 82, 82, -1, 83, 83, 83, -1,
                        84, 84, 84, -1, 85, 85, 85, -1,
                        86, 86, 86, -1, 87, 87, 87, -1,
                        88, 88, 88, -1, 89, 89, 89, -1,
                        90, 90, 90, -1, 91, 91, 91, -1,
                        92, 92, 92, -1, 93, 93, 93, -1,
                        94, 94, 94, -1, 95, 95, 95, -1,
                        96, 96, 96, -1, 97, 97, 97, -1,
                        98, 98, 98, -1, 99, 99, 99, -1,
                        100, 100, 100, -1, 101, 101, 101, -1,
                        102, 102, 102, -1, 103, 103, 103, -1,
                        104, 104, 104, -1, 105, 105, 105, -1,
                        106, 106, 106, -1, 107, 107, 107, -1,
                        108, 108, 108, -1, 109, 109, 109, -1,
                        110, 110, 110, -1, 111, 111, 111, -1,
                        112, 112, 112, -1, 113, 113, 113, -1,
                        114, 114, 114, -1, 115, 115, 115, -1,
                        116, 116, 116, -1, 117, 117, 117, -1,
                        118, 118, 118, -1, 119, 119, 119, -1,
                        120, 120, 120, -1, 121, 121, 121, -1,
                        122, 122, 122, -1, 123, 123, 123, -1,
                        124, 124, 124, -1, 125, 125, 125, -1,
                        126, 126, 126, -1, 127, 127, 127, -1,
                        128, 128, 128, -1, 129, 129, 129, -1,
                        130, 130, 130, -1, 131, 131, 131, -1,
                        132, 132, 132, -1, 133, 133, 133, -1,
                        134, 134, 134, -1, 135, 135, 135, -1,
                        136, 136, 136, -1, 137, 137, 137, -1,
                        138, 138, 138, -1, 139, 139, 139, -1,
                        140, 140, 140, -1, 141, 141, 141, -1,
                        142, 142, 142, -1, 143, 143, 143, -1,
                        144, 144, 144, -1, 145, 145, 145, -1,
                        146, 146, 146, -1, 147, 147, 147, -1,
                        148, 148, 148, -1, 149, 149, 149, -1,
                        150, 150, 150, -1, 151, 151, 151, -1,
                        152, 152, 152, -1, 153, 153, 153, -1,
                        154, 154, 154, -1, 155, 155, 155, -1,
                        156, 156, 156, -1, 157, 157, 157, -1,
                        158, 158, 158, -1, 159, 159, 159, -1,
                        160, 160, 160, -1, 161, 161, 161, -1,
                        162, 162, 162, -1, 163, 163, 163, -1,
                        164, 164, 164, -1, 165, 165, 165, -1,
                        166, 166, 166, -1, 167, 167, 167, -1,
                        168, 168, 168, -1, 169, 169, 169, -1,
                        170, 170, 170, -1, 171, 171, 171, -1,
                        172, 172, 172, -1, 173, 173, 173, -1,
                        174, 174, 174, -1, 175, 175, 175, -1,
                        176, 176, 176, -1, 177, 177, 177, -1,
                        178, 178, 178, -1, 179, 179, 179, -1,
                        180, 180, 180, -1, 181, 181, 181, -1,
                        182, 182, 182, -1, 183, 183, 183, -1,
                        184, 184, 184, -1, 185, 185, 185, -1,
                        186, 186, 186, -1, 187, 187, 187, -1,
                        188, 188, 188, -1, 189, 189, 189, -1,
                        190, 190, 190, -1, 191, 191, 191, -1,
                        192, 192, 192, -1, 193, 193, 193, -1,
                        194, 194, 194, -1, 195, 195, 195, -1,
                        196, 196, 196, -1, 197, 197, 197, -1,
                        198, 198, 198, -1, 199, 199, 199, -1,
                        200, 200, 200, -1, 201, 201, 201, -1,
                        202, 202, 202, -1, 203, 203, 203, -1,
                        204, 204, 204, -1, 205, 205, 205, -1,
                        206, 206, 206, -1, 207, 207, 207, -1,
                        208, 208, 208, -1, 209, 209, 209, -1,
                        210, 210, 210, -1, 211, 211, 211, -1,
                        212, 212, 212, -1, 213, 213, 213, -1,
                        214, 214, 214, -1, 215, 215, 215, -1,
                        216, 216, 216, -1, 217, 217, 217, -1,
                        218, 218, 218, -1, 219, 219, 219, -1,
                        220, 220, 220, -1, 221, 221, 221, -1,
                        222, 222, 222, -1, 223, 223, 223, -1,
                        224, 224, 224, -1, 225, 225, 225, -1,
                        226, 226, 226, -1, 227, 227, 227, -1,
                        228, 228, 228, -1, 229, 229, 229, -1,
                        230, 230, 230, -1, 231, 231, 231, -1,
                        232, 232, 232, -1, 233, 233, 233, -1,
                        234, 234, 234, -1, 235, 235, 235, -1,
                        236, 236, 236, -1, 237, 237, 237, -1,
                        238, 238, 238, -1, 239, 239, 239, -1,
                        240, 240, 240, -1, 241, 241, 241, -1,
                        242, 242, 242, -1, 243, 243, 243, -1,
                        244, 244, 244, -1, 245, 245, 245, -1,
                        246, 246, 246, -1, 247, 247, 247, -1,
                        248, 248, 248, -1, 249, 249, 249, -1,
                        250, 250, 250, -1, 251, 251, 251, -1,
                        252, 252, 252, -1, 253, 253, 253, -1,
                        254, 254, 254, -1, 255, 255, 255, -1,
                        256, 256, 256, -1, 257, 257, 257, -1,
                        258, 258, 258, -1, 259, 259, 259, -1,
                        260, 260, 260, -1, 261, 261, 261, -1,
                        262, 262, 262, -1, 263, 263, 263, -1,
                        264, 264, 264, -1, 265, 265, 265, -1,
                        266, 266, 266, -1, 267, 267, 267, -1,
                        268, 268, 268, -1, 269, 269, 269, -1,
                        270, 270, 270, -1, 271, 271, 271, -1,
                        272, 272, 272, -1, 273, 273, 273, -1,
                        274, 274, 274, -1, 275, 275, 275, -1,
                        276, 276, 276, -1, 277, 277, 277, -1,
                        278, 278, 278, -1, 279, 279, 279, -1,
                        280, 280, 280, -1, 281, 281, 281, -1,
                        282, 282, 282, -1, 283, 283, 283, -1,
                        284, 284, 284, -1, 285, 285, 285, -1,
                        286, 286, 286, -1, 287, 287, 287, -1,
                        288, 288, 288, -1, 289, 289, 289, -1,
                        290, 290, 290, -1, 291, 291, 291, -1,
                        292, 292, 292, -1, 293, 293, 293, -1,
                        294, 294, 294, -1, 295, 295, 295, -1,
                        296, 296, 296, -1, 297, 297, 297, -1,
                        298, 298, 298, -1, 299, 299, 299, -1,
                        300, 300, 300, -1, 301, 301, 301, -1,
                        302, 302, 302, -1, 303, 303, 303, -1,
                        304, 304, 304, -1, 305, 305, 305, -1,
                        306, 306, 306, -1, 307, 307, 307, -1,
                        308, 308, 308, -1, 309, 309, 309, -1,
                        310, 310, 310, -1, 311, 311, 311, -1,
                        312, 312, 312, -1, 313, 313, 313, -1,
                        314, 314, 314, -1, 315, 315, 315, -1,
                        316, 316, 316, -1, 317, 317, 317, -1,
                        318, 318, 318, -1, 319, 319, 319, -1,
                        320, 320, 320, -1, 321, 321, 321, -1,
                        322, 322, 322, -1, 323, 323, 323, -1,
                        324, 324, 324, -1, 325, 325, 325, -1,
                        326, 326, 326, -1, 327, 327, 327, -1,
                        328, 328, 328, -1, 329, 329, 329, -1,
                        330, 330, 330, -1, 331, 331, 331, -1,
                        332, 332, 332, -1, 333, 333, 333, -1,
                        334, 334, 334, -1, 335, 335, 335, -1,
                        336, 336, 336, -1, 337, 337, 337, -1,
                        338, 338, 338, -1, 339, 339, 339, -1,
                        340, 340, 340, -1, 341, 341, 341, -1,
                        342, 342, 342, -1, 343, 343, 343, -1,
                        344, 344, 344, -1, 345, 345, 345, -1,
                        346, 346, 346, -1, 347, 347, 347, -1,
                        348, 348, 348, -1, 349, 349, 349, -1,
                        350, 350, 350, -1, 351, 351, 351, -1,
                        352, 352, 352, -1, 353, 353, 353, -1,
                        354, 354, 354, -1, 355, 355, 355, -1,
                        356, 356, 356, -1, 357, 357, 357, -1,
                        358, 358, 358, -1, 359, 359, 359, -1,
                        360, 360, 360, -1, 361, 361, 361, -1,
                        362, 362, 362, -1, 363, 363, 363, -1,
                        364, 364, 364, -1, 365, 365, 365, -1,
                        366, 366, 366, -1, 367, 367, 367, -1,
                        368, 368, 368, -1, 369, 369, 369, -1,
                        370, 370, 370, -1, 371, 371, 371, -1,
                        372, 372, 372, -1, 373, 373, 373, -1,
                        374, 374, 374, -1, 375, 375, 375, -1,
                        376, 376, 376, -1, 377, 377, 377, -1,
                        378, 378, 378, -1, 379, 379, 379, -1,
                        380, 380, 380, -1, 381, 381, 381, -1,
                        382, 382, 382, -1, 383, 383, 383, -1,
                        384, 384, 384, -1, 385, 385, 385, -1,
                        386, 386, 386, -1, 387, 387, 387, -1,
                        388, 388, 388, -1, 389, 389, 389, -1,
                        390, 390, 390, -1, 391, 391, 391, -1,
                        392, 392, 392, -1, 393, 393, 393, -1,
                        394, 394, 394, -1, 395, 395, 395, -1,
                        396, 396, 396, -1, 397, 397, 397, -1,
                        398, 398, 398, -1, 399, 399, 399, -1,
                        400, 400, 400, -1, 401, 401, 401, -1,
                        402, 402, 402, -1, 403, 403, 403, -1,
                        404, 404, 404, -1, 405, 405, 405, -1,
                        406, 406, 406, -1, 407, 407, 407, -1,
                        408, 408, 408, -1, 409, 409, 409, -1,
                        410, 410, 410, -1, 411, 411, 411, -1,
                        412, 412, 412, -1, 413, 413, 413, -1,
                        414, 414, 414, -1, 415, 415, 415, -1,
                        416, 416, 416, -1, 417, 417, 417, -1,
                        418, 418, 418, -1, 419, 419, 419, -1,
                        420, 420, 420, -1, 421, 421, 421, -1,
                        422, 422, 422, -1, 423, 423, 423, -1,
                        424, 424, 424, -1, 425, 425, 425, -1,
                        426, 426, 426, -1, 427, 427, 427, -1,
                        428, 428, 428, -1, 429, 429, 429, -1,
                        430, 430, 430, -1, 431, 431, 431, -1,
                        432, 432, 432, -1, 433, 433, 433, -1,
                        434, 434, 434, -1, 435, 435, 435, -1,
                        436, 436, 436, -1, 437, 437, 437, -1,
                        438, 438, 438, -1, 439, 439, 439, -1,
                        440, 440, 440, -1, 441, 441, 441, -1,
                        442, 442, 442, -1, 443, 443, 443, -1,
                        444, 444, 444, -1, 445, 445, 445, -1,
                        446, 446, 446, -1, 447, 447, 447, -1,
                        448, 448, 448, -1, 449, 449, 449, -1,
                        450, 450, 450, -1, 451, 451, 451, -1,
                        452, 452, 452, -1, 453, 453, 453, -1,
                        454, 454, 454, -1, 455, 455, 455, -1,
                        456, 456, 456, -1, 457, 457, 457, -1,
                        458, 110, 458, -1, 459, 459, 459, -1,
                        460, 460, 460, -1, 461, 461, 461, -1,
                        462, 462, 462, -1, 463, 463, 463, -1,
                        464, 464, 464, -1, 465, 465, 465, -1,
                        466, 466, 466, -1, 467, 467, 467, -1,
                        468, 468, 468, -1, 469, 469, 469, -1,
                        470, 470, 470, -1, 471, 471, 471, -1,
                        472, 472, 472, -1, 473, 473, 473, -1,
                        474, 474, 474, -1, 475, 475, 475, -1,
                        476, 476, 476, -1, 477, 477, 477, -1,
                        478, 478, 478, -1, 479, 479, 479, -1,
                        480, 480, 480, -1, 481, 481, 481, -1,
                        482, 482, 482, -1, 483, 483, 483, -1,
                        484, 484, 484, -1, 485, 485, 485, -1,
                        486, 486, 486, -1, 487, 487, 487, -1,
                        488, 488, 488, -1, 489, 489, 489, -1,
                        490, 490, 490, -1, 491, 491, 491, -1,
                        492, 492, 492, -1, 493, 493, 493, -1,
                        494, 494, 494, -1, 495, 495, 495, -1,
                        496, 496, 496, -1, 497, 497, 497, -1,
                        498, 498, 498, -1, 499, 499, 499, -1,
                        500, 500, 500, -1, 501, 501, 501, -1,
                        502, 502, 502, -1, 503, 503, 503, -1,
                        504, 504, 504, -1, 505, 505, 505, -1,
                        506, 506, 506, -1, 507, 507, 507, -1,
                        508, 508, 508, -1, 509, 509, 509, -1,
                        510, 510, 510, -1, 511, 511, 511, -1,
                        512, 512, 512, -1, 513, 513, 513, -1,
                        514, 514, 514, -1, 515, 515, 515, -1,
                        516, 516, 516, -1, 517, 517, 517, -1,
                        518, 518, 518, -1, 519, 519, 519, -1,
                        520, 520, 520, -1, 521, 521, 521, -1,
                        522, 522, 522, -1, 523, 523, 523, -1,
                        524, 524, 524, -1, 525, 525, 525, -1,
                        526, 526, 526, -1, 527, 527, 527, -1,
                        528, 528, 528, -1, 529, 529, 529, -1,
                        530, 530, 530, -1, 531, 531, 531, -1,
                        532, 532, 532, -1, 533, 533, 533, -1,
                        534, 534, 534, -1, 535, 535, 535, -1,
                        536, 536, 536, -1, 537, 537, 537, -1,
                        538, 538, 538, -1, 539, 539, 539, -1,
                        540, 540, 540, -1, 541, 541, 541, -1,
                        542, 542, 542, -1, 543, 543, 543, -1,
                        544, 208, 544, -1, 545, 545, 545, -1,
                        546, 546, 546, -1, 547, 547, 547, -1,
                        548, 548, 548, -1, 549, 549, 549, -1,
                        550, 550, 550, -1, 551, 551, 551, -1,
                        552, 216, 552, -1, 553, 553, 553, -1,
                        554, 554, 554, -1, 555, 555, 555, -1,
                        556, 556, 556, -1, 557, 557, 557, -1,
                        558, 558, 558, -1, 559, 559, 559, -1,
                        560, 560, 560, -1, 561, 561, 561, -1,
                        562, 562, 562, -1, 563, 563, 563, -1,
                        564, 564, 564, -1, 565, 565, 565, -1,
                        566, 566, 566, -1, 567, 567, 567, -1,
                        568, 568, 568, -1, 569, 569, 569, -1,
                        570, 570, 570, -1, 571, 571, 571, -1,
                        572, 572, 572, -1, 573, 573, 573, -1,
                        574, 574, 574, -1, 575, 575, 575, -1,
                        576, 576, 576, -1, 577, 577, 577, -1 ]
                    ccw TRUE
                    solid FALSE
                    convex TRUE
                    creaseAngle 0

                  }

                }

            }

        }

    }

}
