#VRML V2.0 utf8


Group {
  children 
    Group {
      children 
        Transform {
          scale 1.74 1.74 1.74
          children 
            Group {
              children 
                Shape {
                  appearance 
                  Appearance {
                    material 
                    Material {
                      diffuseColor 0.65864992 0.50308388 0.31538299
                      ambientIntensity 0.10572245

                    }

                  }
                  geometry 
                  IndexedFaceSet {
                    coord 
                    Coordinate {
                      point [ -0.0044907331 -0.0020654791 0.004693686,
                          -0.0048436518 -0.003874182 0.0051500201,
                          -0.0054323669 -0.004236876 0.002914428,
                          0.002716183 -0.004236876 0.002914428,
                          0.002716183 -0.004236876 0.0057671661,
                          0.0048436518 -0.003874182 0.0051500201,
                          0.0046756859 0.0020424121 0.002036392,
                          0.003946959 0.0020078421 0.0037596221,
                          0.003508687 0.0034540291 0.0033500791,
                          -0.0019745231 0.0040590758 0.001866817,
                          -0.0018765921 0.0036628239 0.0034933679,
                          -0.003484427 0.0034540291 0.0033500791,
                          0.0044910898 -0.0020654791 0.0046936269,
                          -0.002038419 -0.0020675061 -0.00546205,
                          -0.0039271712 -0.002079665 -0.0050381422,
                          -0.0036094179 -0.0038602939 -0.00520116,
                          -0.0048719039 -0.0020713799 -0.0029486411,
                          -0.0052140951 -0.0020625589 -0.000206984,
                          -0.0054323669 -0.004236876 -0.000213871,
                          0.002716183 -0.004236876 -0.00021387701,
                          0.0054323669 -0.004236876 -0.00021387701,
                          0.0047778478 -0.004236876 -0.0032978051,
                          0.0048081269 0.0019954441 -0.000173612,
                          0.0039234161 0.0035340779 -0.000144926,
                          0.003809094 0.002821624 -0.001987159,
                          -0.001986861 0.0031588669 -0.0019753571,
                          -0.002041101 0.003948688 -0.000141178,
                          -0.0039233561 0.0035340779 -0.00014492001,
                          -0.002716183 -0.004236876 0.002914428,
                          -0.002716183 -0.004236876 0.0057671661,
                          0 -0.004236876 0.0057671661,
                          0.001894831 0.0036628239 0.003493428,
                          6.0007701e-006 0.0037955639 0.003576159,
                          3.6431099e-006 0.004236876 0.001900255,
                          -0.0023483629 -0.0020631549 0.0051036468,
                          0 -0.0020608299 0.0052046771,
                          0 -0.002055346 -0.0055735698,
                          0 -0.0040706391 -0.0057671661,
                          0.00182563 -0.00402528 -0.005695879,
                          -0.0023888941 -0.004236876 -0.0032978051,
                          -0.002716183 -0.004236876 -0.000213871,
                          0 -0.004236876 -0.000213871,
                          0.0020411611 0.003948688 -0.000141178,
                          0 0.00411731 -0.000139846,
                          -3.6133399e-006 0.0033017991 -0.002002239,
                          -0.003930985 0.0020078421 0.0037596221,
                          -0.0042296639 5.77543e-005 0.0041891332,
                          -0.005005002 6.7769899e-005 0.0022817249,
                          0.005185782 -0.0020641079 0.00254935,
                          0.0042336578 5.77508e-005 0.0041891332,
                          0.002215147 7.8933997e-005 0.0045924182,
                          -0.0039373632 0.001197397 -0.0039137001,
                          -0.0041193361 -0.000128948 -0.004547894,
                          -0.0021530979 -0.00012363501 -0.0049526091,
                          -0.004671454 0.001585364 -0.002286911,
                          -0.0048081269 0.0019954441 -0.000173619,
                          -0.0050945282 6.8188303e-005 -0.000202123,
                          0.0052140951 -0.0020625589 -0.000206984,
                          0.0050945282 6.8188703e-005 -0.000202123,
                          0.00493431 -3.3658001e-005 -0.0026532409,
                          -0.002049922 0.002082109 0.0041463971,
                          3.5385001e-006 0.0021507139 0.0042729969,
                          5.178e-007 9.9185097e-005 0.004715025,
                          0.0020450349 0.001181483 -0.0042811031,
                          -3.5377e-006 0.0012159341 -0.004402935,
                          -5.1216801e-007 -0.000111805 -0.0050758119,
                          -0.0047778478 -0.004236876 -0.0032978051,
                          0.0023888941 -0.004236876 -0.0032978051,
                          0.0036094179 -0.003710448 -0.00520122,
                          0.0046610832 0.001585364 -0.002286911,
                          0.003485143 0.0021234751 -0.0033335681,
                          -0.0038248301 0.002821624 -0.001987159,
                          -0.003509342 0.0021234751 -0.0033335681,
                          -0.00182563 -0.004153728 -0.005695879,
                          0 -0.004236876 -0.0032978051,
                          0.00187695 0.002222657 -0.003450155,
                          0.0019753571 0.0031588669 -0.0019753571,
                          -0.0049368138 -3.3659599e-005 -0.0026531811,
                          0.004871726 -0.0020713799 -0.0029486411,
                          0.0041153431 -0.00012894601 -0.004547894,
                          -0.0051856041 -0.0020641079 0.00254935,
                          0.0054323669 -0.004236876 0.002914428,
                          0.003823637 0.003628551 0.001854121,
                          -0.0038077231 0.003628551 0.001854121,
                          0 -0.004236876 0.002914428,
                          0.001986145 0.0040590758 0.001866817,
                          -0.0046652551 0.0020424719 0.002036392,
                          0.005007505 6.7769302e-005 0.0022817249,
                          0.0020614259 0.002082109 0.0041463971,
                          -0.002056598 0.001181483 -0.0042811031,
                          -5.9887002e-006 0.002307653 -0.00352478,
                          0.0039214492 0.001197397 -0.0039137001,
                          0.002348542 -0.0020631549 0.0051036468,
                          -0.0022126429 7.8942598e-005 0.0045924182,
                          0.00203824 -0.002051472 -0.00546205,
                          0.0039268131 -0.0020475381 -0.0050381422,
                          -0.001895129 0.002222657 -0.003450155,
                          0.002150595 -0.00012363101 -0.0049526091 ]

                    }
                    normal 
                    Normal {
                      vector [ 0.94801515 -0.2382144 -0.21100086,
                          -0.16805677 0.98577732 0,
                          -0.85531503 -0.36370137 -0.36899549,
                          0.14615531 -0.9590919 -0.24244869,
                          -0.22331671 -0.27918488 -0.9339087,
                          0.21902215 -0.050125349 0.97443151,
                          0.9873367 -0.099506468 0.12355144,
                          0 1 0,
                          -0.83951509 -0.4872033 0.2405152,
                          0.19709466 -0.89831805 0.39265579,
                          -0.07886412 -0.96404946 -0.25375006,
                          0.04186359 -0.25004604 -0.96732855,
                          -0.036468931 -0.095559806 0.99475545,
                          -0.075194106 -0.9133814 0.40010041,
                          0.90339476 -0.21950017 -0.36837152,
                          -0.93480533 -0.18532911 -0.30297208,
                          -0.19269271 -0.23799995 -0.95195884,
                          0.18175842 -0.44437549 0.87720823,
                          0.98471177 -0.14769958 0.092345096,
                          -0.99614745 -0.056052685 0.067442596,
                          0.067155786 -0.21024808 -0.97533888,
                          -0.060537715 -0.45132864 0.890302,
                          0.91082406 -0.026857182 0.41192019,
                          0 0.96381754 0.26656327,
                          -0.67438298 -0.57659781 0.46124038,
                          0.15501015 -0.86171103 0.48314178,
                          -0 0.99939948 0.03465201,
                          -0.06799417 -0.840244 0.53792846,
                          0.86140114 -0.24218844 0.44646707,
                          -0.91697633 -0.029511677 0.39784881,
                          0.99361265 -0.11284527 0,
                          -0.87970746 -0.47503102 -0.021459606,
                          0.22808623 -0.97255826 0.045903031,
                          -0.088195778 -0.99438769 0.058436446,
                          0.98415256 -0.17373382 -0.035501409,
                          -0.99636102 -0.084610894 -0.010282198,
                          -0.90476048 -0.21411103 -0.36819145,
                          -0.98424935 -0.14770225 0.097145475,
                          0.85262352 -0.36825472 -0.37070417,
                          -0.20236106 -0.32312456 -0.92446774,
                          0.15227407 -0.57427305 0.80437756,
                          0.84099936 -0.48796433 0.23368976,
                          0.06784565 -0.38927343 -0.91862029,
                          -0.059071805 -0.62575907 0.77777648,
                          -0.85872102 -0.24656299 0.44922704,
                          0.67820054 -0.57531291 0.45722973,
                          -0.98487514 -0.16978908 -0.034534417,
                          0.87795281 -0.47791591 -0.028198579,
                          0.93450248 -0.18689486 -0.30294454,
                          -0.18233921 -0.24816729 -0.95140183,
                          0.19720946 -0.2206338 0.95521164,
                          0.99621528 -0.056054194 0.066431098,
                          0.055962346 -0.22074628 -0.97372454,
                          -0.052459016 -0.24777269 0.96739697,
                          -0.94804859 -0.23804982 -0.21103637,
                          -0.98732877 -0.099506222 0.12361451,
                          0.91729528 -0.028371846 0.39719576,
                          -0.91094911 -0.026881739 0.41164216,
                          0.9962675 -0.085697629 -0.010346143,
                          -0.99362177 -0.11276497 -0,
                          0.079137079 -0.96397382 -0.25395241,
                          0.054949928 -0.10567985 0.99288088,
                          0.075205274 -0.91348785 0.39985526,
                          0.16805677 0.98577732 0,
                          0.17872283 -0.31478742 -0.93218404,
                          0.053257063 -0.45997238 0.88633466,
                          0.20472053 -0.2285478 -0.9517644,
                          0.067855485 -0.84039587 0.53770852,
                          -0 0.98098391 0.19408943,
                          0.0883945 -0.99438846 0.058121148,
                          0.056592129 -0.62813038 0.77604741,
                          0.13193536 -0.3908084 -0.91096753,
                          0.056696426 -0.24997495 0.96659094,
                          0.19277969 -0.23932333 -0.95160931,
                          -0 -0.29194763 -0.95643431,
                          -0.14559753 -0.95932281 -0.24187011,
                          -0.25191388 -0.087045617 0.96382707,
                          -0.19699484 -0.89788002 0.3937062,
                          -0.055925071 -0.22108182 -0.97365052,
                          -0.1666688 -0.46173826 0.87121713,
                          0 0.99612981 0.087894328,
                          -0.15527314 -0.86122322 0.48392648,
                          -0.22755836 -0.97261828 0.047234107,
                          -0.069466993 -0.38711569 -0.91941059,
                          -0.094733857 -0.63027591 0.7705698,
                          -0.042012744 -0.23440892 -0.97122985,
                          -0.21224013 -0.23808354 0.94777125,
                          0.93934447 -0.15784456 -0.30449501,
                          0 0.98709393 -0.16014239,
                          -0.84501851 -0.4808206 -0.23399873,
                          0.22670089 -0.96055633 -0.16105372,
                          -0.17873412 -0.31477517 -0.93218607,
                          0.25378165 -0.082136482 0.96376783,
                          0.97817183 0.0090121487 0.2076024,
                          -0.79194522 -0.58674961 0.1689609,
                          0.16587691 -0.91674459 0.36340636,
                          -0.09072765 -0.96639645 -0.24051304,
                          -0.054078314 -0.11172472 0.99226665,
                          -0.071487479 -0.91518074 0.39665335,
                          0.89936268 -0.20285197 -0.38729584,
                          -0.91928983 -0.1237764 -0.3736116,
                          -0.204264 -0.22766122 -0.952075,
                          0.16639473 -0.46083304 0.87174875,
                          0.98170739 -0.17685603 0.070517205,
                          -0.99222016 0.012517572 0.1238649,
                          0.055960365 -0.22132413 -0.97359341,
                          -0.053285562 -0.46026641 0.88618028,
                          0.8388868 0.10072852 0.53490442,
                          -0.20825872 0.96879584 0.13439868,
                          -0.66902101 -0.59457392 0.44597408,
                          0.090343498 -0.83825231 0.53774655,
                          -0.042747781 0.99682969 0.067106374,
                          -0.059360057 -0.83579361 0.54582566,
                          0.86854285 -0.30569398 0.39010844,
                          -0.91111809 -0.015706189 0.41184604,
                          0.99494916 -0.099846549 -0.010340468,
                          -0.86649865 -0.49746364 -0.041355181,
                          0.21493013 -0.97604805 0.033694796,
                          -0.082183003 -0.99523562 0.05246054,
                          0.98744214 -0.14584135 -0.060732324,
                          -0.99782318 -0.055913083 -0.034968827,
                          -0.90111977 -0.19926557 -0.3850669,
                          -0.9807356 -0.18172286 0.071656935,
                          0.84256566 -0.48294312 -0.23843068,
                          -0.13143539 -0.39028206 -0.91126543,
                          0.094382778 -0.6298995 0.77092069,
                          0.79471689 -0.58419168 0.164758,
                          0.069618247 -0.38740769 -0.91927618,
                          -0.056708526 -0.6283561 0.77585614,
                          -0.86593217 -0.31308964 0.39004686,
                          0.67380726 -0.5900498 0.44477528,
                          -0.98770094 -0.14594829 -0.056089152,
                          0.86636364 -0.49734357 -0.045425121,
                          0.91891617 -0.12481913 -0.37418365,
                          -0.19264992 -0.23912515 -0.95168543,
                          0.214261 -0.23577908 0.94789273,
                          0.99221373 0.013656306 0.12379605,
                          0.042015545 -0.23445128 -0.97121948,
                          -0.056716036 -0.2519826 0.96606833,
                          -0.93937761 -0.15776147 -0.30443573,
                          -0.97817242 0.0089317327 0.20760293,
                          0.91108555 -0.013788276 0.41198662,
                          -0.83407438 0.10610846 0.54135108,
                          0.99778765 -0.05590881 -0.035973016,
                          -0.99494976 -0.099846788 -0.010276263,
                          0.090922862 -0.96628761 -0.24087624,
                          0.043180782 -0.09553422 0.99448913,
                          0.071340807 -0.91535646 0.39627397,
                          0.22331378 -0.2791971 -0.93390584,
                          0.060408782 -0.45111302 0.89042014,
                          0.19278698 -0.2391319 -0.95165598,
                          0.05916455 -0.83588791 0.54570234,
                          0.18255915 0.98018569 0.076865666,
                          0.082187735 -0.99526 0.051988509,
                          0.058876447 -0.62560552 0.77791482,
                          0.20278539 -0.3242746 -0.92397189,
                          0.054397941 -0.24772051 0.96730322,
                          0.18231347 -0.24848408 -0.95132405,
                          -0.041860402 -0.25004607 -0.96732873,
                          -0.22623949 -0.96088606 -0.15973029,
                          -0.21858571 -0.053829666 0.97433192,
                          -0.16615263 -0.91620529 0.36463842,
                          -0.067008197 -0.21006137 -0.97538924,
                          -0.18176259 -0.44569075 0.87653989,
                          -0.027402103 0.99736702 0.067142546,
                          -0.090688936 -0.83802873 0.53803658,
                          -0.21491416 -0.97599137 0.035397377,
                          -0.067584708 -0.38910851 -0.9187094,
                          -0.1524729 -0.57526237 0.80363256,
                          -0.055926301 -0.22072122 -0.97373229,
                          -0.19718616 -0.22447635 0.95432073 ]

                    }
                    coordIndex [ 0, 1, 2, -1, 3, 4, 5, -1,
                        6, 7, 8, -1, 9, 10, 11, -1,
                        12, 5, 4, -1, 13, 14, 15, -1,
                        16, 17, 18, -1, 19, 20, 21, -1,
                        22, 23, 24, -1, 25, 26, 27, -1,
                        28, 29, 30, -1, 31, 32, 33, -1,
                        34, 35, 30, -1, 36, 37, 38, -1,
                        39, 40, 41, -1, 42, 43, 44, -1,
                        45, 46, 47, -1, 48, 12, 49, -1,
                        7, 49, 50, -1, 51, 52, 53, -1,
                        54, 55, 56, -1, 57, 58, 59, -1,
                        60, 61, 62, -1, 63, 64, 65, -1,
                        14, 16, 66, -1, 67, 21, 68, -1,
                        69, 24, 70, -1, 25, 71, 72, -1,
                        73, 39, 74, -1, 75, 76, 44, -1,
                        51, 54, 77, -1, 78, 59, 79, -1,
                        80, 2, 18, -1, 3, 81, 20, -1,
                        6, 82, 23, -1, 26, 9, 83, -1,
                        28, 84, 41, -1, 85, 33, 43, -1,
                        86, 47, 56, -1, 57, 48, 87, -1,
                        87, 49, 7, -1, 58, 22, 69, -1,
                        11, 45, 86, -1, 8, 7, 88, -1,
                        72, 51, 89, -1, 71, 27, 55, -1,
                        10, 32, 61, -1, 75, 90, 64, -1,
                        59, 69, 91, -1, 72, 71, 54, -1,
                        58, 87, 6, -1, 27, 83, 86, -1,
                        46, 0, 80, -1, 49, 12, 92, -1,
                        53, 52, 14, -1, 77, 56, 17, -1,
                        93, 62, 35, -1, 65, 36, 94, -1,
                        81, 5, 12, -1, 20, 57, 78, -1,
                        52, 77, 16, -1, 21, 78, 95, -1,
                        47, 80, 17, -1, 20, 81, 48, -1,
                        33, 32, 10, -1, 36, 13, 73, -1,
                        44, 43, 26, -1, 1, 29, 28, -1,
                        0, 34, 29, -1, 66, 18, 40, -1,
                        89, 53, 65, -1, 45, 60, 93, -1,
                        44, 25, 96, -1, 15, 66, 39, -1,
                        43, 33, 9, -1, 2, 28, 40, -1,
                        96, 89, 64, -1, 11, 10, 60, -1,
                        65, 53, 13, -1, 46, 93, 34, -1,
                        84, 30, 4, -1, 92, 4, 30, -1,
                        41, 19, 67, -1, 8, 31, 85, -1,
                        94, 38, 68, -1, 23, 42, 76, -1,
                        88, 50, 62, -1, 91, 63, 97, -1,
                        74, 67, 38, -1, 70, 24, 76, -1,
                        41, 84, 3, -1, 82, 85, 42, -1,
                        31, 88, 61, -1, 70, 75, 63, -1,
                        50, 92, 35, -1, 97, 94, 95, -1,
                        80, 0, 2, -1, 81, 3, 5, -1,
                        82, 6, 8, -1, 83, 9, 11, -1,
                        92, 12, 4, -1, 73, 13, 15, -1,
                        66, 16, 18, -1, 67, 19, 21, -1,
                        69, 22, 24, -1, 71, 25, 27, -1,
                        84, 28, 30, -1, 85, 31, 33, -1,
                        29, 34, 30, -1, 94, 36, 38, -1,
                        74, 39, 41, -1, 76, 42, 44, -1,
                        86, 45, 47, -1, 87, 48, 49, -1,
                        88, 7, 50, -1, 89, 51, 53, -1,
                        77, 54, 56, -1, 78, 57, 59, -1,
                        93, 60, 62, -1, 97, 63, 65, -1,
                        15, 14, 66, -1, 38, 67, 68, -1,
                        91, 69, 70, -1, 96, 25, 72, -1,
                        37, 73, 74, -1, 90, 75, 44, -1,
                        52, 51, 77, -1, 95, 78, 79, -1,
                        17, 80, 18, -1, 19, 3, 20, -1,
                        22, 6, 23, -1, 27, 26, 83, -1,
                        40, 28, 41, -1, 42, 85, 43, -1,
                        55, 86, 56, -1, 58, 57, 87, -1,
                        6, 87, 7, -1, 59, 58, 69, -1,
                        83, 11, 86, -1, 31, 8, 88, -1,
                        96, 72, 89, -1, 54, 71, 55, -1,
                        60, 10, 61, -1, 63, 75, 64, -1,
                        79, 59, 91, -1, 51, 72, 54, -1,
                        22, 58, 6, -1, 55, 27, 86, -1,
                        47, 46, 80, -1, 50, 49, 92, -1,
                        13, 53, 14, -1, 16, 77, 17, -1,
                        34, 93, 35, -1, 97, 65, 94, -1,
                        48, 81, 12, -1, 21, 20, 78, -1,
                        14, 52, 16, -1, 68, 21, 95, -1,
                        56, 47, 17, -1, 57, 20, 48, -1,
                        9, 33, 10, -1, 37, 36, 73, -1,
                        25, 44, 26, -1, 2, 1, 28, -1,
                        1, 0, 29, -1, 39, 66, 40, -1,
                        64, 89, 65, -1, 46, 45, 93, -1,
                        90, 44, 96, -1, 73, 15, 39, -1,
                        26, 43, 9, -1, 18, 2, 40, -1,
                        90, 96, 64, -1, 45, 11, 60, -1,
                        36, 65, 13, -1, 0, 46, 34, -1,
                        3, 84, 4, -1, 35, 92, 30, -1,
                        74, 41, 67, -1, 82, 8, 85, -1,
                        95, 94, 68, -1, 24, 23, 76, -1,
                        61, 88, 62, -1, 79, 91, 97, -1,
                        37, 74, 38, -1, 75, 70, 76, -1,
                        19, 41, 3, -1, 23, 82, 42, -1,
                        32, 31, 61, -1, 91, 70, 63, -1,
                        62, 50, 35, -1, 79, 97, 95, -1 ]
                    normalIndex [ 0, 0, 0, -1, 1, 1, 1, -1,
                        2, 2, 2, -1, 3, 3, 3, -1,
                        4, 4, 4, -1, 5, 5, 5, -1,
                        6, 6, 6, -1, 7, 7, 7, -1,
                        8, 8, 8, -1, 9, 9, 9, -1,
                        7, 7, 7, -1, 10, 10, 10, -1,
                        11, 11, 11, -1, 12, 12, 12, -1,
                        7, 7, 7, -1, 13, 13, 13, -1,
                        14, 14, 14, -1, 15, 15, 15, -1,
                        16, 16, 16, -1, 17, 17, 17, -1,
                        18, 18, 18, -1, 19, 19, 19, -1,
                        20, 20, 20, -1, 21, 21, 21, -1,
                        22, 22, 22, -1, 23, 23, 23, -1,
                        24, 24, 24, -1, 25, 25, 25, -1,
                        26, 26, 26, -1, 27, 27, 27, -1,
                        28, 28, 28, -1, 29, 29, 29, -1,
                        30, 30, 30, -1, 7, 7, 7, -1,
                        31, 31, 31, -1, 32, 32, 32, -1,
                        7, 7, 7, -1, 33, 33, 33, -1,
                        34, 34, 34, -1, 35, 35, 35, -1,
                        36, 36, 36, -1, 37, 37, 37, -1,
                        38, 38, 38, -1, 39, 39, 39, -1,
                        40, 40, 40, -1, 41, 41, 41, -1,
                        42, 42, 42, -1, 43, 43, 43, -1,
                        44, 44, 44, -1, 45, 45, 45, -1,
                        46, 46, 46, -1, 47, 47, 47, -1,
                        48, 48, 48, -1, 49, 49, 49, -1,
                        50, 50, 50, -1, 51, 51, 51, -1,
                        52, 52, 52, -1, 53, 53, 53, -1,
                        54, 54, 54, -1, 55, 55, 55, -1,
                        56, 56, 56, -1, 57, 57, 57, -1,
                        58, 58, 58, -1, 59, 59, 59, -1,
                        60, 60, 60, -1, 61, 61, 61, -1,
                        62, 62, 62, -1, 63, 63, 63, -1,
                        64, 64, 64, -1, 7, 7, 7, -1,
                        65, 65, 65, -1, 66, 66, 66, -1,
                        67, 67, 67, -1, 68, 68, 68, -1,
                        69, 69, 69, -1, 7, 7, 7, -1,
                        70, 70, 70, -1, 71, 71, 71, -1,
                        72, 72, 72, -1, 73, 73, 73, -1,
                        7, 7, 7, -1, 74, 74, 74, -1,
                        7, 7, 7, -1, 75, 75, 75, -1,
                        76, 76, 76, -1, 77, 77, 77, -1,
                        78, 78, 78, -1, 79, 79, 79, -1,
                        80, 80, 80, -1, 81, 81, 81, -1,
                        7, 7, 7, -1, 82, 82, 82, -1,
                        83, 83, 83, -1, 84, 84, 84, -1,
                        85, 85, 85, -1, 86, 86, 86, -1,
                        87, 87, 87, -1, 88, 88, 88, -1,
                        89, 89, 89, -1, 90, 90, 90, -1,
                        91, 91, 91, -1, 92, 92, 92, -1,
                        93, 93, 93, -1, 7, 7, 7, -1,
                        94, 94, 94, -1, 95, 95, 95, -1,
                        7, 7, 7, -1, 96, 96, 96, -1,
                        74, 74, 74, -1, 97, 97, 97, -1,
                        7, 7, 7, -1, 98, 98, 98, -1,
                        99, 99, 99, -1, 100, 100, 100, -1,
                        101, 101, 101, -1, 102, 102, 102, -1,
                        103, 103, 103, -1, 104, 104, 104, -1,
                        105, 105, 105, -1, 106, 106, 106, -1,
                        107, 107, 107, -1, 108, 108, 108, -1,
                        109, 109, 109, -1, 110, 110, 110, -1,
                        111, 111, 111, -1, 112, 112, 112, -1,
                        113, 113, 113, -1, 114, 114, 114, -1,
                        115, 115, 115, -1, 7, 7, 7, -1,
                        116, 116, 116, -1, 117, 117, 117, -1,
                        7, 7, 7, -1, 118, 118, 118, -1,
                        119, 119, 119, -1, 120, 120, 120, -1,
                        121, 121, 121, -1, 122, 122, 122, -1,
                        123, 123, 123, -1, 124, 124, 124, -1,
                        125, 125, 125, -1, 126, 126, 126, -1,
                        127, 127, 127, -1, 128, 128, 128, -1,
                        129, 129, 129, -1, 130, 130, 130, -1,
                        131, 131, 131, -1, 132, 132, 132, -1,
                        133, 133, 133, -1, 134, 134, 134, -1,
                        135, 135, 135, -1, 136, 136, 136, -1,
                        137, 137, 137, -1, 138, 138, 138, -1,
                        139, 139, 139, -1, 140, 140, 140, -1,
                        141, 141, 141, -1, 142, 142, 142, -1,
                        143, 143, 143, -1, 144, 144, 144, -1,
                        145, 145, 145, -1, 146, 146, 146, -1,
                        147, 147, 147, -1, 88, 88, 88, -1,
                        148, 148, 148, -1, 7, 7, 7, -1,
                        149, 149, 149, -1, 73, 150, 150, -1,
                        151, 151, 151, -1, 152, 152, 152, -1,
                        153, 153, 153, -1, 7, 7, 7, -1,
                        154, 154, 154, -1, 155, 155, 155, -1,
                        156, 156, 156, -1, 157, 157, 157, -1,
                        7, 7, 7, -1, 158, 158, 158, -1,
                        7, 7, 7, -1, 159, 159, 159, -1,
                        160, 160, 160, -1, 161, 161, 161, -1,
                        162, 162, 162, -1, 163, 163, 163, -1,
                        164, 164, 164, -1, 165, 165, 165, -1,
                        7, 7, 7, -1, 166, 166, 166, -1,
                        167, 167, 167, -1, 168, 168, 168, -1,
                        169, 169, 169, -1, 170, 170, 170, -1 ]
                    ccw TRUE
                    solid FALSE
                    convex TRUE
                    creaseAngle 0

                  }

                }

            }

        }

    }

}
