#VRML V2.0 utf8


Group {
  children 
    Group {
      children 
        Transform {
          scale 1.74 1.74 1.74
          children 
            Group {
              children 
                Shape {
                  appearance 
                  Appearance {
                    material 
                    Material {
                      diffuseColor 0.65864992 0.50308388 0.31538299
                      ambientIntensity 0.10572245

                    }

                  }
                  geometry 
                  IndexedFaceSet {
                    coord 
                    Coordinate {
                      point [ -0.046665542 -0.001401603 -0.062287029,
                          -0.024230121 -0.00066021999 -0.062454522,
                          -0.02430802 -0.0218293 -0.06231093,
                          -0.02437776 -0.039494809 -0.061880171,
                          -0.046223041 -0.037948839 -0.06173449,
                          9.0518897e-006 -0.000351817 -0.0625,
                          -6.76907e-005 -0.02183181 -0.062356349,
                          -0.000131707 -0.03975641 -0.061925352,
                          -0.0464462 -0.021332741 -0.0621497,
                          -0.064379871 -0.019753629 -0.061847501,
                          -0.065490901 -0.002292752 -0.061966121,
                          -0.077613108 -0.018796019 -0.061370961,
                          -0.063268237 -0.034257699 -0.061478011,
                          -0.073310308 -0.029517761 -0.061197691,
                          -0.064254582 0.01530599 -0.061847381,
                          -0.046303619 0.01856696 -0.0621497,
                          -0.063038819 0.02995491 -0.061477888,
                          -0.079699151 -0.003096163 -0.061456438,
                          -0.077499978 0.01285135 -0.061370961,
                          -0.073118798 0.024074851 -0.061197691,
                          -0.02415668 0.02051281 -0.06231093,
                          8.58321e-005 0.02113211 -0.062356289,
                          -0.045961551 0.035228129 -0.061734371,
                          -0.024100181 0.038190179 -0.061880171,
                          0.00014995701 0.03906852 -0.061925352,
                          -0.02834749 -0.004205822 0.062021252,
                          -0.027913511 -0.01226669 0.061770432,
                          -0.0200743 -0.0131734 0.062001701,
                          -0.032270189 -0.02157658 0.060887691,
                          -0.02351325 -0.02372455 0.061090291,
                          -0.040597551 -0.00443083 0.061229158,
                          -0.039588738 -0.01300334 0.060983472,
                          -0.037495669 -0.01890712 0.06061279,
                          -0.01824945 -0.004101872 0.062422272,
                          -0.01048892 -0.0135594 0.062078591,
                          -0.0094578862 -0.003971159 0.0625,
                          -3.0203701e-005 -0.01363295 0.062078409,
                          -0.01238507 -0.02470427 0.061157279,
                          -7.0536902e-005 -0.02491462 0.061156861,
                          -0.01041966 0.005806088 0.06228482,
                          -0.02000886 0.0051352968 0.062200781,
                          -0.01223582 0.017048649 0.0615949,
                          5.07806e-006 -0.0039217472 0.062499881,
                          3.9930699e-005 0.0059899092 0.062284701,
                          8.0673897e-005 0.017392689 0.061594479,
                          -0.02785575 0.003900945 0.061948061,
                          -0.03952717 0.004217207 0.06117278,
                          -0.023372229 0.01573175 0.061512999,
                          -0.03214585 0.01320779 0.06126558,
                          -0.037391301 0.01027631 0.060931019,
                          -0.092676632 -0.003795862 -0.058893081,
                          -0.08828336 -0.0035741921 -0.060722761,
                          -0.085650019 -0.02016389 -0.060687061,
                          -0.08979141 -0.022107599 -0.05890071,
                          -0.077700011 -0.034087121 -0.060690582,
                          -0.091337912 -0.02287739 -0.055116892,
                          -0.094312072 -0.0038303731 -0.05509543,
                          -0.091678023 -0.02312707 -0.048515309,
                          -0.094662301 -0.0037496081 -0.048494991,
                          -0.08101397 -0.03752565 -0.058951128,
                          -0.082268529 -0.038928151 -0.055181261,
                          -0.082575671 -0.039453261 -0.048576351,
                          -0.091200531 0.01556217 -0.055116829,
                          -0.089659333 0.01485216 -0.05890071,
                          -0.082012773 0.032649811 -0.055181261,
                          -0.080768101 0.031276401 -0.058951069,
                          -0.09153831 0.01597332 -0.048515309,
                          -0.082315557 0.033336218 -0.048576351,
                          -0.0855304 0.01332432 -0.060687061,
                          -0.077477567 0.02816122 -0.060690582,
                          -0.095499992 -0.003507494 -0.02552866,
                          -0.095200062 -0.0036256311 -0.038257241,
                          -0.092200212 -0.02351045 -0.03827589,
                          -0.092492163 -0.02389794 -0.02554762,
                          -0.083047211 -0.04025954 -0.038331799,
                          -0.092141561 -0.024159839 -0.01147943,
                          -0.095136583 -0.0034441941 -0.01145559,
                          -0.090736091 -0.02416658 0.002779603,
                          -0.093684368 -0.0034847851 0.002815485,
                          -0.08331155 -0.04106956 -0.025599061,
                          -0.082996957 -0.041606061 -0.01152968,
                          -0.081731848 -0.041591521 0.002724766,
                          -0.091992371 0.017605361 -0.01145994,
                          -0.09234523 0.017225441 -0.02554273,
                          -0.082719438 0.03605365 -0.01149404,
                          -0.083038211 0.035424881 -0.025590179,
                          -0.090587132 0.01751381 0.0028282399,
                          -0.081454933 0.035889622 0.0028138161,
                          -0.09205687 0.0166046 -0.03827589,
                          -0.08278048 0.034390152 -0.038331799,
                          -0.047350761 0.0571419 -0.0116344,
                          -0.024318211 0.061386161 -0.01169681,
                          -0.024415551 0.060611721 -0.02583533,
                          0.00023764699 0.0625 -0.011725,
                          0.000233824 0.0617426 -0.02586823,
                          -0.046625309 0.05677902 0.002710819,
                          -0.02394413 0.060944188 0.0026609299,
                          0.000237082 0.062024292 0.0026378629,
                          -0.04753571 0.056356311 -0.025761301,
                          -0.024343841 0.059198018 -0.03861123,
                          -0.04739105 0.054971751 -0.038527358,
                          -0.024210811 0.057721969 -0.048881639,
                          0.000227785 0.060334802 -0.038648479,
                          0.0002217 0.05885905 -0.048922349,
                          -0.067380898 0.046940859 -0.038424902,
                          -0.067589156 0.048214611 -0.0256713,
                          -0.047127482 0.053537719 -0.04879003,
                          -0.067003839 0.045633432 -0.0486781,
                          -0.067328393 0.048965089 -0.01155948,
                          -0.066298299 0.048702769 0.0027682779,
                          -0.04695582 0.052603781 -0.055406678,
                          -0.0241242 0.056760661 -0.055503301,
                          -0.02407968 0.05443662 -0.059316751,
                          0.000217742 0.057897922 -0.05554628,
                          0.000209044 0.055548072 -0.059361041,
                          -0.04671412 0.050420161 -0.05921125,
                          -0.02407312 0.048872288 -0.06116223,
                          -0.046240561 0.045237061 -0.061037771,
                          0.000188739 0.049906071 -0.061207108,
                          -0.06421148 0.038566109 -0.060844,
                          -0.066031687 0.042916231 -0.05907207,
                          -0.066758268 0.04478192 -0.055288609,
                          -0.04794585 -0.058416419 -0.025773879,
                          -0.047766499 -0.05919975 -0.01168465,
                          -0.06769222 -0.052847441 -0.01160484,
                          -0.067947797 -0.052146312 -0.02568268,
                          -0.04703968 -0.059165228 0.002585232,
                          -0.066661112 -0.052819841 0.00265485,
                          -0.067731202 -0.051082611 -0.038424902,
                          -0.04779195 -0.05722582 -0.038527358,
                          -0.067345612 -0.050022539 -0.0486781,
                          -0.024769541 -0.059935089 -0.03861123,
                          -0.024850659 -0.061168071 -0.02584826,
                          -0.000203834 -0.060456391 -0.038648479,
                          -0.00020723201 -0.061689548 -0.025881231,
                          -0.047519021 -0.056038611 -0.04879003,
                          -0.024626849 -0.058705319 -0.048881639,
                          -0.000200251 -0.05922639 -0.048922349,
                          -0.02475905 -0.06197869 -0.01174873,
                          -0.024383239 -0.061941382 0.0025312901,
                          -0.00020901499 -0.0625 -0.0117768,
                          -0.000207751 -0.062461909 0.002508163,
                          -0.047084268 -0.053159051 -0.05921131,
                          -0.04734122 -0.055265419 -0.055406742,
                          -0.067094557 -0.049332079 -0.055288669,
                          -0.066354692 -0.047492798 -0.05907207,
                          -0.064502887 -0.042986032 -0.06084406,
                          -0.046573631 -0.047972199 -0.061037771,
                          -0.02442693 -0.050157178 -0.06116217,
                          -0.024473131 -0.05567443 -0.059316751,
                          -0.00017030499 -0.050574239 -0.061207108,
                          -0.02453392 -0.057904419 -0.055503361,
                          -0.000190151 -0.056169271 -0.059361041,
                          -0.00019791099 -0.0584253 -0.05554628,
                          -0.08470767 -0.0039010041 0.0281654,
                          -0.090717971 -0.003678381 0.01613831,
                          -0.087863319 -0.02378851 0.01608061,
                          -0.082041971 -0.022625079 0.028082371,
                          -0.07914447 -0.040748648 0.01601278,
                          -0.075293832 -0.02120769 0.038448092,
                          -0.077740721 -0.0041525951 0.038555078,
                          -0.070787899 -0.020328401 0.046836611,
                          -0.073088937 -0.0044435849 0.046965711,
                          -0.07390064 -0.038438968 0.02799868,
                          -0.067821801 -0.0356366 0.038349088,
                          -0.063762657 -0.0337907 0.046722591,
                          -0.075171113 0.01310724 0.038652949,
                          -0.067593813 0.02815067 0.03872472,
                          -0.073650241 0.031627469 0.028278761,
                          -0.070673756 0.01161319 0.04708904,
                          -0.063550413 0.025591491 0.047185302,
                          -0.081907213 0.01507073 0.02823507,
                          -0.087718539 0.01672023 0.016177891,
                          -0.078875363 0.034546129 0.01619106,
                          -0.05992585 -0.004651546 0.057198759,
                          -0.06809812 -0.0046234131 0.053048901,
                          -0.065953851 -0.01931422 0.052907761,
                          -0.058072321 -0.01734167 0.05703878,
                          -0.059408061 -0.031781912 0.052786231,
                          -0.048658662 -0.01469278 0.059803002,
                          -0.052406959 -0.02810972 0.056898952,
                          -0.04417932 -0.023247121 0.059617162,
                          -0.050117191 -0.0045782318 0.06000584,
                          -0.048586011 0.0056329961 0.060024548,
                          -0.057981189 0.0081576696 0.057305511,
                          -0.044044491 0.01446014 0.060024548,
                          -0.052237511 0.019278459 0.057388298,
                          -0.065848291 0.0102126 0.053186651,
                          -0.059211791 0.023115929 0.053297509,
                          -0.02621871 0.02406227 0.060335331,
                          -0.01363468 0.02592301 0.060388859,
                          -0.01555311 0.033996399 0.05756348,
                          0.00011293 0.026394419 0.060387898,
                          0.000142319 0.03458881 0.057561569,
                          -0.03018718 0.031614602 0.057543568,
                          -0.017411411 0.040316582 0.053387161,
                          -0.033897281 0.037529401 0.053383522,
                          -0.01868563 0.044284102 0.047246508,
                          0.00016528901 0.04100877 0.053383701,
                          0.000179371 0.045044061 0.047240671,
                          -0.04819607 0.0320087 0.053358369,
                          -0.042694092 0.02690303 0.057476461,
                          -0.03637987 0.041244019 0.04724925,
                          -0.051726989 0.035240758 0.047233809,
                          -0.036472019 0.020422271 0.06017106,
                          -0.038693011 0.045047399 0.038753919,
                          -0.0198723 0.048346989 0.038742121,
                          -0.021650851 0.053956091 0.02824246,
                          0.00019350801 0.049178421 0.038733121,
                          0.000213356 0.054888122 0.02822917,
                          -0.042158481 0.05028921 0.02826607,
                          -0.023185611 0.058708899 0.016094981,
                          -0.045148611 0.05471801 0.01613193,
                          0.000229956 0.059733029 0.016076799,
                          -0.064198613 0.046937939 0.0161699,
                          -0.059946109 0.043106671 0.02828365,
                          -0.055017289 0.03855633 0.038753271,
                          -0.04253304 -0.054511718 0.02787148,
                          -0.045551062 -0.057902269 0.0158807,
                          -0.02361208 -0.0606305 0.015835701,
                          -0.022047689 -0.057097789 0.02783519,
                          -0.00020200999 -0.061149471 0.015817519,
                          -0.020233801 -0.052801479 0.038195841,
                          -0.039034121 -0.050392739 0.038224749,
                          -0.0190224 -0.049942069 0.046573341,
                          -0.036697619 -0.047646929 0.046597,
                          -0.000188634 -0.057601862 0.02782183,
                          -0.00017266499 -0.05328488 0.038186781,
                          -0.00016178899 -0.050415989 0.046567488,
                          -0.055316031 -0.04501801 0.038275242,
                          -0.06027418 -0.04867994 0.027927211,
                          -0.052005172 -0.042580001 0.04664474,
                          -0.064551108 -0.051697429 0.015942991,
                          -0.03044039 -0.039231181 0.056852221,
                          -0.034191132 -0.044679519 0.05266308,
                          -0.017722961 -0.04684025 0.05264353,
                          -0.015821511 -0.041103542 0.056849468,
                          -0.000150308 -0.04729604 0.052640021,
                          -0.01384669 -0.03339934 0.05978816,
                          -0.026418921 -0.031943019 0.059754308,
                          -0.000129641 -0.041504379 0.056847628,
                          -0.000101905 -0.033714529 0.05978721,
                          -0.036647908 -0.028778071 0.059649099,
                          -0.04291594 -0.035153091 0.056852691,
                          -0.048453331 -0.039948579 0.052707668 ]

                    }
                    normal 
                    Normal {
                      vector [ -0.0072419285 -0.0067560868 -0.999951,
                          -0.0083892914 -0.024342986 -0.99966854,
                          -0.0017911826 -0.0066811019 -0.9999761,
                          -0.0021221419 -0.024030451 -0.99970901,
                          -0.017471472 -0.0070812274 -0.99982232,
                          -0.036645077 -0.0091203833 -0.99928671,
                          -0.020507043 -0.025250595 -0.99947089,
                          -0.041385546 -0.028614504 -0.99873346,
                          -0.017420702 0.0079696411 -0.99981654,
                          -0.021738257 0.027012186 -0.99939871,
                          -0.036433537 0.010380245 -0.99928224,
                          -0.041800089 0.031733915 -0.998622,
                          -0.0078778677 0.0068087606 -0.99994588,
                          -0.0020420768 0.0066963462 -0.9999755,
                          -0.0099718282 0.024391236 -0.9996528,
                          -0.0027328685 0.024028614 -0.99970764,
                          -0.033271577 -0.032872982 0.9989056,
                          -0.041463245 -0.075065047 0.99631631,
                          -0.063823387 -0.036093414 0.99730837,
                          -0.10236387 -0.098441787 0.98986405,
                          -0.0097989719 -0.044342559 0.99896836,
                          -0.00029112527 -0.043876931 0.99903697,
                          -0.013198991 -0.081781387 0.99656296,
                          -0.0013695523 -0.082154445 0.99661875,
                          -0.0091526322 0.021102112 0.99973553,
                          -0.01288709 0.059172355 0.99816465,
                          -0.00010074054 0.021705056 0.99976438,
                          -0.0010505425 0.060424127 0.99817228,
                          -0.034905132 0.01731161 0.99924076,
                          -0.065923057 0.013006712 0.99773997,
                          -0.043421634 0.053142447 0.99764246,
                          -0.082965232 0.034789875 0.99594498,
                          -0.38102481 -0.062466424 -0.92245233,
                          -0.31683192 -0.18067202 -0.93111509,
                          -0.082018614 -0.016323192 -0.99649715,
                          -0.069382809 -0.043950479 -0.99662149,
                          -0.90603983 -0.14102703 -0.3990027,
                          -0.98677313 -0.1519113 -0.056583725,
                          -0.78791678 -0.44349426 -0.42720044,
                          -0.87081498 -0.48521042 -0.079070434,
                          -0.90653205 0.14501598 -0.39644676,
                          -0.79988354 0.42850038 -0.4202069,
                          -0.98590708 0.15609968 -0.060167901,
                          -0.87977833 0.46700466 -0.088863924,
                          -0.37646124 0.063282393 -0.9242686,
                          -0.083855875 0.016904017 -0.99633455,
                          -0.32650369 0.17390355 -0.92906028,
                          -0.074296795 0.044382602 -0.99624807,
                          -0.98857683 -0.14911744 -0.021910384,
                          -0.87703818 -0.47916582 -0.034704167,
                          -0.98711896 -0.15197147 -0.050010275,
                          -0.87180781 -0.48582533 -0.062650472,
                          -0.98946667 -0.14308019 0.021995466,
                          -0.98529458 -0.14062625 0.097051054,
                          -0.88569969 -0.46425402 0.0021011776,
                          -0.88551557 -0.45783406 0.079058141,
                          -0.98881298 0.14770517 0.020791041,
                          -0.89347994 0.44910318 0.00017274445,
                          -0.98456627 0.14516148 0.097761981,
                          -0.89232337 0.44352242 0.08394672,
                          -0.98818725 0.15034425 -0.029709298,
                          -0.9864077 0.1532044 -0.059400529,
                          -0.88904953 0.4545083 -0.054893192,
                          -0.88336194 0.46045917 -0.087460056,
                          -0.18110852 0.98205841 -0.052545499,
                          -0.045309339 0.99754429 -0.053408366,
                          -0.18043476 0.98296547 0.034959577,
                          -0.044566661 0.99845898 0.033067927,
                          -0.18027169 0.97753865 -0.10918029,
                          -0.17903396 0.97350776 -0.14223021,
                          -0.045701187 0.99295145 -0.1093562,
                          -0.046254352 0.98878497 -0.1420029,
                          -0.37141809 0.9232502 -0.098273575,
                          -0.63023174 0.77272743 -0.075500101,
                          -0.36698118 0.92096776 -0.13093206,
                          -0.62295437 0.7747702 -0.10797761,
                          -0.37600479 0.92565268 -0.042279042,
                          -0.37828657 0.9246363 0.044125654,
                          -0.63763052 0.7700845 -0.019930711,
                          -0.64115417 0.76461768 0.065429904,
                          -0.15561037 0.84270865 -0.51539087,
                          -0.04067307 0.85076553 -0.52396929,
                          -0.17830878 0.9734323 -0.14365143,
                          -0.046243705 0.98848075 -0.14410868,
                          -0.06016456 0.31416574 -0.94745988,
                          -0.016603267 0.06709107 -0.99760872,
                          -0.015963696 0.31098965 -0.9502793,
                          -0.0046640611 0.066144429 -0.99779922,
                          -0.131247 0.32637671 -0.93608367,
                          -0.229289 0.27858862 -0.93263876,
                          -0.036117289 0.068472743 -0.99699903,
                          -0.0615387 0.058012165 -0.9964174,
                          -0.3229678 0.82274908 -0.46773472,
                          -0.36482826 0.92163169 -0.13226995,
                          -0.55868852 0.70273936 -0.44048226,
                          -0.61920422 0.77760041 -0.1091969,
                          -0.30355081 -0.95155245 -0.049040239,
                          -0.59181494 -0.80553854 -0.029374698,
                          -0.30759335 -0.95134825 0.017968431,
                          -0.59672147 -0.8012026 0.0446993,
                          -0.29378244 -0.95213223 -0.084476307,
                          -0.29318941 -0.94979471 -0.10922465,
                          -0.57618499 -0.81482559 -0.06379877,
                          -0.56820273 -0.81789422 -0.090524353,
                          -0.11667652 -0.98849642 -0.096236423,
                          -0.021263398 -0.99514228 -0.096123971,
                          -0.11534844 -0.98608953 -0.11967614,
                          -0.021374095 -0.9926818 -0.11885265,
                          -0.11987756 -0.99119633 -0.056207635,
                          -0.12160739 -0.99256146 0.0057935948,
                          -0.021260396 -0.99812746 -0.057355888,
                          -0.021523587 -0.99976486 0.0026677945,
                          -0.25477082 -0.83860385 -0.48149294,
                          -0.50570297 -0.7328611 -0.4551695,
                          -0.28916007 -0.95090491 -0.11030171,
                          -0.56735444 -0.81651473 -0.10683014,
                          -0.10128643 -0.3277128 -0.93933243,
                          -0.029777817 -0.068217784 -0.997226,
                          -0.20062858 -0.28134865 -0.93839824,
                          -0.055070546 -0.057721253 -0.99681276,
                          -0.03772033 -0.32859987 -0.94371569,
                          -0.0072098249 -0.31714514 -0.9483496,
                          -0.01153101 -0.068936184 -0.99755448,
                          -0.0025839796 -0.067175508 -0.99773788,
                          -0.10141964 -0.85807896 -0.50340289,
                          -0.11460421 -0.9860307 -0.12086919,
                          -0.01931694 -0.86056566 -0.50897306,
                          -0.021455696 -0.99253684 -0.12004378,
                          -0.88818145 -0.12734495 0.44149399,
                          -0.80249619 -0.41426361 0.42940164,
                          -0.96714985 -0.1382414 0.21333215,
                          -0.87006092 -0.45023084 0.20071459,
                          -0.82413673 -0.12170865 0.55315965,
                          -0.86779404 -0.12960546 0.47972491,
                          -0.7444011 -0.38921198 0.54256898,
                          -0.78116268 -0.41162208 0.46941701,
                          -0.82326949 0.11941985 0.55494708,
                          -0.74390608 0.37205324 0.55513978,
                          -0.86617488 0.12657245 0.48344648,
                          -0.77776414 0.39297038 0.49056837,
                          -0.8862049 0.1294453 0.44484252,
                          -0.9659555 0.14234461 0.21602774,
                          -0.80261678 0.39910129 0.4433111,
                          -0.87544465 0.43413875 0.21241541,
                          -0.45171338 -0.0744735 0.88904947,
                          -0.40819862 -0.22294159 0.885252,
                          -0.76952177 -0.11657415 0.62789065,
                          -0.69625676 -0.36855537 0.61594927,
                          -0.26806173 -0.05128127 0.96203595,
                          -0.12112514 -0.042676505 0.99171942,
                          -0.23323908 -0.14302753 0.96184337,
                          -0.08722809 -0.093198471 0.9918192,
                          -0.26824403 0.038459774 0.96258301,
                          -0.23801106 0.12245546 0.96351206,
                          -0.12239129 0.021617234 0.99224657,
                          -0.090379775 0.071493901 0.99333793,
                          -0.45042402 0.060958829 0.89073139,
                          -0.76686543 0.11042224 0.63223761,
                          -0.40901959 0.20463076 0.88928586,
                          -0.69111103 0.35002282 0.63233668,
                          -0.051198211 0.31902492 0.94636244,
                          -0.011115151 0.326076 0.94527829,
                          -0.022791754 0.13110046 0.99110711,
                          -0.0036774129 0.13286267 0.99112761,
                          -0.087591574 0.53112841 0.84275168,
                          -0.1385013 0.81849217 0.55757338,
                          -0.020482669 0.54537451 0.83794224,
                          -0.032790411 0.83538789 0.54868215,
                          -0.18882236 0.4851658 0.85379171,
                          -0.30713189 0.37446514 0.87489766,
                          -0.29869783 0.76213282 0.5743981,
                          -0.50408709 0.61461693 0.60674739,
                          -0.11317156 0.28686601 0.95126241,
                          -0.057129983 0.11617675 0.99158418,
                          -0.18155856 0.21615806 0.95932907,
                          -0.083757341 0.081975356 0.99310869,
                          -0.15066588 0.86112738 0.48555076,
                          -0.036167886 0.87804222 0.47721469,
                          -0.15172203 0.88346982 0.44323978,
                          -0.036074527 0.89885813 0.4367525,
                          -0.16258697 0.91172326 0.37726158,
                          -0.17586279 0.96940851 0.17122939,
                          -0.039342459 0.92819822 0.37000039,
                          -0.04294505 0.98486954 0.16789187,
                          -0.34725094 0.85217643 0.39142314,
                          -0.58500594 0.69359368 0.42035225,
                          -0.37323296 0.91042948 0.17836837,
                          -0.63257551 0.74897254 0.19720143,
                          -0.32358262 0.80258214 0.50115502,
                          -0.32961845 0.82890666 0.45195755,
                          -0.54402965 0.6492486 0.53151488,
                          -0.56205541 0.67801362 0.47369957,
                          -0.11721934 -0.94752121 0.29742762,
                          -0.021023721 -0.9583329 0.28487903,
                          -0.12066983 -0.98688149 0.10725628,
                          -0.021325005 -0.99483329 0.099256799,
                          -0.11599807 -0.91014349 0.39772272,
                          -0.12082863 -0.93398583 0.33626023,
                          -0.022064846 -0.92289537 0.3844181,
                          -0.023665806 -0.94582713 0.32380706,
                          -0.2809993 -0.85533285 0.43525302,
                          -0.51943541 -0.69632554 0.49529555,
                          -0.29083836 -0.8821342 0.37047601,
                          -0.54010844 -0.72627175 0.42522025,
                          -0.29204205 -0.89758688 0.330226,
                          -0.30475384 -0.94377601 0.12810948,
                          -0.55285835 -0.73934132 0.3843464,
                          -0.58878732 -0.79130131 0.16483893,
                          -0.07449118 -0.57511109 0.81467688,
                          -0.015088378 -0.58794922 0.80875725,
                          -0.11277285 -0.8733651 0.47383085,
                          -0.022179121 -0.88832694 0.45867586,
                          -0.042660866 -0.34650385 0.937078,
                          -0.019359985 -0.15233721 0.98813903,
                          -0.0080306958 -0.35302249 0.93558037,
                          -0.0025933555 -0.15378262 0.9881013,
                          -0.1074824 -0.31604356 0.94263679,
                          -0.18074265 -0.24060805 0.95364559,
                          -0.057310592 -0.14041577 0.98843265,
                          -0.10597789 -0.1056318 0.98874193,
                          -0.17115107 -0.52375257 0.83450019,
                          -0.26856917 -0.81618679 0.5115757,
                          -0.29575846 -0.40505162 0.86513591,
                          -0.48948219 -0.65983212 0.57011306,
                          -0.0074389149 -0.0069716857 -0.99994802,
                          -0.0078430604 -0.025085101 -0.99965453,
                          -0.0018743407 -0.0067760046 -0.99997538,
                          -0.0018756494 -0.024369499 -0.99970132,
                          -0.016671916 -0.0078531886 -0.99983019,
                          -0.035275485 -0.010127827 -0.99932635,
                          -0.019213289 -0.026933484 -0.99945259,
                          -0.038245246 -0.031489249 -0.99877214,
                          -0.018146975 0.0072048609 -0.99980944,
                          -0.022847941 0.025382502 -0.99941671,
                          -0.037681583 0.0093891257 -0.9992457,
                          -0.044610851 0.028889973 -0.9985866,
                          -0.0076970044 0.0070163971 -0.99994576,
                          -0.0019625584 0.0067884405 -0.99997503,
                          -0.0094839269 0.025113687 -0.99963969,
                          -0.0024930146 0.024368482 -0.99969995,
                          -0.039257511 -0.0383945 0.99849129,
                          -0.037926964 -0.07372129 0.99655741,
                          -0.065042391 -0.03453302 0.99728483,
                          -0.063030787 -0.064932495 0.99589705,
                          -0.0081930077 -0.043027375 0.99904037,
                          0.00023899734 -0.043360632 0.99905944,
                          -0.011236037 -0.080481917 0.99669278,
                          -0.00055513106 -0.081412226 0.99668044,
                          -0.010300916 0.022009119 0.99970472,
                          -0.014458146 0.060193211 0.99808204,
                          -0.00037464639 0.0219661 0.99975866,
                          -0.0016693318 0.060982835 0.99813747,
                          -0.039796311 0.011434578 0.99914241,
                          -0.064784482 0.014523322 0.99779367,
                          -0.040311933 0.051971022 0.99783462,
                          -0.064464889 0.062463492 0.99596316,
                          -0.37221432 -0.058260657 -0.9263165,
                          -0.31039116 -0.17364828 -0.93461418,
                          -0.084289297 -0.015523522 -0.99632043,
                          -0.07728985 -0.043879788 -0.99604261,
                          -0.90854371 -0.14298783 -0.39255932,
                          -0.98677665 -0.15402666 -0.050475113,
                          -0.79133153 -0.44914564 -0.41480434,
                          -0.86898863 -0.49076265 -0.063331231,
                          -0.90897238 0.14691451 -0.39010945,
                          -0.80320954 0.43356338 -0.40850613,
                          -0.98592657 0.15813245 -0.054249737,
                          -0.87843615 0.47204107 -0.074346133,
                          -0.38639057 0.062142517 -0.92023951,
                          -0.086037911 0.016121024 -0.99616152,
                          -0.33343256 0.18075335 -0.92528427,
                          -0.082178369 0.044366658 -0.99562967,
                          -0.98893422 -0.14585415 -0.027123673,
                          -0.88090777 -0.47082293 -0.048240572,
                          -0.98727143 -0.1488886 -0.055923413,
                          -0.87496185 -0.477887 -0.077884287,
                          -0.98895168 -0.14590628 0.026194006,
                          -0.98475206 -0.14248811 0.099802434,
                          -0.88178134 -0.47147396 0.013198248,
                          -0.88226295 -0.46269637 0.08674325,
                          -0.98831296 0.1504004 0.024844756,
                          -0.89027852 0.45530611 0.010023821,
                          -0.98401189 0.1470045 0.10055051,
                          -0.8897568 0.44739848 0.09037406,
                          -0.9878462 0.15345989 -0.024701465,
                          -0.98627049 0.1561639 -0.053697161,
                          -0.88589734 0.46192262 -0.042584665,
                          -0.88086498 0.46763608 -0.073440798,
                          -0.1809303 0.98210734 -0.052245717,
                          -0.045835085 0.99747097 -0.054321054,
                          -0.18102713 0.98288959 0.034018159,
                          -0.04525318 0.99846566 0.031914655,
                          -0.17969088 0.97776777 -0.10808134,
                          -0.17837435 0.97385693 -0.14066081,
                          -0.046100158 0.99284858 -0.11012132,
                          -0.045957603 0.98869997 -0.14268991,
                          -0.37453303 0.92134345 -0.10416962,
                          -0.63554841 0.76714402 -0.086995736,
                          -0.36983654 0.91880822 -0.13788587,
                          -0.62754738 0.76909518 -0.12114843,
                          -0.37853763 0.9244197 -0.046450656,
                          -0.37931842 0.92428684 0.042563513,
                          -0.64249915 0.76574308 -0.028850544,
                          -0.64431906 0.76237732 0.060281355,
                          -0.15364765 0.85275686 -0.49919766,
                          -0.039983377 0.85302854 -0.52033031,
                          -0.17788748 0.97374302 -0.1420586,
                          -0.046439528 0.98857266 -0.14341357,
                          -0.058919311 0.3269954 -0.94318753,
                          -0.015998451 0.068977125 -0.99748999,
                          -0.015166726 0.3147476 -0.9490543,
                          -0.0042881146 0.067068651 -0.9977392,
                          -0.13063262 0.3188794 -0.93874979,
                          -0.23088315 0.28262734 -0.93102884,
                          -0.03613415 0.068382047 -0.99700469,
                          -0.062358953 0.064821705 -0.99594653,
                          -0.32349649 0.81164742 -0.48639339,
                          -0.36659774 0.91988426 -0.13935232,
                          -0.55755788 0.69706565 -0.45080903,
                          -0.62194145 0.77338696 -0.12272566,
                          -0.29903233 -0.95331615 -0.042049922,
                          -0.58479178 -0.81098711 -0.017849015,
                          -0.3035655 -0.95251352 0.02379429,
                          -0.59096628 -0.80493551 0.05327037,
                          -0.29822889 -0.9500224 -0.092287958,
                          -0.28895491 -0.95009315 -0.11759351,
                          -0.58334327 -0.80852848 -0.077410534,
                          -0.57430732 -0.81180936 -0.10553033,
                          -0.11808417 -0.98857176 -0.093712911,
                          -0.021186652 -0.9951297 -0.096270338,
                          -0.11648897 -0.98625404 -0.11719005,
                          -0.021245399 -0.99264842 -0.11915408,
                          -0.11830727 -0.99152821 -0.053620879,
                          -0.11988512 -0.9927513 0.0085079093,
                          -0.021198034 -0.99813497 -0.057247706,
                          -0.021226063 -0.99976969 0.0031706679,
                          -0.25317681 -0.84966487 -0.46257013,
                          -0.50641185 -0.73942727 -0.44361526,
                          -0.28628859 -0.95075095 -0.11879236,
                          -0.56355774 -0.82099611 -0.091478236,
                          -0.10134792 -0.32154036 -0.94145662,
                          -0.029761758 -0.068275452 -0.99722254,
                          -0.20181412 -0.28545162 -0.93690372,
                          -0.055128399 -0.064571075 -0.99638927,
                          -0.039646234 -0.31665969 -0.94771034,
                          -0.0081164138 -0.31329632 -0.94962072,
                          -0.012226589 -0.067126431 -0.99766958,
                          -0.0029874078 -0.066237643 -0.9977994,
                          -0.098803692 -0.86774367 -0.48709226,
                          -0.11536162 -0.98624831 -0.11834734,
                          -0.018506439 -0.86295903 -0.50493497,
                          -0.021372749 -0.99250227 -0.12034352,
                          -0.88737023 -0.12829636 0.44284788,
                          -0.80150998 -0.41491354 0.43061426,
                          -0.96730405 -0.13792044 0.21284014,
                          -0.87140721 -0.44876444 0.19814183,
                          -0.82589126 -0.12002293 0.55090684,
                          -0.86976689 -0.12777515 0.47663328,
                          -0.74740106 -0.38763374 0.5395664,
                          -0.78502202 -0.4097127 0.46462452,
                          -0.82331258 0.11949325 0.55486727,
                          -0.74645925 0.3708069 0.55254042,
                          -0.86593354 0.12617399 0.48398274,
                          -0.78150028 0.39131945 0.48592845,
                          -0.88607281 0.1291602 0.44518816,
                          -0.9658246 0.14159457 0.21710345,
                          -0.80374575 0.3984004 0.44189358,
                          -0.87473404 0.43488309 0.21381609,
                          -0.44775847 -0.076630704 0.89086479,
                          -0.403669 -0.22390042 0.88708514,
                          -0.76713473 -0.11802875 0.63053435,
                          -0.69240171 -0.36956519 0.61967856,
                          -0.27425632 -0.058797166 0.95985752,
                          -0.12678251 -0.03815975 0.99119633,
                          -0.24248536 -0.14004411 0.95999408,
                          -0.11377186 -0.08108633 0.99019241,
                          -0.27521488 0.033775184 0.96078926,
                          -0.24611513 0.11995395 0.96178913,
                          -0.12770146 0.017332055 0.99166119,
                          -0.11631107 0.059841447 0.99140853,
                          -0.45177957 0.060246423 0.89009303,
                          -0.76676941 0.1104767 0.63234448,
                          -0.41169131 0.20411237 0.88817149,
                          -0.69404423 0.34935009 0.6294896,
                          -0.053585671 0.32133329 0.94544888,
                          -0.012253658 0.32769835 0.94470298,
                          -0.023730882 0.13198243 0.99096793,
                          -0.0045243194 0.13396215 0.99097621,
                          -0.09051948 0.53431541 0.84042448,
                          -0.1408969 0.82056403 0.55391586,
                          -0.021368541 0.54679495 0.83699381,
                          -0.033519331 0.83627772 0.54728055,
                          -0.18692033 0.48400578 0.85486799,
                          -0.30727598 0.3744913 0.87483585,
                          -0.29445338 0.76000375 0.57938904,
                          -0.49898425 0.6139195 0.6116516,
                          -0.11789344 0.28921565 0.94997662,
                          -0.062138248 0.11885849 0.99096501,
                          -0.18911298 0.21665578 0.95775598,
                          -0.11020094 0.084163874 0.99033946,
                          -0.15368824 0.86262953 0.4819237,
                          -0.037171949 0.87878883 0.47576094,
                          -0.15492743 0.88526696 0.43852031,
                          -0.03708316 0.89967388 0.4349848,
                          -0.16521153 0.91266721 0.37382331,
                          -0.17768042 0.96956563 0.16844092,
                          -0.040335197 0.92875963 0.36848146,
                          -0.043842163 0.98508596 0.16638373,
                          -0.34355009 0.85177338 0.39554459,
                          -0.58170801 0.69427574 0.42378885,
                          -0.3715525 0.91065204 0.18072522,
                          -0.63222325 0.74913722 0.19770516,
                          -0.31873482 0.8015303 0.50592226,
                          -0.3241075 0.82738936 0.45867345,
                          -0.53885293 0.64979923 0.53609556,
                          -0.5555926 0.67836088 0.48077378,
                          -0.11917094 -0.94813824 0.29467326,
                          -0.021935964 -0.95876127 0.28336516,
                          -0.12252046 -0.9869653 0.10434712,
                          -0.021980114 -0.99493194 0.098119937,
                          -0.11407565 -0.90925854 0.40029463,
                          -0.11903343 -0.93313301 0.33925506,
                          -0.021030433 -0.92221618 0.38610253,
                          -0.022627406 -0.9451443 0.32586879,
                          -0.27970234 -0.85506856 0.43660551,
                          -0.52062184 -0.69617969 0.49425381,
                          -0.2899788 -0.88193703 0.3716172,
                          -0.54218608 -0.7260831 0.42289209,
                          -0.29408395 -0.89778072 0.32787877,
                          -0.30766961 -0.94337082 0.12406043,
                          -0.5535292 -0.7391938 0.38366395,
                          -0.59184074 -0.78987437 0.16069596,
                          -0.073332496 -0.57375938 0.81573433,
                          -0.014916462 -0.58765942 0.80897093,
                          -0.11418541 -0.87453687 0.47132489,
                          -0.022972779 -0.88921809 0.45690647,
                          -0.044435568 -0.34831744 0.93632287,
                          -0.020426968 -0.1533787 0.9879564,
                          -0.008942646 -0.35437706 0.93505985,
                          -0.0034854282 -0.15497009 0.98791307,
                          -0.1024175 -0.31342068 0.94407529,
                          -0.17358603 -0.240182 0.9550814,
                          -0.052861623 -0.13796933 0.98902488,
                          -0.080349386 -0.10368624 0.99135929,
                          -0.17118308 -0.52377331 0.8344807,
                          -0.26925331 -0.81652153 0.51068139,
                          -0.29647407 -0.40518224 0.86482984,
                          -0.48763239 -0.65961003 0.57195216 ]

                    }
                    coordIndex [ 0, 1, 2, -1, 2, 3, 4, -1,
                        1, 5, 6, -1, 6, 7, 3, -1,
                        0, 8, 9, -1, 10, 9, 11, -1,
                        8, 4, 12, -1, 9, 12, 13, -1,
                        0, 10, 14, -1, 15, 14, 16, -1,
                        10, 17, 18, -1, 14, 18, 19, -1,
                        15, 20, 1, -1, 20, 21, 5, -1,
                        22, 23, 20, -1, 23, 24, 21, -1,
                        25, 26, 27, -1, 26, 28, 29, -1,
                        25, 30, 31, -1, 31, 32, 28, -1,
                        33, 27, 34, -1, 35, 34, 36, -1,
                        27, 29, 37, -1, 34, 37, 38, -1,
                        33, 35, 39, -1, 40, 39, 41, -1,
                        35, 42, 43, -1, 39, 43, 44, -1,
                        33, 40, 45, -1, 25, 45, 46, -1,
                        47, 48, 45, -1, 45, 48, 49, -1,
                        50, 51, 52, -1, 53, 52, 54, -1,
                        17, 11, 52, -1, 11, 13, 54, -1,
                        53, 55, 56, -1, 55, 57, 58, -1,
                        59, 60, 55, -1, 60, 61, 57, -1,
                        56, 62, 63, -1, 62, 64, 65, -1,
                        58, 66, 62, -1, 66, 67, 64, -1,
                        63, 68, 51, -1, 68, 18, 17, -1,
                        63, 65, 69, -1, 69, 19, 18, -1,
                        70, 71, 72, -1, 73, 72, 74, -1,
                        71, 58, 57, -1, 72, 57, 61, -1,
                        73, 75, 76, -1, 75, 77, 78, -1,
                        79, 80, 75, -1, 80, 81, 77, -1,
                        76, 82, 83, -1, 82, 84, 85, -1,
                        78, 86, 82, -1, 86, 87, 84, -1,
                        70, 83, 88, -1, 71, 88, 66, -1,
                        83, 85, 89, -1, 88, 89, 67, -1,
                        90, 91, 92, -1, 91, 93, 94, -1,
                        95, 96, 91, -1, 96, 97, 93, -1,
                        98, 92, 99, -1, 100, 99, 101, -1,
                        92, 94, 102, -1, 102, 103, 101, -1,
                        100, 104, 105, -1, 104, 89, 85, -1,
                        106, 107, 104, -1, 107, 67, 89, -1,
                        98, 105, 108, -1, 90, 108, 109, -1,
                        105, 85, 84, -1, 108, 84, 87, -1,
                        110, 111, 112, -1, 111, 113, 114, -1,
                        106, 101, 111, -1, 111, 101, 103, -1,
                        115, 112, 116, -1, 117, 116, 23, -1,
                        112, 114, 118, -1, 116, 118, 24, -1,
                        117, 119, 120, -1, 119, 69, 65, -1,
                        22, 16, 119, -1, 16, 19, 69, -1,
                        115, 120, 121, -1, 110, 121, 107, -1,
                        120, 65, 64, -1, 121, 64, 67, -1,
                        122, 123, 124, -1, 125, 124, 80, -1,
                        123, 126, 127, -1, 124, 127, 81, -1,
                        125, 128, 129, -1, 129, 128, 130, -1,
                        79, 74, 128, -1, 74, 61, 130, -1,
                        129, 131, 132, -1, 131, 133, 134, -1,
                        135, 136, 131, -1, 136, 137, 133, -1,
                        132, 138, 123, -1, 138, 139, 126, -1,
                        134, 140, 138, -1, 140, 141, 139, -1,
                        142, 143, 144, -1, 145, 144, 60, -1,
                        135, 130, 144, -1, 144, 130, 61, -1,
                        145, 146, 147, -1, 146, 12, 4, -1,
                        59, 54, 146, -1, 54, 13, 12, -1,
                        142, 147, 148, -1, 149, 148, 150, -1,
                        147, 4, 3, -1, 148, 3, 7, -1,
                        149, 151, 143, -1, 143, 151, 136, -1,
                        152, 153, 151, -1, 151, 153, 137, -1,
                        154, 155, 156, -1, 157, 156, 158, -1,
                        155, 78, 77, -1, 156, 77, 81, -1,
                        157, 159, 160, -1, 159, 161, 162, -1,
                        163, 164, 159, -1, 164, 165, 161, -1,
                        154, 160, 166, -1, 166, 167, 168, -1,
                        160, 162, 169, -1, 169, 170, 167, -1,
                        171, 172, 155, -1, 172, 86, 78, -1,
                        171, 168, 173, -1, 172, 173, 87, -1,
                        174, 175, 176, -1, 177, 176, 178, -1,
                        175, 162, 161, -1, 176, 161, 165, -1,
                        174, 177, 179, -1, 179, 31, 30, -1,
                        180, 181, 179, -1, 181, 32, 31, -1,
                        182, 183, 184, -1, 183, 185, 186, -1,
                        30, 46, 183, -1, 46, 49, 185, -1,
                        174, 184, 187, -1, 175, 187, 169, -1,
                        184, 186, 188, -1, 187, 188, 170, -1,
                        189, 190, 191, -1, 190, 192, 193, -1,
                        47, 41, 190, -1, 41, 44, 192, -1,
                        194, 191, 195, -1, 196, 195, 197, -1,
                        191, 193, 198, -1, 195, 198, 199, -1,
                        196, 200, 201, -1, 200, 188, 186, -1,
                        202, 203, 200, -1, 203, 170, 188, -1,
                        194, 201, 204, -1, 189, 204, 48, -1,
                        201, 186, 185, -1, 204, 185, 49, -1,
                        205, 206, 207, -1, 206, 208, 209, -1,
                        202, 197, 206, -1, 197, 199, 208, -1,
                        210, 207, 211, -1, 212, 211, 96, -1,
                        207, 209, 213, -1, 211, 213, 97, -1,
                        212, 214, 215, -1, 214, 173, 168, -1,
                        95, 109, 214, -1, 109, 87, 173, -1,
                        210, 215, 216, -1, 205, 216, 203, -1,
                        215, 168, 167, -1, 216, 167, 170, -1,
                        217, 218, 219, -1, 220, 219, 221, -1,
                        218, 126, 139, -1, 219, 139, 141, -1,
                        220, 222, 223, -1, 222, 224, 225, -1,
                        226, 227, 222, -1, 227, 228, 224, -1,
                        217, 223, 229, -1, 230, 229, 164, -1,
                        223, 225, 231, -1, 229, 231, 165, -1,
                        230, 232, 218, -1, 232, 127, 126, -1,
                        163, 158, 232, -1, 158, 81, 127, -1,
                        233, 234, 235, -1, 236, 235, 237, -1,
                        234, 225, 224, -1, 235, 224, 228, -1,
                        236, 238, 239, -1, 238, 37, 29, -1,
                        240, 241, 238, -1, 241, 38, 37, -1,
                        233, 239, 242, -1, 243, 242, 181, -1,
                        239, 29, 28, -1, 242, 28, 32, -1,
                        243, 244, 234, -1, 244, 231, 225, -1,
                        180, 178, 244, -1, 178, 165, 231, -1,
                        8, 0, 2, -1, 8, 2, 4, -1,
                        2, 1, 6, -1, 2, 6, 3, -1,
                        10, 0, 9, -1, 17, 10, 11, -1,
                        9, 8, 12, -1, 11, 9, 13, -1,
                        15, 0, 14, -1, 22, 15, 16, -1,
                        14, 10, 18, -1, 16, 14, 19, -1,
                        0, 15, 1, -1, 1, 20, 5, -1,
                        15, 22, 20, -1, 20, 23, 21, -1,
                        33, 25, 27, -1, 27, 26, 29, -1,
                        26, 25, 31, -1, 26, 31, 28, -1,
                        35, 33, 34, -1, 42, 35, 36, -1,
                        34, 27, 37, -1, 36, 34, 38, -1,
                        40, 33, 39, -1, 47, 40, 41, -1,
                        39, 35, 43, -1, 41, 39, 44, -1,
                        25, 33, 45, -1, 30, 25, 46, -1,
                        40, 47, 45, -1, 46, 45, 49, -1,
                        53, 50, 52, -1, 59, 53, 54, -1,
                        51, 17, 52, -1, 52, 11, 54, -1,
                        50, 53, 56, -1, 56, 55, 58, -1,
                        53, 59, 55, -1, 55, 60, 57, -1,
                        50, 56, 63, -1, 63, 62, 65, -1,
                        56, 58, 62, -1, 62, 66, 64, -1,
                        50, 63, 51, -1, 51, 68, 17, -1,
                        68, 63, 69, -1, 68, 69, 18, -1,
                        73, 70, 72, -1, 79, 73, 74, -1,
                        72, 71, 57, -1, 74, 72, 61, -1,
                        70, 73, 76, -1, 76, 75, 78, -1,
                        73, 79, 75, -1, 75, 80, 77, -1,
                        70, 76, 83, -1, 83, 82, 85, -1,
                        76, 78, 82, -1, 82, 86, 84, -1,
                        71, 70, 88, -1, 58, 71, 66, -1,
                        88, 83, 89, -1, 66, 88, 67, -1,
                        98, 90, 92, -1, 92, 91, 94, -1,
                        90, 95, 91, -1, 91, 96, 93, -1,
                        100, 98, 99, -1, 106, 100, 101, -1,
                        99, 92, 102, -1, 99, 102, 101, -1,
                        98, 100, 105, -1, 105, 104, 85, -1,
                        100, 106, 104, -1, 104, 107, 89, -1,
                        90, 98, 108, -1, 95, 90, 109, -1,
                        108, 105, 84, -1, 109, 108, 87, -1,
                        115, 110, 112, -1, 112, 111, 114, -1,
                        110, 106, 111, -1, 113, 111, 103, -1,
                        117, 115, 116, -1, 22, 117, 23, -1,
                        116, 112, 118, -1, 23, 116, 24, -1,
                        115, 117, 120, -1, 120, 119, 65, -1,
                        117, 22, 119, -1, 119, 16, 69, -1,
                        110, 115, 121, -1, 106, 110, 107, -1,
                        121, 120, 64, -1, 107, 121, 67, -1,
                        125, 122, 124, -1, 79, 125, 80, -1,
                        124, 123, 127, -1, 80, 124, 81, -1,
                        122, 125, 129, -1, 135, 129, 130, -1,
                        125, 79, 128, -1, 128, 74, 130, -1,
                        122, 129, 132, -1, 132, 131, 134, -1,
                        129, 135, 131, -1, 131, 136, 133, -1,
                        122, 132, 123, -1, 123, 138, 126, -1,
                        132, 134, 138, -1, 138, 140, 139, -1,
                        145, 142, 144, -1, 59, 145, 60, -1,
                        143, 135, 144, -1, 60, 144, 61, -1,
                        142, 145, 147, -1, 147, 146, 4, -1,
                        145, 59, 146, -1, 146, 54, 12, -1,
                        149, 142, 148, -1, 152, 149, 150, -1,
                        148, 147, 3, -1, 150, 148, 7, -1,
                        142, 149, 143, -1, 135, 143, 136, -1,
                        149, 152, 151, -1, 136, 151, 137, -1,
                        157, 154, 156, -1, 163, 157, 158, -1,
                        156, 155, 77, -1, 158, 156, 81, -1,
                        154, 157, 160, -1, 160, 159, 162, -1,
                        157, 163, 159, -1, 159, 164, 161, -1,
                        171, 154, 166, -1, 171, 166, 168, -1,
                        166, 160, 169, -1, 166, 169, 167, -1,
                        154, 171, 155, -1, 155, 172, 78, -1,
                        172, 171, 173, -1, 86, 172, 87, -1,
                        177, 174, 176, -1, 180, 177, 178, -1,
                        176, 175, 161, -1, 178, 176, 165, -1,
                        182, 174, 179, -1, 182, 179, 30, -1,
                        177, 180, 179, -1, 179, 181, 31, -1,
                        174, 182, 184, -1, 184, 183, 186, -1,
                        182, 30, 183, -1, 183, 46, 185, -1,
                        175, 174, 187, -1, 162, 175, 169, -1,
                        187, 184, 188, -1, 169, 187, 170, -1,
                        194, 189, 191, -1, 191, 190, 193, -1,
                        189, 47, 190, -1, 190, 41, 192, -1,
                        196, 194, 195, -1, 202, 196, 197, -1,
                        195, 191, 198, -1, 197, 195, 199, -1,
                        194, 196, 201, -1, 201, 200, 186, -1,
                        196, 202, 200, -1, 200, 203, 188, -1,
                        189, 194, 204, -1, 47, 189, 48, -1,
                        204, 201, 185, -1, 48, 204, 49, -1,
                        210, 205, 207, -1, 207, 206, 209, -1,
                        205, 202, 206, -1, 206, 197, 208, -1,
                        212, 210, 211, -1, 95, 212, 96, -1,
                        211, 207, 213, -1, 96, 211, 97, -1,
                        210, 212, 215, -1, 215, 214, 168, -1,
                        212, 95, 214, -1, 214, 109, 173, -1,
                        205, 210, 216, -1, 202, 205, 203, -1,
                        216, 215, 167, -1, 203, 216, 170, -1,
                        220, 217, 219, -1, 226, 220, 221, -1,
                        219, 218, 139, -1, 221, 219, 141, -1,
                        217, 220, 223, -1, 223, 222, 225, -1,
                        220, 226, 222, -1, 222, 227, 224, -1,
                        230, 217, 229, -1, 163, 230, 164, -1,
                        229, 223, 231, -1, 164, 229, 165, -1,
                        217, 230, 218, -1, 218, 232, 126, -1,
                        230, 163, 232, -1, 232, 158, 127, -1,
                        236, 233, 235, -1, 240, 236, 237, -1,
                        235, 234, 224, -1, 237, 235, 228, -1,
                        233, 236, 239, -1, 239, 238, 29, -1,
                        236, 240, 238, -1, 238, 241, 37, -1,
                        243, 233, 242, -1, 180, 243, 181, -1,
                        242, 239, 28, -1, 181, 242, 32, -1,
                        233, 243, 234, -1, 234, 244, 225, -1,
                        243, 180, 244, -1, 244, 178, 231, -1 ]
                    normalIndex [ 0, 0, 0, -1, 1, 1, 1, -1,
                        2, 2, 2, -1, 3, 3, 3, -1,
                        4, 4, 4, -1, 5, 5, 5, -1,
                        6, 6, 6, -1, 7, 7, 7, -1,
                        8, 8, 8, -1, 9, 9, 9, -1,
                        10, 10, 10, -1, 11, 11, 11, -1,
                        12, 12, 12, -1, 13, 13, 13, -1,
                        14, 14, 14, -1, 15, 15, 15, -1,
                        16, 16, 16, -1, 17, 17, 17, -1,
                        18, 18, 18, -1, 19, 19, 19, -1,
                        20, 20, 20, -1, 21, 21, 21, -1,
                        22, 22, 22, -1, 23, 23, 23, -1,
                        24, 24, 24, -1, 25, 25, 25, -1,
                        26, 26, 26, -1, 27, 27, 27, -1,
                        28, 28, 28, -1, 29, 29, 29, -1,
                        30, 30, 30, -1, 31, 31, 31, -1,
                        32, 32, 32, -1, 33, 33, 33, -1,
                        34, 34, 34, -1, 35, 35, 35, -1,
                        36, 36, 36, -1, 37, 37, 37, -1,
                        38, 38, 38, -1, 39, 39, 39, -1,
                        40, 40, 40, -1, 41, 41, 41, -1,
                        42, 42, 42, -1, 43, 43, 43, -1,
                        44, 44, 44, -1, 45, 45, 45, -1,
                        46, 46, 46, -1, 47, 47, 47, -1,
                        48, 48, 48, -1, 49, 49, 49, -1,
                        50, 50, 50, -1, 51, 51, 51, -1,
                        52, 52, 52, -1, 53, 53, 53, -1,
                        54, 54, 54, -1, 55, 55, 55, -1,
                        56, 56, 56, -1, 57, 57, 57, -1,
                        58, 58, 58, -1, 59, 59, 59, -1,
                        60, 60, 60, -1, 61, 61, 61, -1,
                        62, 62, 62, -1, 63, 63, 63, -1,
                        64, 64, 64, -1, 65, 65, 65, -1,
                        66, 66, 66, -1, 67, 67, 67, -1,
                        68, 68, 68, -1, 69, 69, 69, -1,
                        70, 70, 70, -1, 71, 71, 71, -1,
                        72, 72, 72, -1, 73, 73, 73, -1,
                        74, 74, 74, -1, 75, 75, 75, -1,
                        76, 76, 76, -1, 77, 77, 77, -1,
                        78, 78, 78, -1, 79, 79, 79, -1,
                        80, 80, 80, -1, 81, 81, 81, -1,
                        82, 82, 82, -1, 83, 83, 83, -1,
                        84, 84, 84, -1, 85, 85, 85, -1,
                        86, 86, 86, -1, 87, 87, 87, -1,
                        88, 88, 88, -1, 89, 89, 89, -1,
                        90, 90, 90, -1, 91, 91, 91, -1,
                        92, 92, 92, -1, 93, 93, 93, -1,
                        94, 94, 94, -1, 95, 95, 95, -1,
                        96, 96, 96, -1, 97, 97, 97, -1,
                        98, 98, 98, -1, 99, 99, 99, -1,
                        100, 100, 100, -1, 101, 101, 101, -1,
                        102, 102, 102, -1, 103, 103, 103, -1,
                        104, 104, 104, -1, 105, 105, 105, -1,
                        106, 106, 106, -1, 107, 107, 107, -1,
                        108, 108, 108, -1, 109, 109, 109, -1,
                        110, 110, 110, -1, 111, 111, 111, -1,
                        112, 112, 112, -1, 113, 113, 113, -1,
                        114, 114, 114, -1, 115, 115, 115, -1,
                        116, 116, 116, -1, 117, 117, 117, -1,
                        118, 118, 118, -1, 119, 119, 119, -1,
                        120, 120, 120, -1, 121, 121, 121, -1,
                        122, 122, 122, -1, 123, 123, 123, -1,
                        124, 124, 124, -1, 125, 125, 125, -1,
                        126, 126, 126, -1, 127, 127, 127, -1,
                        128, 128, 128, -1, 129, 129, 129, -1,
                        130, 130, 130, -1, 131, 131, 131, -1,
                        132, 132, 132, -1, 133, 133, 133, -1,
                        134, 134, 134, -1, 135, 135, 135, -1,
                        136, 136, 136, -1, 137, 137, 137, -1,
                        138, 138, 138, -1, 139, 139, 139, -1,
                        140, 140, 140, -1, 141, 141, 141, -1,
                        142, 142, 142, -1, 143, 143, 143, -1,
                        144, 144, 144, -1, 145, 145, 145, -1,
                        146, 146, 146, -1, 147, 147, 147, -1,
                        148, 148, 148, -1, 149, 149, 149, -1,
                        150, 150, 150, -1, 151, 151, 151, -1,
                        152, 152, 152, -1, 153, 153, 153, -1,
                        154, 154, 154, -1, 155, 155, 155, -1,
                        156, 156, 156, -1, 157, 157, 157, -1,
                        158, 158, 158, -1, 159, 159, 159, -1,
                        160, 160, 160, -1, 161, 161, 161, -1,
                        162, 162, 162, -1, 163, 163, 163, -1,
                        164, 164, 164, -1, 165, 165, 165, -1,
                        166, 166, 166, -1, 167, 167, 167, -1,
                        168, 168, 168, -1, 169, 169, 169, -1,
                        170, 170, 170, -1, 171, 171, 171, -1,
                        172, 172, 172, -1, 173, 173, 173, -1,
                        174, 174, 174, -1, 175, 175, 175, -1,
                        176, 176, 176, -1, 177, 177, 177, -1,
                        178, 178, 178, -1, 179, 179, 179, -1,
                        180, 180, 180, -1, 181, 181, 181, -1,
                        182, 182, 182, -1, 183, 183, 183, -1,
                        184, 184, 184, -1, 185, 185, 185, -1,
                        186, 186, 186, -1, 187, 187, 187, -1,
                        188, 188, 188, -1, 189, 189, 189, -1,
                        190, 190, 190, -1, 191, 191, 191, -1,
                        192, 192, 192, -1, 193, 193, 193, -1,
                        194, 194, 194, -1, 195, 195, 195, -1,
                        196, 196, 196, -1, 197, 197, 197, -1,
                        198, 198, 198, -1, 199, 199, 199, -1,
                        200, 200, 200, -1, 201, 201, 201, -1,
                        202, 202, 202, -1, 203, 203, 203, -1,
                        204, 204, 204, -1, 205, 205, 205, -1,
                        206, 206, 206, -1, 207, 207, 207, -1,
                        208, 208, 208, -1, 209, 209, 209, -1,
                        210, 210, 210, -1, 211, 211, 211, -1,
                        212, 212, 212, -1, 213, 213, 213, -1,
                        214, 214, 214, -1, 215, 215, 215, -1,
                        216, 216, 216, -1, 217, 217, 217, -1,
                        218, 218, 218, -1, 219, 219, 219, -1,
                        220, 220, 220, -1, 221, 221, 221, -1,
                        222, 222, 222, -1, 223, 223, 223, -1,
                        224, 0, 224, -1, 225, 225, 225, -1,
                        226, 2, 226, -1, 227, 227, 227, -1,
                        228, 228, 228, -1, 229, 229, 229, -1,
                        230, 230, 230, -1, 231, 231, 231, -1,
                        232, 232, 232, -1, 233, 233, 233, -1,
                        234, 234, 234, -1, 235, 235, 235, -1,
                        236, 12, 236, -1, 237, 13, 237, -1,
                        238, 238, 238, -1, 239, 239, 239, -1,
                        240, 240, 240, -1, 241, 241, 241, -1,
                        242, 242, 242, -1, 243, 243, 243, -1,
                        244, 244, 244, -1, 245, 245, 245, -1,
                        246, 246, 246, -1, 247, 247, 247, -1,
                        248, 248, 248, -1, 249, 249, 249, -1,
                        250, 250, 250, -1, 251, 251, 251, -1,
                        252, 252, 252, -1, 253, 253, 253, -1,
                        254, 254, 254, -1, 255, 255, 255, -1,
                        256, 256, 256, -1, 257, 257, 257, -1,
                        258, 258, 258, -1, 259, 259, 259, -1,
                        260, 260, 260, -1, 261, 261, 261, -1,
                        262, 262, 262, -1, 263, 263, 263, -1,
                        264, 264, 264, -1, 265, 265, 265, -1,
                        266, 266, 266, -1, 267, 267, 267, -1,
                        268, 268, 268, -1, 269, 269, 269, -1,
                        270, 270, 270, -1, 271, 271, 271, -1,
                        272, 272, 272, -1, 273, 273, 273, -1,
                        274, 274, 274, -1, 275, 275, 275, -1,
                        276, 276, 276, -1, 277, 277, 277, -1,
                        278, 278, 278, -1, 279, 279, 279, -1,
                        280, 280, 280, -1, 281, 281, 281, -1,
                        282, 282, 282, -1, 283, 283, 283, -1,
                        284, 284, 284, -1, 285, 285, 285, -1,
                        286, 286, 286, -1, 287, 287, 287, -1,
                        288, 288, 288, -1, 289, 289, 289, -1,
                        290, 290, 290, -1, 291, 291, 291, -1,
                        292, 292, 292, -1, 293, 293, 293, -1,
                        294, 294, 294, -1, 295, 295, 295, -1,
                        296, 296, 296, -1, 297, 297, 297, -1,
                        298, 298, 298, -1, 299, 299, 299, -1,
                        300, 300, 300, -1, 301, 301, 301, -1,
                        302, 302, 302, -1, 303, 303, 303, -1,
                        304, 304, 304, -1, 305, 305, 305, -1,
                        306, 306, 306, -1, 307, 307, 307, -1,
                        308, 308, 308, -1, 309, 309, 309, -1,
                        310, 310, 310, -1, 311, 311, 311, -1,
                        312, 312, 312, -1, 313, 313, 313, -1,
                        314, 90, 314, -1, 315, 315, 315, -1,
                        316, 316, 316, -1, 317, 317, 317, -1,
                        318, 318, 318, -1, 319, 319, 319, -1,
                        320, 320, 320, -1, 321, 321, 321, -1,
                        322, 322, 322, -1, 323, 323, 323, -1,
                        324, 324, 324, -1, 325, 325, 325, -1,
                        326, 326, 326, -1, 327, 327, 327, -1,
                        328, 328, 328, -1, 329, 105, 329, -1,
                        330, 330, 330, -1, 331, 107, 331, -1,
                        332, 332, 332, -1, 333, 333, 333, -1,
                        334, 110, 334, -1, 335, 335, 335, -1,
                        336, 336, 336, -1, 337, 337, 337, -1,
                        338, 338, 338, -1, 339, 339, 339, -1,
                        340, 340, 340, -1, 341, 117, 341, -1,
                        342, 342, 342, -1, 343, 343, 343, -1,
                        344, 344, 344, -1, 345, 345, 345, -1,
                        346, 346, 346, -1, 347, 347, 347, -1,
                        348, 348, 348, -1, 349, 349, 349, -1,
                        350, 350, 350, -1, 351, 127, 351, -1,
                        352, 352, 352, -1, 353, 353, 353, -1,
                        354, 354, 354, -1, 355, 355, 355, -1,
                        356, 356, 356, -1, 357, 357, 357, -1,
                        358, 358, 358, -1, 359, 359, 359, -1,
                        360, 136, 360, -1, 361, 361, 361, -1,
                        362, 362, 362, -1, 363, 363, 363, -1,
                        364, 364, 364, -1, 365, 365, 365, -1,
                        366, 366, 366, -1, 367, 367, 367, -1,
                        368, 368, 368, -1, 369, 369, 369, -1,
                        370, 370, 370, -1, 371, 371, 371, -1,
                        372, 372, 372, -1, 373, 373, 373, -1,
                        374, 374, 374, -1, 375, 375, 375, -1,
                        376, 376, 376, -1, 377, 377, 377, -1,
                        378, 378, 378, -1, 379, 379, 379, -1,
                        380, 380, 380, -1, 381, 157, 381, -1,
                        382, 382, 382, -1, 383, 383, 383, -1,
                        384, 384, 384, -1, 385, 385, 385, -1,
                        386, 386, 386, -1, 387, 387, 387, -1,
                        388, 388, 388, -1, 389, 389, 389, -1,
                        390, 390, 390, -1, 391, 391, 391, -1,
                        392, 392, 392, -1, 393, 169, 393, -1,
                        394, 394, 394, -1, 395, 395, 395, -1,
                        396, 396, 396, -1, 397, 397, 397, -1,
                        398, 398, 398, -1, 399, 399, 399, -1,
                        400, 400, 400, -1, 401, 401, 401, -1,
                        402, 402, 402, -1, 403, 403, 403, -1,
                        404, 404, 404, -1, 405, 405, 405, -1,
                        406, 406, 406, -1, 407, 407, 407, -1,
                        408, 408, 408, -1, 409, 409, 409, -1,
                        410, 410, 410, -1, 411, 411, 411, -1,
                        412, 412, 412, -1, 413, 413, 413, -1,
                        414, 414, 414, -1, 415, 415, 415, -1,
                        416, 416, 416, -1, 417, 417, 417, -1,
                        418, 418, 418, -1, 419, 419, 419, -1,
                        420, 420, 420, -1, 421, 421, 421, -1,
                        422, 422, 422, -1, 423, 423, 423, -1,
                        424, 424, 424, -1, 425, 425, 425, -1,
                        426, 426, 426, -1, 427, 427, 427, -1,
                        428, 428, 428, -1, 429, 429, 429, -1,
                        430, 430, 430, -1, 431, 431, 431, -1,
                        432, 432, 432, -1, 433, 433, 433, -1,
                        434, 434, 434, -1, 435, 435, 435, -1,
                        436, 436, 436, -1, 437, 437, 437, -1,
                        438, 438, 438, -1, 439, 439, 439, -1,
                        440, 440, 440, -1, 441, 441, 441, -1,
                        442, 442, 442, -1, 443, 443, 443, -1,
                        444, 220, 444, -1, 445, 445, 445, -1,
                        446, 446, 446, -1, 447, 447, 447, -1 ]
                    ccw TRUE
                    solid FALSE
                    convex TRUE
                    creaseAngle 0

                  }

                }

            }

        }

    }

}
