#VRML V2.0 utf8


Group {
  children 
    Group {
      children 
        Transform {
          scale 1.74 1.74 1.74
          children 
            Group {
              children 
                Shape {
                  appearance 
                  Appearance {
                    material 
                    Material {
                      diffuseColor 0.65864992 0.50308388 0.31538299
                      ambientIntensity 0.10572245

                    }

                  }
                  geometry 
                  IndexedFaceSet {
                    coord 
                    Coordinate {
                      point [ 0.041580912 0.019125041 -0.043948531,
                          0.04484874 0.035872102 -0.048221461,
                          0.050299998 0.039230399 -0.02728897,
                          -0.025149999 0.039230458 -0.02728897,
                          -0.025149999 0.039230399 -0.05399996,
                          -0.04484874 0.035872038 -0.048221461,
                          -0.043293651 -0.01891171 -0.019067639,
                          -0.036545988 -0.018591341 -0.035202742,
                          -0.032488041 -0.031981882 -0.031368189,
                          0.018282941 -0.037584059 -0.017479829,
                          0.017376181 -0.033915039 -0.032710131,
                          0.032263391 -0.031981882 -0.031368189,
                          -0.04158419 0.019125041 -0.043948472,
                          0.01887464 0.01914393 0.051143158,
                          0.036362641 0.01925659 0.047174029,
                          0.033420861 0.035743769 0.048700571,
                          0.045110341 0.01917976 0.027608929,
                          0.048278801 0.01909798 0.001937866,
                          0.050300062 0.039230399 0.0020024769,
                          -0.025149999 0.039230458 0.0020024769,
                          -0.050300062 0.039230399 0.0020024769,
                          -0.044239581 0.039230399 0.03087878,
                          -0.044520192 -0.018476781 0.001625478,
                          -0.036328249 -0.032723181 0.001356899,
                          -0.03526973 -0.026126379 0.01860678,
                          0.01839721 -0.02924889 0.01849591,
                          0.01889932 -0.036562141 0.001321852,
                          0.036327772 -0.032723241 0.001356899,
                          0.02514994 0.039230458 -0.02728897,
                          0.025149999 0.039230399 -0.05399996,
                          0 0.039230399 -0.05399996,
                          -0.01754486 -0.03391498 -0.032710131,
                          -5.5635301e-005 -0.035144091 -0.033485111,
                          -3.3808901e-005 -0.039230458 -0.01779294,
                          0.02174448 0.01910352 -0.047787119,
                          0 0.019082 -0.048733409,
                          0 0.019031219 0.052187439,
                          0 0.037691168 0.05399996,
                          -0.016904229 0.03727138 0.053332381,
                          0.022119761 0.039230399 0.030878721,
                          0.02514994 0.039230458 0.0020024769,
                          0 0.039230399 0.0020024769,
                          -0.01889967 -0.036562081 0.001321852,
                          -1.28523e-007 -0.03812319 0.001309335,
                          3.3413999e-005 -0.030572411 0.01874762,
                          0.03639847 -0.018591341 -0.035202801,
                          0.039163761 -0.000534711 -0.039224502,
                          0.046343021 -0.00062748598 -0.02136492,
                          -0.048016962 0.01911216 -0.023870699,
                          -0.0392006 -0.00053480099 -0.039224438,
                          -0.020511091 -0.00073087 -0.04300075,
                          0.036457241 -0.01108729 0.036645349,
                          0.038142201 0.0011939401 0.042583581,
                          0.01993656 0.001144707 0.04637295,
                          0.043254431 -0.01467943 0.021413321,
                          0.044519778 -0.018476781 0.001625478,
                          0.047171772 -0.00063134398 0.0018923871,
                          -0.048278801 0.01909804 0.001937925,
                          -0.047171831 -0.00063132099 0.001892447,
                          -0.045688558 0.00031160799 0.02484303,
                          0.018980799 -0.01927912 -0.038824141,
                          -3.2803e-005 -0.019914091 -0.040009908,
                          -4.8000402e-006 -0.00091843301 -0.044148739,
                          -0.018936031 -0.01094007 0.04008555,
                          3.2698699e-005 -0.01125878 0.041226439,
                          4.81494e-006 0.001035213 0.047526348,
                          0.044239581 0.039230458 0.03087878,
                          -0.022119761 0.039230399 0.030878721,
                          -0.03342092 0.03435611 0.048700511,
                          -0.043158591 -0.01467931 0.02141338,
                          -0.03227007 -0.0196619 0.031213401,
                          0.03541553 -0.026126379 0.01860684,
                          0.032494061 -0.0196619 0.03121352,
                          0.01690417 0.038460851 0.053332381,
                          0 0.039230399 0.030878721,
                          -0.01737958 -0.02058023 0.032305062,
                          -0.01829046 -0.02924883 0.01849591,
                          0.045711331 0.000311699 0.02484303,
                          -0.045108732 0.01917976 0.027608991,
                          -0.038105421 0.001193881 0.042583521,
                          0.048015229 0.01911216 -0.023870699,
                          -0.050299998 0.039230458 -0.02728897,
                          -0.035404079 -0.033597998 -0.017360801,
                          0.035256919 -0.033597939 -0.017360801,
                          0 0.039230399 -0.02728897,
                          -0.01839071 -0.037584119 -0.017479829,
                          0.04319685 -0.01891171 -0.01906758,
                          -0.046366151 -0.000627439 -0.02136486,
                          -0.01908749 -0.01927912 -0.038824201,
                          0.019042609 -0.01094007 0.04008555,
                          5.54752e-005 -0.021367131 0.03300368,
                          -0.036310069 -0.01108723 0.036645409,
                          -0.021746149 0.01910352 -0.047787119,
                          0.020487901 -0.000730898 -0.04300075,
                          -0.01887309 0.01899522 0.051143158,
                          -0.036359541 0.01895922 0.047174029,
                          0.017547781 -0.02058029 0.032305062,
                          -0.01991337 0.001144707 0.046372999 ]

                    }
                    normal 
                    Normal {
                      vector [ 0.94847816 -0.23834057 -0.20876543,
                          -0.16806179 0.98577654 -2.1997262e-006,
                          -0.85660094 -0.36424372 -0.36546075,
                          0.14624794 -0.95971715 -0.23990549,
                          -0.22550201 -0.28190184 -0.9325664,
                          0.22135997 -0.05067382 0.97387469,
                          0.9875018 -0.099535674 0.12219984,
                          -2.3699602e-006 1 4.9740089e-007,
                          -0.84004533 -0.48752832 0.23799188,
                          0.19742513 -0.89985305 0.38895762,
                          0 1 -2.231465e-006,
                          -0.078927122 -0.96473408 -0.25111473,
                          0.042316407 -0.25266504 -0.96662802,
                          -0.036880888 -0.096613519 0.99463844,
                          -2.3699715e-006 1 1.8154441e-006,
                          -0.075317487 -0.91500783 0.39634338,
                          0.904751 -0.21981755 -0.36483696,
                          -0.93574911 -0.18552047 -0.29992622,
                          -0.19466624 -0.24042195 -0.95094824,
                          0.18332304 -0.44820037 0.87493378,
                          0.98480463 -0.14771673 0.091321312,
                          -0.99619859 -0.056048173 0.066686049,
                          0.067888997 -0.21249278 -0.97480154,
                          -0.061073735 -0.45530549 0.88823807,
                          0.91253674 -0.026924264 0.40810764,
                          7.1087737e-007 0.9645738 0.26381299,
                          -0.67597055 -0.57795 0.45720637,
                          0.15539254 -0.86393875 0.47902295,
                          0 0.99941319 0.034252614,
                          -0.068218909 -0.84294701 0.53365403,
                          0.86330473 -0.24271989 0.44248411,
                          -0.91858536 -0.02954671 0.39411691,
                          0.99361295 -0.11284207 -2.1482531e-006,
                          0 1 -0,
                          -0.87970275 -0.47504979 -0.021231942,
                          0.22808056 -0.97258401 0.045385137,
                          -2.3699718e-006 1 0,
                          -0.088199206 -0.9944247 0.057797585,
                          0.98416328 -0.17375524 -0.035098478,
                          -0.99636209 -0.084614225 -0.010154812,
                          -0.90611345 -0.21443367 -0.36465964,
                          -0.9843542 -0.14770156 0.096078411,
                          0.85392767 -0.36882779 -0.3671152,
                          -0.20430201 -0.32621285 -0.92295504,
                          0.15338148 -0.57842612 0.80118501,
                          0.84151638 -0.48824826 0.23122239,
                          0.068474121 -0.39296216 -0.91700172,
                          -0.059460662 -0.63000607 0.77431053,
                          -0.86064327 -0.24710864 0.44523078,
                          0.67977577 -0.57662851 0.45321587,
                          -0.98488837 -0.16979142 -0.034146845,
                          0.87796849 -0.47790501 -0.027896209,
                          0.93544745 -0.18707569 -0.29990166,
                          -0.1841709 -0.25069585 -0.95038551,
                          0.19922672 -0.22289008 0.95426875,
                          0.99626392 -0.056052685 0.065699436,
                          0.05655719 -0.22308871 -0.97315609,
                          -0.053011108 -0.25039402 0.96669161,
                          -0.94851291 -0.23817217 -0.20880012,
                          -0.98749435 -0.099535063 0.12226061,
                          0.91889948 -0.02841007 0.39346775,
                          -0.91266245 -0.026944825 0.40782523,
                          0.99626899 -0.085694656 -0.010221548,
                          -0.9936226 -0.11275731 -2.3777218e-006,
                          0.079187497 -0.96466053 -0.2513155,
                          0.055562552 -0.10683931 0.99272263,
                          0.075323813 -0.91511297 0.39609915,
                          0.16805859 0.98577702 -1.8247102e-006,
                          0.18046668 -0.31785968 -0.93080449,
                          2.3699545e-006 1 -1.5667373e-006,
                          0.053715557 -0.46400216 0.88420397,
                          0.20678969 -0.23088847 -0.95075154,
                          0.068075679 -0.84309685 0.53343564,
                          -3.1618608e-006 0.98139495 0.19200006,
                          0.088401109 -0.99442482 0.057486206,
                          2.3699604e-006 1 -0,
                          0.056968194 -0.632366 0.77257228,
                          0.13317549 -0.39442182 -0.90922815,
                          0.057280261 -0.25259939 0.96587396,
                          0.19474986 -0.24173301 -0.9505986,
                          0 -0.2949512 -0.9555124,
                          2.3699661e-006 1 1.8154399e-006,
                          -0.14567569 -0.95994264 -0.23935068,
                          -0.25455293 -0.087937348 0.96305245,
                          -0.19732675 -0.89942247 0.39000198,
                          -0.056518812 -0.22344752 -0.97307599,
                          -0.16809456 -0.46564409 0.8688612,
                          -0 0.99621558 0.086916998,
                          -0.15565498 -0.86345756 0.47980469,
                          -0.22755721 -0.97264373 0.046711802,
                          -0.070134379 -0.3907994 -0.91780019,
                          -0.095363088 -0.63446993 0.76704228,
                          -0.042470925 -0.2368696 -0.9706127,
                          -0.21438557 -0.24048607 0.9466812,
                          0.94030267 -0.1580046 -0.30143896,
                          0 0.98737276 -0.15841459,
                          -0.84552276 -0.48112896 -0.23153047,
                          0.22675651 -0.96083337 -0.15931329,
                          -0.18045622 -0.31784514 -0.93081158,
                          0.25640509 -0.082983442 0.96300071,
                          0.97863805 0.0090047643 0.20539393,
                          5.5620877e-012 1 2.0641407e-006,
                          -0.79219556 -0.58693087 0.16714793,
                          0.16610479 -0.91809046 0.35988778,
                          -0.090786114 -0.96701157 -0.23800522,
                          -0.054678917 -0.11294837 0.99209523,
                          -0.071618587 -0.91677445 0.39293176,
                          0.90086341 -0.20320994 -0.38360259,
                          -0.92070496 -0.12397321 -0.37004477,
                          -0.20634255 -0.22999072 -0.95106637,
                          0.16781794 -0.46473983 0.86939865,
                          0.98176277 -0.17685676 0.069740519,
                          -0.99238831 0.01253754 0.12250817,
                          0.056554954 -0.22369508 -0.97301704,
                          -0.053742558 -0.46429712 0.88404745,
                          0.84155911 0.1010268 0.53063363,
                          -0.20830834 0.96898812 0.1329273,
                          -0.67048615 -0.59589934 0.44198689,
                          0.090633012 -0.84094691 0.53347361,
                          -0.042769104 0.99687845 0.066364326,
                          -0.05954662 -0.83855391 0.54155475,
                          0.87000853 -0.306207 0.38642293,
                          -0.91283393 -0.015724942 0.40802833,
                          0.99494928 -0.099858433 -0.010215854,
                          -2.3699602e-006 1 2.0348773e-006,
                          -0.86650693 -0.49748626 -0.040904146,
                          0.21492651 -0.97606182 0.033316322,
                          -0.082175046 -0.99526685 0.051877052,
                          0.98748159 -0.1458503 -0.060065228,
                          -0.99783713 -0.055906687 -0.034576405,
                          -0.90259433 -0.19959454 -0.38142592,
                          -0.98079163 -0.18173508 0.07085418,
                          0.84310305 -0.48323256 -0.23593149,
                          -0.13263756 -0.39392859 -0.90952063,
                          0.095006362 -0.63409013 0.7674005,
                          0.79496682 -0.58435214 0.16297373,
                          0.07028985 -0.39105734 -0.91767842,
                          -0.057083957 -0.63259476 0.77237654,
                          -0.86739278 -0.31361461 0.38636205,
                          0.67528099 -0.59134948 0.44079643,
                          -0.98773712 -0.14593692 -0.055478714,
                          0.8663888 -0.49734417 -0.044935875,
                          0.92033732 -0.12501045 -0.37060994,
                          -0.1946228 -0.24153273 -0.95067561,
                          0.21642418 -0.23815681 0.94680613,
                          0.99238175 0.013660672 0.12244155,
                          0.04247376 -0.23691295 -0.97060204,
                          -0.057297163 -0.25462705 0.96534044,
                          -0.94033688 -0.15791677 -0.30137837,
                          -0.97863865 0.0089268936 0.20539404,
                          0.91279989 -0.01380298 0.40817374,
                          -0.83678323 0.106459 0.53708512,
                          0.9978025 -0.055905588 -0.035564948,
                          -0.99494994 -0.099859044 -0.010148822,
                          0.090984866 -0.96690857 -0.23834775,
                          0.043667316 -0.096587084 0.99436617,
                          0.071467251 -0.9169479 0.39255458,
                          2.3471462e-006 0.98737353 -0.15840954,
                          0.22549418 -0.28193781 -0.93255746,
                          0.060944982 -0.45508993 0.88835752,
                          0.19475672 -0.24155968 -0.95064133,
                          0.059348162 -0.83864772 0.54143137,
                          0.1825702 0.98025078 0.076003708,
                          0.082174659 -0.99529153 0.05140261,
                          2.3699545e-006 1 -5.1239893e-012,
                          0.059262589 -0.62985259 0.7744506,
                          0.20471576 -0.3273772 -0.92245096,
                          0.054973941 -0.25034034 0.96659589,
                          0.18416829 -0.25099224 -0.95030785,
                          -0.042313173 -0.25266504 -0.96662819,
                          -0.22629827 -0.96115744 -0.15800497,
                          -0.22091857 -0.054378182 0.97377521,
                          -0.16637954 -0.91756105 0.36110884,
                          -0.067736499 -0.2123041 -0.97485322,
                          -0.18332633 -0.4495174 0.87425721,
                          -0.027391441 0.99741703 0.066400185,
                          -0.090980999 -0.84072661 0.53376156,
                          -0.21490939 -0.97600651 0.035005081,
                          -0.068242893 -0.39279523 -0.91709042,
                          -0.1535801 -0.57942498 0.80042481,
                          -0.056520235 -0.22306342 -0.97316408,
                          -0.19920161 -0.22676872 0.95335966 ]

                    }
                    coordIndex [ 0, 1, 2, -1, 3, 4, 5, -1,
                        6, 7, 8, -1, 9, 10, 11, -1,
                        12, 5, 4, -1, 13, 14, 15, -1,
                        16, 17, 18, -1, 19, 20, 21, -1,
                        22, 23, 24, -1, 25, 26, 27, -1,
                        28, 29, 30, -1, 31, 32, 33, -1,
                        34, 35, 30, -1, 36, 37, 38, -1,
                        39, 40, 41, -1, 42, 43, 44, -1,
                        45, 46, 47, -1, 48, 12, 49, -1,
                        7, 49, 50, -1, 51, 52, 53, -1,
                        54, 55, 56, -1, 57, 58, 59, -1,
                        60, 61, 62, -1, 63, 64, 65, -1,
                        14, 16, 66, -1, 67, 21, 68, -1,
                        69, 24, 70, -1, 25, 71, 72, -1,
                        73, 39, 74, -1, 75, 76, 44, -1,
                        51, 54, 77, -1, 78, 59, 79, -1,
                        80, 2, 18, -1, 19, 3, 81, -1,
                        6, 82, 23, -1, 26, 9, 83, -1,
                        28, 84, 41, -1, 85, 33, 43, -1,
                        86, 47, 56, -1, 57, 48, 87, -1,
                        87, 49, 7, -1, 58, 22, 69, -1,
                        11, 45, 86, -1, 8, 7, 88, -1,
                        72, 51, 89, -1, 71, 27, 55, -1,
                        10, 32, 61, -1, 75, 90, 64, -1,
                        59, 69, 91, -1, 72, 71, 54, -1,
                        58, 87, 6, -1, 27, 83, 86, -1,
                        46, 0, 80, -1, 49, 12, 92, -1,
                        53, 52, 14, -1, 77, 56, 17, -1,
                        93, 62, 35, -1, 65, 36, 94, -1,
                        81, 5, 12, -1, 20, 57, 78, -1,
                        52, 77, 16, -1, 21, 78, 95, -1,
                        47, 80, 17, -1, 20, 81, 48, -1,
                        33, 32, 10, -1, 36, 13, 73, -1,
                        44, 43, 26, -1, 1, 29, 28, -1,
                        0, 34, 29, -1, 66, 18, 40, -1,
                        89, 53, 65, -1, 45, 60, 93, -1,
                        44, 25, 96, -1, 15, 66, 39, -1,
                        43, 33, 9, -1, 2, 28, 40, -1,
                        96, 89, 64, -1, 11, 10, 60, -1,
                        65, 53, 13, -1, 46, 93, 34, -1,
                        30, 4, 3, -1, 92, 4, 30, -1,
                        41, 19, 67, -1, 8, 31, 85, -1,
                        94, 38, 68, -1, 23, 42, 76, -1,
                        88, 50, 62, -1, 91, 63, 97, -1,
                        74, 67, 38, -1, 70, 24, 76, -1,
                        84, 3, 19, -1, 82, 85, 42, -1,
                        31, 88, 61, -1, 70, 75, 63, -1,
                        50, 92, 35, -1, 97, 94, 95, -1,
                        80, 0, 2, -1, 81, 3, 5, -1,
                        82, 6, 8, -1, 83, 9, 11, -1,
                        92, 12, 4, -1, 73, 13, 15, -1,
                        66, 16, 18, -1, 67, 19, 21, -1,
                        69, 22, 24, -1, 71, 25, 27, -1,
                        84, 28, 30, -1, 85, 31, 33, -1,
                        29, 34, 30, -1, 94, 36, 38, -1,
                        74, 39, 41, -1, 76, 42, 44, -1,
                        86, 45, 47, -1, 87, 48, 49, -1,
                        88, 7, 50, -1, 89, 51, 53, -1,
                        77, 54, 56, -1, 78, 57, 59, -1,
                        93, 60, 62, -1, 97, 63, 65, -1,
                        15, 14, 66, -1, 38, 67, 68, -1,
                        91, 69, 70, -1, 96, 25, 72, -1,
                        37, 73, 74, -1, 90, 75, 44, -1,
                        52, 51, 77, -1, 95, 78, 79, -1,
                        17, 80, 18, -1, 20, 19, 81, -1,
                        22, 6, 23, -1, 27, 26, 83, -1,
                        40, 28, 41, -1, 42, 85, 43, -1,
                        55, 86, 56, -1, 58, 57, 87, -1,
                        6, 87, 7, -1, 59, 58, 69, -1,
                        83, 11, 86, -1, 31, 8, 88, -1,
                        96, 72, 89, -1, 54, 71, 55, -1,
                        60, 10, 61, -1, 63, 75, 64, -1,
                        79, 59, 91, -1, 51, 72, 54, -1,
                        22, 58, 6, -1, 55, 27, 86, -1,
                        47, 46, 80, -1, 50, 49, 92, -1,
                        13, 53, 14, -1, 16, 77, 17, -1,
                        34, 93, 35, -1, 97, 65, 94, -1,
                        48, 81, 12, -1, 21, 20, 78, -1,
                        14, 52, 16, -1, 68, 21, 95, -1,
                        56, 47, 17, -1, 57, 20, 48, -1,
                        9, 33, 10, -1, 37, 36, 73, -1,
                        25, 44, 26, -1, 2, 1, 28, -1,
                        1, 0, 29, -1, 39, 66, 40, -1,
                        64, 89, 65, -1, 46, 45, 93, -1,
                        90, 44, 96, -1, 73, 15, 39, -1,
                        26, 43, 9, -1, 18, 2, 40, -1,
                        90, 96, 64, -1, 45, 11, 60, -1,
                        36, 65, 13, -1, 0, 46, 34, -1,
                        84, 30, 3, -1, 35, 92, 30, -1,
                        74, 41, 67, -1, 82, 8, 85, -1,
                        95, 94, 68, -1, 24, 23, 76, -1,
                        61, 88, 62, -1, 79, 91, 97, -1,
                        37, 74, 38, -1, 75, 70, 76, -1,
                        41, 84, 19, -1, 23, 82, 42, -1,
                        32, 31, 61, -1, 91, 70, 63, -1,
                        62, 50, 35, -1, 79, 97, 95, -1 ]
                    normalIndex [ 0, 0, 0, -1, 1, 1, 1, -1,
                        2, 2, 2, -1, 3, 3, 3, -1,
                        4, 4, 4, -1, 5, 5, 5, -1,
                        6, 6, 6, -1, 7, 7, 7, -1,
                        8, 8, 8, -1, 9, 9, 9, -1,
                        10, 10, 10, -1, 11, 11, 11, -1,
                        12, 12, 12, -1, 13, 13, 13, -1,
                        14, 14, 14, -1, 15, 15, 15, -1,
                        16, 16, 16, -1, 17, 17, 17, -1,
                        18, 18, 18, -1, 19, 19, 19, -1,
                        20, 20, 20, -1, 21, 21, 21, -1,
                        22, 22, 22, -1, 23, 23, 23, -1,
                        24, 24, 24, -1, 25, 25, 25, -1,
                        26, 26, 26, -1, 27, 27, 27, -1,
                        28, 28, 28, -1, 29, 29, 29, -1,
                        30, 30, 30, -1, 31, 31, 31, -1,
                        32, 32, 32, -1, 7, 33, 33, -1,
                        34, 34, 34, -1, 35, 35, 35, -1,
                        10, 36, 36, -1, 37, 37, 37, -1,
                        38, 38, 38, -1, 39, 39, 39, -1,
                        40, 40, 40, -1, 41, 41, 41, -1,
                        42, 42, 42, -1, 43, 43, 43, -1,
                        44, 44, 44, -1, 45, 45, 45, -1,
                        46, 46, 46, -1, 47, 47, 47, -1,
                        48, 48, 48, -1, 49, 49, 49, -1,
                        50, 50, 50, -1, 51, 51, 51, -1,
                        52, 52, 52, -1, 53, 53, 53, -1,
                        54, 54, 54, -1, 55, 55, 55, -1,
                        56, 56, 56, -1, 57, 57, 57, -1,
                        58, 58, 58, -1, 59, 59, 59, -1,
                        60, 60, 60, -1, 61, 61, 61, -1,
                        62, 62, 62, -1, 63, 63, 63, -1,
                        64, 64, 64, -1, 65, 65, 65, -1,
                        66, 66, 66, -1, 67, 67, 67, -1,
                        68, 68, 68, -1, 69, 69, 69, -1,
                        70, 70, 70, -1, 71, 71, 71, -1,
                        72, 72, 72, -1, 73, 73, 73, -1,
                        74, 74, 74, -1, 75, 10, 75, -1,
                        76, 76, 76, -1, 77, 77, 77, -1,
                        78, 78, 78, -1, 79, 79, 79, -1,
                        10, 10, 33, -1, 80, 80, 80, -1,
                        81, 7, 81, -1, 82, 82, 82, -1,
                        83, 83, 83, -1, 84, 84, 84, -1,
                        85, 85, 85, -1, 86, 86, 86, -1,
                        87, 87, 87, -1, 88, 88, 88, -1,
                        36, 33, 7, -1, 89, 89, 89, -1,
                        90, 90, 90, -1, 91, 91, 91, -1,
                        92, 92, 92, -1, 93, 93, 93, -1,
                        94, 94, 94, -1, 95, 95, 95, -1,
                        96, 96, 96, -1, 97, 97, 97, -1,
                        98, 98, 98, -1, 99, 99, 99, -1,
                        100, 100, 100, -1, 101, 7, 101, -1,
                        102, 102, 102, -1, 103, 103, 103, -1,
                        36, 10, 10, -1, 104, 104, 104, -1,
                        80, 80, 80, -1, 105, 105, 105, -1,
                        33, 14, 81, -1, 106, 106, 106, -1,
                        107, 107, 107, -1, 108, 108, 108, -1,
                        109, 109, 109, -1, 110, 110, 110, -1,
                        111, 111, 111, -1, 112, 112, 112, -1,
                        113, 113, 113, -1, 114, 114, 114, -1,
                        115, 115, 115, -1, 116, 116, 116, -1,
                        117, 117, 117, -1, 118, 118, 118, -1,
                        119, 119, 119, -1, 120, 120, 120, -1,
                        121, 121, 121, -1, 122, 122, 122, -1,
                        123, 123, 123, -1, 124, 7, 124, -1,
                        125, 125, 125, -1, 126, 126, 126, -1,
                        36, 10, 81, -1, 127, 127, 127, -1,
                        128, 128, 128, -1, 129, 129, 129, -1,
                        130, 130, 130, -1, 131, 131, 131, -1,
                        132, 132, 132, -1, 133, 133, 133, -1,
                        134, 134, 134, -1, 135, 135, 135, -1,
                        136, 136, 136, -1, 137, 137, 137, -1,
                        138, 138, 138, -1, 139, 139, 139, -1,
                        140, 140, 140, -1, 141, 141, 141, -1,
                        142, 142, 142, -1, 143, 143, 143, -1,
                        144, 144, 144, -1, 145, 145, 145, -1,
                        146, 146, 146, -1, 147, 147, 147, -1,
                        148, 148, 148, -1, 149, 149, 149, -1,
                        150, 150, 150, -1, 151, 151, 151, -1,
                        152, 152, 152, -1, 153, 153, 153, -1,
                        154, 154, 154, -1, 155, 155, 155, -1,
                        156, 156, 156, -1, 157, 157, 157, -1,
                        158, 158, 158, -1, 14, 69, 36, -1,
                        159, 159, 159, -1, 79, 160, 160, -1,
                        161, 161, 161, -1, 162, 162, 162, -1,
                        163, 163, 163, -1, 164, 75, 36, -1,
                        165, 165, 165, -1, 166, 166, 166, -1,
                        167, 167, 167, -1, 168, 168, 168, -1,
                        36, 10, 33, -1, 169, 169, 169, -1,
                        33, 81, 101, -1, 170, 170, 170, -1,
                        171, 171, 171, -1, 172, 172, 172, -1,
                        173, 173, 173, -1, 174, 174, 174, -1,
                        175, 175, 175, -1, 176, 176, 176, -1,
                        81, 36, 7, -1, 177, 177, 177, -1,
                        178, 178, 178, -1, 179, 179, 179, -1,
                        180, 180, 180, -1, 181, 181, 181, -1 ]
                    ccw TRUE
                    solid FALSE
                    convex TRUE
                    creaseAngle 0

                  }

                }

            }

        }

    }

}
