#VRML V2.0 utf8

Header_Info{
vendor "Parametric Technology Corporation"
product "Creo Parametric"
version "2"
}

DEF V_Model Anchor {
  url ""
  description "sw_2_5.prt"
children [
Node_Info {
node_type "V_Model"
node_name "sw_2_5.prt"
}
DEF NO_NAME Viewpoint {
description "NO_NAME"
position 0.141841 -0.045275 0.010475
orientation 0 1 0 1.5708
fieldOfView 1.56959
}

Model_Info {
proe_id 2
proe_type_s "Proe_Part"
proe_name "SW_2_5"
maj_rev -5
min_rev  -5
rev_num 303
rev_num_cosm 27
inst_type_s "Inst_Type_Main"
generic_name ""
s_factor 39.3701
}

DEF Rep_0 Group {
 children [
Node_Info {
node_type "Rep"
node_name "Rep_0"
}
DEF Geom_0 Group {
children [
Node_Info {
node_type "Geom"
node_name "Geom_0"
}
Geom_Type {
geom_type_s "T_Polygons"
trg_qual 10
}

DEF Poly_Geom_Data Group {
children [
Node_Info {
node_type "Poly_Geom_Data"
node_name ""
}
DEF myShape_80 Group {
children [
Node_Info {
node_type "Poly_Surface"
node_name "Poly_Surf_80"
}
Shape {
geometry IndexedFaceSet {
ccw  TRUE
solid  TRUE
convex TRUE
coord DEF FaceC Coordinate {
point  [
0.00072168 0.00125 0,
-0.00072168 0.00125 0,
-0.00144337 0 0,
-0.00072168 -0.00125 0,
0.00072168 -0.00125 0,
0.00144337 0 0,
0.00072168 0.00125 0.0167,
-0.00072168 0.00125 0.0167,
-0.00144337 0 0.0167,
-0.00072168 -0.00125 0.0167,
0.00072168 -0.00125 0.0167,
0.00144337 0 0.0167,
0.00072168 0.00121364 0.01725473,
0.00072168 0.00110518 0.01779998,
0.00072168 0.00092648 0.0183264,
0.00072168 0.0006806 0.018825,
0.00072168 0.00037175 0.01928723,
0.00072168 5.2e-06 0.0197052,
0.00072168 -0.00041276 0.02007175,
0.00072168 -0.000875 0.0203806,
0.00072168 -0.00137359 0.02062648,
0.00072168 -0.00190001 0.02080518,
0.00072168 -0.00244526 0.02091364,
0.00072168 -0.003 0.02095,
-0.00072168 -0.003 0.02095,
-0.00072168 -0.00244526 0.02091364,
-0.00072168 -0.00190001 0.02080518,
-0.00072168 -0.00137359 0.02062648,
-0.00072168 -0.000875 0.0203806,
-0.00072168 -0.00041276 0.02007175,
-0.00072168 5.2e-06 0.0197052,
-0.00072168 0.00037175 0.01928723,
-0.00072168 0.0006806 0.018825,
-0.00072168 0.00092648 0.0183264,
-0.00072168 0.00110518 0.01779998,
-0.00072168 0.00121364 0.01725473,
-0.00144337 -0.003 0.0197,
-0.00144337 -0.00260842 0.01967433,
-0.00144337 -0.00222354 0.01959777,
-0.00144337 -0.00185194 0.01947163,
-0.00144337 -0.0015 0.01929807,
-0.00144337 -0.00117371 0.01908006,
-0.00144337 -0.00087867 0.01882131,
-0.00144337 -0.00061993 0.01852628,
-0.00144337 -0.00040192 0.0182,
-0.00144337 -0.00022836 0.01784805,
-0.00144337 -0.00010222 0.01747645,
-0.00144337 -2.566e-05 0.01709157,
-0.00072168 -0.003 0.01845,
-0.00072168 -0.00272623 0.01842845,
-0.00072168 -0.00245922 0.01836434,
-0.00072168 -0.00220551 0.01825926,
-0.00072168 -0.00197137 0.01811577,
-0.00072168 -0.00176256 0.01793743,
-0.00072168 -0.00158422 0.01772862,
-0.00072168 -0.00144073 0.01749448,
-0.00072168 -0.00133565 0.01724077,
-0.00072168 -0.00127154 0.01697376,
0.00072168 -0.003 0.01845,
0.00072168 -0.00272623 0.01842845,
0.00072168 -0.00245922 0.01836434,
0.00072168 -0.00220551 0.01825926,
0.00072168 -0.00197137 0.01811577,
0.00072168 -0.00176256 0.01793743,
0.00072168 -0.00158422 0.01772862,
0.00072168 -0.00144073 0.01749448,
0.00072168 -0.00133565 0.01724077,
0.00072168 -0.00127154 0.01697376,
0.00144337 -0.003 0.0197,
0.00144337 -0.00260842 0.01967433,
0.00144337 -0.00222354 0.01959777,
0.00144337 -0.00185194 0.01947163,
0.00144337 -0.0015 0.01929807,
0.00144337 -0.00117371 0.01908006,
0.00144337 -0.00087867 0.01882131,
0.00144337 -0.00061993 0.01852628,
0.00144337 -0.00040192 0.0182,
0.00144337 -0.00022836 0.01784805,
0.00144337 -0.00010222 0.01747645,
0.00144337 -2.566e-05 0.01709157,
0.00072168 -0.0918 0.02095,
0.00144337 -0.0918 0.0197,
0.00072168 -0.0918 0.01845,
-0.00072168 -0.0918 0.01845,
-0.00144337 -0.0918 0.0197,
-0.00072168 -0.0918 0.02095,
]}
normal DEF FaceN Normal {
vector  [
0 0 -1,
0 1 0,
-0.866 0.5 0,
-0.866 -0.5 0,
0 -1 0,
0.866 -0.5 0,
0.866 0.5 0,
0 0.991 0.13,
0 0.965 0.258,
0 0.923 0.382,
0 0.866 0.5,
0 0.793 0.608,
0 0.707 0.707,
0 0.608 0.793,
0 0.5 0.866,
0 0.382 0.923,
0 0.258 0.965,
0 0.13 0.991,
0 0 1,
-0.866 0.495 0.065,
-0.866 0.482 0.129,
-0.866 0.461 0.191,
-0.866 0.433 0.25,
-0.866 0.396 0.304,
-0.866 0.353 0.353,
-0.866 0.304 0.396,
-0.866 0.25 0.433,
-0.866 0.191 0.461,
-0.866 0.129 0.482,
-0.866 0.065 0.495,
-0.866 0 0.5,
-0.866 -0.495 -0.065,
-0.866 -0.482 -0.129,
-0.866 -0.461 -0.191,
-0.866 -0.433 -0.25,
-0.866 -0.396 -0.304,
-0.866 -0.353 -0.353,
-0.866 -0.304 -0.396,
-0.866 -0.25 -0.433,
-0.866 -0.191 -0.461,
-0.866 -0.129 -0.482,
-0.866 -0.065 -0.495,
-0.866 0 -0.5,
-0.866 -0.078 -0.493,
-0.866 -0.154 -0.475,
-0.866 -0.226 -0.445,
-0.866 -0.293 -0.404,
-0.866 -0.404 -0.293,
-0.866 -0.445 -0.226,
-0.866 -0.475 -0.154,
-0.866 -0.493 -0.078,
0 -0.987 -0.156,
0 -0.951 -0.309,
0 -0.891 -0.453,
0 -0.809 -0.587,
0 -0.707 -0.707,
0 -0.587 -0.809,
0 -0.453 -0.891,
0 -0.309 -0.951,
0 -0.156 -0.987,
0.866 -0.493 -0.078,
0.866 -0.475 -0.154,
0.866 -0.445 -0.226,
0.866 -0.404 -0.293,
0.866 -0.353 -0.353,
0.866 -0.293 -0.404,
0.866 -0.226 -0.445,
0.866 -0.154 -0.475,
0.866 -0.078 -0.493,
0.866 0 -0.5,
0.866 -0.065 -0.495,
0.866 -0.129 -0.482,
0.866 -0.191 -0.461,
0.866 -0.25 -0.433,
0.866 -0.304 -0.396,
0.866 -0.396 -0.304,
0.866 -0.433 -0.25,
0.866 -0.461 -0.191,
0.866 -0.482 -0.129,
0.866 -0.495 -0.065,
0.866 0.495 0.065,
0.866 0.482 0.129,
0.866 0.461 0.191,
0.866 0.433 0.25,
0.866 0.396 0.304,
0.866 0.353 0.353,
0.866 0.304 0.396,
0.866 0.25 0.433,
0.866 0.191 0.461,
0.866 0.129 0.482,
0.866 0.065 0.495,
0.866 0 0.5,
]}
normalPerVertex TRUE
coordIndex [
3, 2, 1, -1,1, 0, 3, -1,4, 3, 0, -1,
0, 5, 4, -1,
]
normalIndex [
0, 0, 0, -1,0, 0, 0, -1,0, 0, 0, -1,
0, 0, 0, -1,
]
}

}

]
}

DEF myShape_94 Group {
children [
Node_Info {
node_type "Poly_Surface"
node_name "Poly_Surf_94"
}
Shape {
geometry IndexedFaceSet {
ccw  TRUE
solid  TRUE
convex TRUE
coord USE FaceC 

normal USE FaceN 

normalPerVertex TRUE
coordIndex [
6, 0, 7, -1,1, 7, 0, -1,
]
normalIndex [
1, 1, 1, -1,1, 1, 1, -1,
]
}

}

]
}

DEF myShape_96 Group {
children [
Node_Info {
node_type "Poly_Surface"
node_name "Poly_Surf_96"
}
Shape {
geometry IndexedFaceSet {
ccw  TRUE
solid  TRUE
convex TRUE
coord USE FaceC 

normal USE FaceN 

normalPerVertex TRUE
coordIndex [
7, 1, 8, -1,2, 8, 1, -1,
]
normalIndex [
2, 2, 2, -1,2, 2, 2, -1,
]
}

}

]
}

DEF myShape_98 Group {
children [
Node_Info {
node_type "Poly_Surface"
node_name "Poly_Surf_98"
}
Shape {
geometry IndexedFaceSet {
ccw  TRUE
solid  TRUE
convex TRUE
coord USE FaceC 

normal USE FaceN 

normalPerVertex TRUE
coordIndex [
8, 2, 9, -1,3, 9, 2, -1,
]
normalIndex [
3, 3, 3, -1,3, 3, 3, -1,
]
}

}

]
}

DEF myShape_100 Group {
children [
Node_Info {
node_type "Poly_Surface"
node_name "Poly_Surf_100"
}
Shape {
geometry IndexedFaceSet {
ccw  TRUE
solid  TRUE
convex TRUE
coord USE FaceC 

normal USE FaceN 

normalPerVertex TRUE
coordIndex [
9, 3, 10, -1,4, 10, 3, -1,
]
normalIndex [
4, 4, 4, -1,4, 4, 4, -1,
]
}

}

]
}

DEF myShape_102 Group {
children [
Node_Info {
node_type "Poly_Surface"
node_name "Poly_Surf_102"
}
Shape {
geometry IndexedFaceSet {
ccw  TRUE
solid  TRUE
convex TRUE
coord USE FaceC 

normal USE FaceN 

normalPerVertex TRUE
coordIndex [
10, 4, 11, -1,5, 11, 4, -1,
]
normalIndex [
5, 5, 5, -1,5, 5, 5, -1,
]
}

}

]
}

DEF myShape_104 Group {
children [
Node_Info {
node_type "Poly_Surface"
node_name "Poly_Surf_104"
}
Shape {
geometry IndexedFaceSet {
ccw  TRUE
solid  TRUE
convex TRUE
coord USE FaceC 

normal USE FaceN 

normalPerVertex TRUE
coordIndex [
11, 5, 6, -1,0, 6, 5, -1,
]
normalIndex [
6, 6, 6, -1,6, 6, 6, -1,
]
}

}

]
}

DEF myShape_120 Group {
children [
Node_Info {
node_type "Poly_Surface"
node_name "Poly_Surf_120"
}
Shape {
geometry IndexedFaceSet {
ccw  TRUE
solid  TRUE
convex TRUE
coord USE FaceC 

normal USE FaceN 

normalPerVertex TRUE
coordIndex [
23, 22, 24, -1,25, 24, 22, -1,22, 21, 25, -1,
26, 25, 21, -1,21, 20, 26, -1,27, 26, 20, -1,
20, 19, 27, -1,28, 27, 19, -1,19, 18, 28, -1,
29, 28, 18, -1,18, 17, 29, -1,30, 29, 17, -1,
17, 16, 30, -1,31, 30, 16, -1,16, 15, 31, -1,
32, 31, 15, -1,15, 14, 32, -1,33, 32, 14, -1,
14, 13, 33, -1,34, 33, 13, -1,13, 12, 34, -1,
35, 34, 12, -1,12, 6, 35, -1,7, 35, 6, -1,

]
normalIndex [
18, 17, 18, -1,17, 18, 17, -1,17, 16, 17, -1,
16, 17, 16, -1,16, 15, 16, -1,15, 16, 15, -1,
15, 14, 15, -1,14, 15, 14, -1,14, 13, 14, -1,
13, 14, 13, -1,13, 12, 13, -1,12, 13, 12, -1,
12, 11, 12, -1,11, 12, 11, -1,11, 10, 11, -1,
10, 11, 10, -1,10, 9, 10, -1,9, 10, 9, -1,
9, 8, 9, -1,8, 9, 8, -1,8, 7, 8, -1,
7, 8, 7, -1,7, 1, 7, -1,1, 7, 1, -1,

]
}

}

]
}

DEF myShape_122 Group {
children [
Node_Info {
node_type "Poly_Surface"
node_name "Poly_Surf_122"
}
Shape {
geometry IndexedFaceSet {
ccw  TRUE
solid  TRUE
convex TRUE
coord USE FaceC 

normal USE FaceN 

normalPerVertex TRUE
coordIndex [
24, 25, 36, -1,37, 36, 25, -1,25, 26, 37, -1,
38, 37, 26, -1,26, 27, 38, -1,39, 38, 27, -1,
27, 28, 39, -1,40, 39, 28, -1,28, 29, 40, -1,
41, 40, 29, -1,29, 30, 41, -1,42, 41, 30, -1,
30, 31, 42, -1,43, 42, 31, -1,31, 32, 43, -1,
44, 43, 32, -1,32, 33, 44, -1,45, 44, 33, -1,
33, 34, 45, -1,46, 45, 34, -1,34, 35, 46, -1,
47, 46, 35, -1,35, 7, 47, -1,8, 47, 7, -1,

]
normalIndex [
30, 29, 30, -1,29, 30, 29, -1,29, 28, 29, -1,
28, 29, 28, -1,28, 27, 28, -1,27, 28, 27, -1,
27, 26, 27, -1,26, 27, 26, -1,26, 25, 26, -1,
25, 26, 25, -1,25, 24, 25, -1,24, 25, 24, -1,
24, 23, 24, -1,23, 24, 23, -1,23, 22, 23, -1,
22, 23, 22, -1,22, 21, 22, -1,21, 22, 21, -1,
21, 20, 21, -1,20, 21, 20, -1,20, 19, 20, -1,
19, 20, 19, -1,19, 2, 19, -1,2, 19, 2, -1,

]
}

}

]
}

DEF myShape_124 Group {
children [
Node_Info {
node_type "Poly_Surface"
node_name "Poly_Surf_124"
}
Shape {
geometry IndexedFaceSet {
ccw  TRUE
solid  TRUE
convex TRUE
coord USE FaceC 

normal USE FaceN 

normalPerVertex TRUE
coordIndex [
36, 37, 48, -1,49, 48, 37, -1,37, 38, 49, -1,
50, 49, 38, -1,38, 39, 50, -1,51, 50, 39, -1,
39, 40, 51, -1,52, 51, 40, -1,40, 41, 52, -1,
52, 41, 42, -1,53, 52, 42, -1,42, 43, 53, -1,
54, 53, 43, -1,43, 44, 54, -1,55, 54, 44, -1,
44, 45, 55, -1,56, 55, 45, -1,45, 46, 56, -1,
57, 56, 46, -1,46, 47, 57, -1,57, 47, 8, -1,
9, 57, 8, -1,
]
normalIndex [
42, 41, 42, -1,43, 42, 41, -1,41, 40, 43, -1,
44, 43, 40, -1,40, 39, 44, -1,45, 44, 39, -1,
39, 38, 45, -1,46, 45, 38, -1,38, 37, 46, -1,
46, 37, 36, -1,36, 46, 36, -1,36, 35, 36, -1,
47, 36, 35, -1,35, 34, 47, -1,48, 47, 34, -1,
34, 33, 48, -1,49, 48, 33, -1,33, 32, 49, -1,
50, 49, 32, -1,32, 31, 50, -1,50, 31, 3, -1,
3, 50, 3, -1,
]
}

}

]
}

DEF myShape_126 Group {
children [
Node_Info {
node_type "Poly_Surface"
node_name "Poly_Surf_126"
}
Shape {
geometry IndexedFaceSet {
ccw  TRUE
solid  TRUE
convex TRUE
coord USE FaceC 

normal USE FaceN 

normalPerVertex TRUE
coordIndex [
48, 49, 58, -1,59, 58, 49, -1,49, 50, 59, -1,
60, 59, 50, -1,50, 51, 60, -1,61, 60, 51, -1,
51, 52, 61, -1,62, 61, 52, -1,52, 53, 62, -1,
63, 62, 53, -1,53, 54, 63, -1,64, 63, 54, -1,
54, 55, 64, -1,65, 64, 55, -1,55, 56, 65, -1,
66, 65, 56, -1,56, 57, 66, -1,67, 66, 57, -1,
57, 9, 67, -1,10, 67, 9, -1,
]
normalIndex [
0, 59, 0, -1,59, 0, 59, -1,59, 58, 59, -1,
58, 59, 58, -1,58, 57, 58, -1,57, 58, 57, -1,
57, 56, 57, -1,56, 57, 56, -1,56, 55, 56, -1,
55, 56, 55, -1,55, 54, 55, -1,54, 55, 54, -1,
54, 53, 54, -1,53, 54, 53, -1,53, 52, 53, -1,
52, 53, 52, -1,52, 51, 52, -1,51, 52, 51, -1,
51, 4, 51, -1,4, 51, 4, -1,
]
}

}

]
}

DEF myShape_128 Group {
children [
Node_Info {
node_type "Poly_Surface"
node_name "Poly_Surf_128"
}
Shape {
geometry IndexedFaceSet {
ccw  TRUE
solid  TRUE
convex TRUE
coord USE FaceC 

normal USE FaceN 

normalPerVertex TRUE
coordIndex [
59, 69, 68, -1,58, 59, 68, -1,70, 69, 59, -1,
59, 60, 70, -1,71, 70, 60, -1,60, 61, 71, -1,
72, 71, 61, -1,61, 62, 72, -1,73, 72, 62, -1,
62, 63, 73, -1,74, 73, 63, -1,64, 75, 74, -1,
63, 64, 74, -1,76, 75, 64, -1,64, 65, 76, -1,
77, 76, 65, -1,65, 66, 77, -1,78, 77, 66, -1,
66, 67, 78, -1,79, 78, 67, -1,67, 10, 79, -1,
11, 79, 10, -1,
]
normalIndex [
68, 70, 69, -1,69, 68, 69, -1,71, 70, 68, -1,
68, 67, 71, -1,72, 71, 67, -1,67, 66, 72, -1,
73, 72, 66, -1,66, 65, 73, -1,74, 73, 65, -1,
65, 64, 74, -1,64, 74, 64, -1,63, 75, 64, -1,
64, 63, 64, -1,76, 75, 63, -1,63, 62, 76, -1,
77, 76, 62, -1,62, 61, 77, -1,78, 77, 61, -1,
61, 60, 78, -1,79, 78, 60, -1,60, 5, 79, -1,
5, 79, 5, -1,
]
}

}

]
}

DEF myShape_130 Group {
children [
Node_Info {
node_type "Poly_Surface"
node_name "Poly_Surf_130"
}
Shape {
geometry IndexedFaceSet {
ccw  TRUE
solid  TRUE
convex TRUE
coord USE FaceC 

normal USE FaceN 

normalPerVertex TRUE
coordIndex [
68, 69, 23, -1,22, 23, 69, -1,69, 70, 22, -1,
21, 22, 70, -1,70, 71, 21, -1,20, 21, 71, -1,
71, 72, 20, -1,19, 20, 72, -1,72, 73, 19, -1,
18, 19, 73, -1,73, 74, 18, -1,17, 18, 74, -1,
74, 75, 17, -1,16, 17, 75, -1,75, 76, 16, -1,
15, 16, 76, -1,76, 77, 15, -1,14, 15, 77, -1,
77, 78, 14, -1,13, 14, 78, -1,78, 79, 13, -1,
12, 13, 79, -1,79, 11, 12, -1,6, 12, 11, -1,

]
normalIndex [
91, 90, 91, -1,90, 91, 90, -1,90, 89, 90, -1,
89, 90, 89, -1,89, 88, 89, -1,88, 89, 88, -1,
88, 87, 88, -1,87, 88, 87, -1,87, 86, 87, -1,
86, 87, 86, -1,86, 85, 86, -1,85, 86, 85, -1,
85, 84, 85, -1,84, 85, 84, -1,84, 83, 84, -1,
83, 84, 83, -1,83, 82, 83, -1,82, 83, 82, -1,
82, 81, 82, -1,81, 82, 81, -1,81, 80, 81, -1,
80, 81, 80, -1,80, 6, 80, -1,6, 80, 6, -1,

]
}

}

]
}

DEF myShape_139 Group {
children [
Node_Info {
node_type "Poly_Surface"
node_name "Poly_Surf_139"
}
Shape {
geometry IndexedFaceSet {
ccw  TRUE
solid  TRUE
convex TRUE
coord USE FaceC 

normal USE FaceN 

normalPerVertex TRUE
coordIndex [
82, 81, 80, -1,80, 85, 82, -1,83, 82, 85, -1,
85, 84, 83, -1,
]
normalIndex [
4, 4, 4, -1,4, 4, 4, -1,4, 4, 4, -1,
4, 4, 4, -1,
]
}

}

]
}

DEF myShape_146 Group {
children [
Node_Info {
node_type "Poly_Surface"
node_name "Poly_Surf_146"
}
Shape {
geometry IndexedFaceSet {
ccw  TRUE
solid  TRUE
convex TRUE
coord USE FaceC 

normal USE FaceN 

normalPerVertex TRUE
coordIndex [
80, 23, 85, -1,24, 85, 23, -1,
]
normalIndex [
18, 18, 18, -1,18, 18, 18, -1,
]
}

}

]
}

DEF myShape_148 Group {
children [
Node_Info {
node_type "Poly_Surface"
node_name "Poly_Surf_148"
}
Shape {
geometry IndexedFaceSet {
ccw  TRUE
solid  TRUE
convex TRUE
coord USE FaceC 

normal USE FaceN 

normalPerVertex TRUE
coordIndex [
85, 24, 84, -1,36, 84, 24, -1,
]
normalIndex [
30, 30, 30, -1,30, 30, 30, -1,
]
}

}

]
}

DEF myShape_150 Group {
children [
Node_Info {
node_type "Poly_Surface"
node_name "Poly_Surf_150"
}
Shape {
geometry IndexedFaceSet {
ccw  TRUE
solid  TRUE
convex TRUE
coord USE FaceC 

normal USE FaceN 

normalPerVertex TRUE
coordIndex [
84, 36, 83, -1,48, 83, 36, -1,
]
normalIndex [
42, 42, 42, -1,42, 42, 42, -1,
]
}

}

]
}

DEF myShape_152 Group {
children [
Node_Info {
node_type "Poly_Surface"
node_name "Poly_Surf_152"
}
Shape {
geometry IndexedFaceSet {
ccw  TRUE
solid  TRUE
convex TRUE
coord USE FaceC 

normal USE FaceN 

normalPerVertex TRUE
coordIndex [
83, 48, 82, -1,58, 82, 48, -1,
]
normalIndex [
0, 0, 0, -1,0, 0, 0, -1,
]
}

}

]
}

DEF myShape_154 Group {
children [
Node_Info {
node_type "Poly_Surface"
node_name "Poly_Surf_154"
}
Shape {
geometry IndexedFaceSet {
ccw  TRUE
solid  TRUE
convex TRUE
coord USE FaceC 

normal USE FaceN 

normalPerVertex TRUE
coordIndex [
82, 58, 81, -1,68, 81, 58, -1,
]
normalIndex [
69, 69, 69, -1,69, 69, 69, -1,
]
}

}

]
}

DEF myShape_156 Group {
children [
Node_Info {
node_type "Poly_Surface"
node_name "Poly_Surf_156"
}
Shape {
geometry IndexedFaceSet {
ccw  TRUE
solid  TRUE
convex TRUE
coord USE FaceC 

normal USE FaceN 

normalPerVertex TRUE
coordIndex [
81, 68, 80, -1,23, 80, 68, -1,
]
normalIndex [
91, 91, 91, -1,91, 91, 91, -1,
]
}

}

]
}

]
}

 ]
}
]
}

]
}

