#VRML V2.0 utf8


Group {
  children 
    Group {
      children [ 
        Group {
          children 
            Transform {
              translation -0 0 -0.34
              rotation 0 0 1  0
              scale 1 1 1
              scaleOrientation 0 0 1  0
              children 
                Transform {
                  translation 0 -0.0085992375 0.31400001
                  rotation 0 0 1  0
                  scale 1 1 1
                  scaleOrientation 0 0 1  0
                  children 
                    Shape {
                      appearance 
                      Appearance {
                        material 
                        Material {
                          diffuseColor 0.65864992 0.50308388 0.31538299

                        }

                      }
                      geometry 
                      IndexedFaceSet {
                        coord 
                        Coordinate {
                          point [ -0.016512871 -0.0072351689 0.006584167,
                              -0.01485681 -0.01049071 0.006584167,
                              -0.01550161 -0.006792068 0.0146234,
                              -0.017553089 -0.003709852 0.006584167,
                              -0.017456289 -0.0076485272 -0.001513481,
                              -0.015705639 -0.01109004 -0.001513481,
                              -0.01394695 -0.009848237 0.0146234,
                              -0.016478119 -0.0034826391 0.01462334,
                              -0.01855593 -0.0039218059 -0.001513481,
                              -0.01348972 -0.0059105749 0.02914482,
                              -0.01213681 -0.008570075 0.02914482,
                              -0.01292246 -0.005662024 0.030802481,
                              -0.0143395 -0.0030306571 0.02914482,
                              -0.0139898 -0.0061296821 0.026208751,
                              -0.01258683 -0.0088877669 0.02620863,
                              -0.01162648 -0.0082096448 0.030802481,
                              -0.01373648 -0.002903163 0.030802481,
                              -0.01487112 -0.0031430121 0.026208751,
                              -0.0068007698 -0.017377609 0.006584167,
                              -0.003437697 -0.01845067 0.006584167,
                              -0.006384253 -0.01631337 0.0146234,
                              -0.0099102249 -0.015656469 0.006584167,
                              -0.0071892729 -0.01837044 -0.001513481,
                              -0.003634095 -0.01950478 -0.001513481,
                              -0.003227174 -0.017320691 0.0146234,
                              -0.0093032708 -0.01469761 0.01462334,
                              -0.01047641 -0.016550951 -0.001513481,
                              -0.0055556889 -0.01419615 0.02914482,
                              -0.002808332 -0.0150727 0.02914482,
                              -0.0053220391 -0.01359915 0.03080254,
                              -0.0080958595 -0.01279008 0.02914482,
                              -0.0057616229 -0.01472246 0.026208751,
                              -0.0029124019 -0.015631551 0.02620863,
                              -0.002690196 -0.01443886 0.03080254,
                              -0.0077553978 -0.01225221 0.030802481,
                              -0.0083959689 -0.01326429 0.026208751,
                              0.006895124 -0.017340479 0.006584167,
                              0.0099951616 -0.01560246 0.006584167,
                              0.006472826 -0.0162785 0.0146234,
                              0.0035378931 -0.018431719 0.006584167,
                              0.007289052 -0.01833117 -0.001513481,
                              0.01056623 -0.016493911 -0.001513481,
                              0.0093830219 -0.01464694 0.0146234,
                              0.0033212299 -0.01730293 0.01462334,
                              0.003740072 -0.019484811 -0.001513481,
                              0.0056327581 -0.01416575 0.02914482,
                              0.0081652403 -0.01274597 0.02914482,
                              0.0053958888 -0.01357007 0.03080254,
                              0.0028901689 -0.01505726 0.02914482,
                              0.0058416119 -0.01469093 0.026208751,
                              0.0084679723 -0.01321852 0.02620863,
                              0.007821857 -0.01220995 0.03080254,
                              0.0027686351 -0.01442408 0.03080254,
                              0.0029973381 -0.01561552 0.026208751,
                              0.01655197 -0.007145464 0.006584167,
                              0.01757299 -0.0036145439 0.006584167,
                              0.01553827 -0.0067078471 0.0146234,
                              0.01491361 -0.01040995 0.006584167,
                              0.01749759 -0.0075536962 -0.001513481,
                              0.01857697 -0.003821074 -0.001513481,
                              0.01649677 -0.003393173 0.0146234,
                              0.01400029 -0.009772419 0.01462334,
                              0.01576566 -0.01100468 -0.001513481,
                              0.01352161 -0.0058372612 0.02914482,
                              0.01435577 -0.0029528141 0.02914482,
                              0.01295304 -0.0055918088 0.03080254,
                              0.01218324 -0.0085040918 0.02914482,
                              0.01402294 -0.0060536861 0.026208751,
                              0.01488798 -0.003062248 0.02620863,
                              0.01375204 -0.002828598 0.03080254,
                              0.01167088 -0.0081464639 0.03080254,
                              0.01263493 -0.0088193407 0.026208751,
                              0.016512871 0.0072351689 0.006584167,
                              0.01485681 0.01049071 0.006584167,
                              0.01550161 0.006792068 0.0146234,
                              0.017553089 0.003709852 0.006584167,
                              0.017456289 0.0076485272 -0.001513481,
                              0.015705639 0.01109004 -0.001513481,
                              0.01394695 0.009848237 0.0146234,
                              0.016478119 0.0034826391 0.01462334,
                              0.01855593 0.0039218059 -0.001513481,
                              0.01348972 0.0059105749 0.02914482,
                              0.01213681 0.008570075 0.02914482,
                              0.0129224 0.005662024 0.03080254,
                              0.0143395 0.0030306571 0.02914482,
                              0.0139898 0.0061296821 0.026208751,
                              0.01258677 0.0088877669 0.02620863,
                              0.01162642 0.0082096448 0.030802481,
                              0.01373648 0.002903223 0.03080254,
                              0.01487112 0.0031430121 0.026208751,
                              0.0068007698 0.017377609 0.006584167,
                              0.003437697 0.01845067 0.006584167,
                              0.006384253 0.01631337 0.0146234,
                              0.0099102249 0.015656469 0.006584167,
                              0.0071892729 0.01837044 -0.001513481,
                              0.003634095 0.01950478 -0.001513481,
                              0.003227114 0.017320691 0.0146234,
                              0.0093032708 0.01469767 0.01462334,
                              0.01047641 0.016550951 -0.001513481,
                              0.0055556889 0.01419615 0.02914482,
                              0.0028082719 0.01507276 0.02914482,
                              0.0053220391 0.01359915 0.030802481,
                              0.0080958595 0.01279008 0.02914482,
                              0.0057616229 0.01472246 0.026208751,
                              0.0029124019 0.015631551 0.02620863,
                              0.002690196 0.01443886 0.030802481,
                              0.0077553978 0.01225227 0.030802481,
                              0.0083959689 0.01326429 0.026208751,
                              -0.006895124 0.017340479 0.006584167,
                              -0.0099951616 0.01560246 0.006584167,
                              -0.006472826 0.0162785 0.0146234,
                              -0.0035378931 0.018431719 0.006584167,
                              -0.007289052 0.01833117 -0.001513481,
                              -0.01056623 0.016493911 -0.001513481,
                              -0.0093830219 0.01464694 0.0146234,
                              -0.0033212299 0.01730293 0.01462334,
                              -0.003740072 0.019484811 -0.001513481,
                              -0.0056327581 0.01416581 0.02914482,
                              -0.0081652403 0.01274597 0.02914482,
                              -0.0053958888 0.01357007 0.030802481,
                              -0.002890229 0.01505726 0.02914482,
                              -0.0058416119 0.01469099 0.026208751,
                              -0.0084679723 0.01321852 0.02620863,
                              -0.007821857 0.01221001 0.030802481,
                              -0.0027686351 0.01442408 0.030802481,
                              -0.0029973381 0.01561552 0.026208751,
                              -0.01655197 0.007145464 0.006584167,
                              -0.01757299 0.0036145439 0.006584167,
                              -0.01553827 0.0067078471 0.0146234,
                              -0.01491361 0.01040995 0.006584167,
                              -0.01749759 0.0075536962 -0.001513481,
                              -0.01857697 0.003821074 -0.001513481,
                              -0.01649677 0.003393173 0.0146234,
                              -0.01400029 0.009772419 0.01462334,
                              -0.01576566 0.01100468 -0.001513481,
                              -0.01352167 0.0058372612 0.02914482,
                              -0.01435577 0.0029528141 0.02914482,
                              -0.01295304 0.0055918088 0.030802481,
                              -0.01218324 0.0085040918 0.02914482,
                              -0.01402294 0.0060536861 0.026208751,
                              -0.01488798 0.003062248 0.02620863,
                              -0.01375204 0.002828598 0.030802481,
                              -0.01167088 0.0081464639 0.030802481,
                              -0.01263493 0.0088193407 0.026208751,
                              -0.019318691 0.0039736028 -0.008590281,
                              -0.01819622 0.0078552961 -0.008590281,
                              -0.01639515 0.01144403 -0.008590281,
                              -0.01098805 0.017152419 -0.008590281,
                              -0.007580101 0.01906305 -0.008590281,
                              -0.003889381 0.02026277 -0.008590281,
                              0.003779172 0.020283571 -0.008590281,
                              0.0074763289 0.019103941 -0.008590281,
                              0.01089465 0.017211789 -0.008590281,
                              0.01633268 0.01153284 -0.008590281,
                              0.01815325 0.0079539409 -0.008590281,
                              0.019296819 0.0040783882 -0.008590281,
                              0.019318691 -0.0039736028 -0.008590281,
                              0.01819622 -0.0078552961 -0.008590281,
                              0.01639515 -0.01144403 -0.008590281,
                              0.01098805 -0.017152419 -0.008590281,
                              0.007580101 -0.01906305 -0.008590281,
                              0.003889381 -0.02026277 -0.008590281,
                              -0.003779172 -0.020283571 -0.008590281,
                              -0.0074763289 -0.019103941 -0.008590281,
                              -0.01089465 -0.017211789 -0.008590281,
                              -0.019296819 -0.0040783882 -0.008590281,
                              -0.01815325 -0.0079539409 -0.008590281,
                              -0.01633268 -0.01153284 -0.008590281,
                              -0.0133602 -0.01410472 -0.001513481,
                              -0.01263815 -0.01334244 0.006584167,
                              -0.01186418 -0.01252532 0.01462334,
                              -0.0098901978 -0.01044136 0.030802481,
                              -0.01032435 -0.01089972 0.02914482,
                              -0.01070713 -0.01130378 0.026208751,
                              -0.018948309 -5.1409901e-005 -0.00151354,
                              -0.01792424 -4.8629499e-005 0.006584167,
                              -0.01682651 -4.56501e-005 0.0146234,
                              -0.01402693 -3.8050799e-005 0.030802481,
                              -0.01464265 -3.9722901e-005 0.02914482,
                              -0.01518553 -4.11949e-005 0.02620863,
                              5.4075299e-005 -0.019895731 -0.001513481,
                              5.1151699e-005 -0.018820461 0.006584167,
                              4.80177e-005 -0.017667821 0.01462334,
                              4.0026e-005 -0.01472824 0.03080254,
                              4.17835e-005 -0.01537477 0.02914482,
                              4.3333199e-005 -0.015944829 0.026208751,
                              0.01343667 -0.014032 -0.001513481,
                              0.01271051 -0.01327365 0.006584167,
                              0.01193207 -0.01246076 0.01462334,
                              0.0099468231 -0.01038753 0.03080254,
                              0.01038348 -0.01084351 0.02914482,
                              0.01076841 -0.01124554 0.026208751,
                              0.018948309 5.1407002e-005 -0.001513481,
                              0.01792424 4.8630201e-005 0.006584167,
                              0.01682651 4.5653302e-005 0.01462334,
                              0.01402693 3.8060101e-005 0.03080254,
                              0.01464265 3.9730399e-005 0.02914482,
                              0.01518553 4.1202798e-005 0.026208751,
                              0.0133602 0.01410472 -0.001513481,
                              0.01263815 0.01334244 0.006584167,
                              0.01186418 0.01252532 0.01462334,
                              0.0098901978 0.01044136 0.030802481,
                              0.01032435 0.01089972 0.02914482,
                              0.01070713 0.01130384 0.026208751,
                              -5.4074699e-005 0.019895731 -0.001513481,
                              -5.11535e-005 0.018820461 0.006584167,
                              -4.8022001e-005 0.017667821 0.01462334,
                              -4.0034702e-005 0.01472824 0.030802481,
                              -4.17919e-005 0.01537483 0.02914482,
                              -4.33407e-005 0.015944829 0.026208751,
                              -0.01343667 0.014032 -0.001513481,
                              -0.01271051 0.01327365 0.006584167,
                              -0.01193207 0.01246076 0.01462334,
                              -0.0099468231 0.01038753 0.030802481,
                              -0.01038348 0.01084351 0.02914482,
                              -0.01076841 0.01124554 0.026208751,
                              -0.01313674 -0.0092760921 0.02152466,
                              -0.01460105 -0.0063974848 0.021524779,
                              -0.01552081 -0.0032803409 0.021524779,
                              -0.0087628365 -0.01384377 0.021524779,
                              -0.0060133929 -0.01536566 0.021524779,
                              -0.0030396581 -0.016314499 0.02152466,
                              0.0031282899 -0.01629775 0.021524779,
                              0.0060967798 -0.01533281 0.021524779,
                              0.0088379383 -0.01379603 0.02152472,
                              0.01318693 -0.0092046848 0.021524779,
                              0.01463562 -0.006318151 0.021524779,
                              0.01553845 -0.00319606 0.02152472,
                              0.01552081 0.0032803409 0.021524779,
                              0.01460105 0.0063974848 0.021524779,
                              0.01313668 0.0092760921 0.02152466,
                              0.0087627759 0.01384377 0.021524779,
                              0.0060133929 0.01536566 0.021524779,
                              0.0030396581 0.016314499 0.02152466,
                              -0.0031282899 0.01629775 0.021524779,
                              -0.0060967798 0.01533281 0.021524779,
                              -0.0088379383 0.01379603 0.02152466,
                              -0.01553845 0.00319606 0.02152466,
                              -0.01463562 0.0063182111 0.021524779,
                              -0.01318693 0.0092046848 0.021524779,
                              -0.019704809 -5.3463202e-005 -0.008590281,
                              -0.01397317 0.01459228 -0.008590281,
                              -5.62327e-005 0.02069008 -0.008590281,
                              0.01389366 0.01466786 -0.008590281,
                              0.019704809 5.3458101e-005 -0.008590281,
                              0.01397317 -0.01459228 -0.008590281,
                              5.6235302e-005 -0.02069008 -0.008590281,
                              -0.01389366 -0.01466786 -0.008590281,
                              -0.01117491 -0.01179766 0.02152466,
                              -0.015848991 -4.2995001e-005 0.02152466,
                              4.5227102e-005 -0.016641431 0.02152466,
                              0.01123893 -0.01173686 0.02152472,
                              0.015848991 4.3001499e-005 0.02152466,
                              0.01117491 0.01179766 0.02152466,
                              -4.5233199e-005 0.016641431 0.02152466,
                              -0.01123893 0.01173686 0.02152466,
                              -0.019318691 0.0039736028 -0.008590281,
                              -0.01819622 0.0078552961 -0.008590281,
                              -0.01639515 0.01144403 -0.008590281,
                              -0.01098805 0.017152419 -0.008590281,
                              -0.007580101 0.01906305 -0.008590281,
                              -0.003889381 0.02026277 -0.008590281,
                              0.003779172 0.020283571 -0.008590281,
                              0.0074763289 0.019103941 -0.008590281,
                              0.01089465 0.017211789 -0.008590281,
                              0.01633268 0.01153284 -0.008590281,
                              0.01815325 0.0079539409 -0.008590281,
                              0.019296819 0.0040783882 -0.008590281,
                              0.019318691 -0.0039736028 -0.008590281,
                              0.01819622 -0.0078552961 -0.008590281,
                              0.01639515 -0.01144403 -0.008590281,
                              0.01098805 -0.017152419 -0.008590281,
                              0.007580101 -0.01906305 -0.008590281,
                              0.003889381 -0.02026277 -0.008590281,
                              -0.003779172 -0.020283571 -0.008590281,
                              -0.0074763289 -0.019103941 -0.008590281,
                              -0.01089465 -0.017211789 -0.008590281,
                              -0.019296819 -0.0040783882 -0.008590281,
                              -0.01815325 -0.0079539409 -0.008590281,
                              -0.01633268 -0.01153284 -0.008590281,
                              -0.019704809 -5.3463202e-005 -0.008590281,
                              -0.01397317 0.01459228 -0.008590281,
                              -5.62327e-005 0.02069008 -0.008590281,
                              0.01389366 0.01466786 -0.008590281,
                              0.019704809 5.3458101e-005 -0.008590281,
                              0.01397317 -0.01459228 -0.008590281,
                              5.6235302e-005 -0.02069008 -0.008590281,
                              -0.01389366 -0.01466786 -0.008590281,
                              -0.01292246 -0.005662024 0.030802481,
                              -0.01162648 -0.0082096448 0.030802481,
                              -0.01373648 -0.002903163 0.030802481,
                              -0.0053220391 -0.01359915 0.03080254,
                              -0.002690196 -0.01443886 0.03080254,
                              -0.0077553978 -0.01225221 0.030802481,
                              0.0053958888 -0.01357007 0.03080254,
                              0.007821857 -0.01220995 0.03080254,
                              0.0027686351 -0.01442408 0.03080254,
                              0.01295304 -0.0055918088 0.03080254,
                              0.01375204 -0.002828598 0.03080254,
                              0.01167088 -0.0081464639 0.03080254,
                              0.0129224 0.005662024 0.03080254,
                              0.01162642 0.0082096448 0.030802481,
                              0.01373648 0.002903223 0.03080254,
                              0.0053220391 0.01359915 0.030802481,
                              0.002690196 0.01443886 0.030802481,
                              0.0077553978 0.01225227 0.030802481,
                              -0.0053958888 0.01357007 0.030802481,
                              -0.007821857 0.01221001 0.030802481,
                              -0.0027686351 0.01442408 0.030802481,
                              -0.01295304 0.0055918088 0.030802481,
                              -0.01375204 0.002828598 0.030802481,
                              -0.01167088 0.0081464639 0.030802481,
                              -0.0098901978 -0.01044136 0.030802481,
                              -0.01402693 -3.8050799e-005 0.030802481,
                              4.0026e-005 -0.01472824 0.03080254,
                              0.0099468231 -0.01038753 0.03080254,
                              0.01402693 3.8060101e-005 0.03080254,
                              0.0098901978 0.01044136 0.030802481,
                              -4.0034702e-005 0.01472824 0.030802481,
                              -0.0099468231 0.01038753 0.030802481 ]

                        }
                        normal 
                        Normal {
                          vector [  ]

                        }
                        coordIndex [ 4, 5, 1, -1, 5, 168, 169, -1,
                            166, 167, 5, -1, 167, 247, 168, -1,
                            0, 1, 6, -1, 2, 6, 216, -1,
                            1, 169, 170, -1, 6, 170, 248, -1,
                            2, 7, 3, -1, 7, 176, 175, -1,
                            217, 218, 7, -1, 218, 249, 176, -1,
                            0, 3, 8, -1, 4, 8, 165, -1,
                            3, 175, 174, -1, 8, 174, 240, -1,
                            13, 14, 10, -1, 14, 173, 172, -1,
                            217, 216, 14, -1, 216, 248, 173, -1,
                            9, 10, 15, -1, 10, 172, 171, -1,
                            11, 16, 12, -1, 16, 177, 178, -1,
                            9, 12, 17, -1, 13, 17, 218, -1,
                            12, 178, 179, -1, 17, 179, 249, -1,
                            22, 23, 19, -1, 23, 180, 181, -1,
                            163, 162, 23, -1, 162, 246, 180, -1,
                            18, 19, 24, -1, 20, 24, 221, -1,
                            19, 181, 182, -1, 24, 182, 250, -1,
                            20, 25, 21, -1, 25, 170, 169, -1,
                            220, 219, 25, -1, 219, 248, 170, -1,
                            18, 21, 26, -1, 22, 26, 164, -1,
                            21, 169, 168, -1, 26, 168, 247, -1,
                            31, 32, 28, -1, 32, 185, 184, -1,
                            220, 221, 32, -1, 221, 250, 185, -1,
                            27, 28, 33, -1, 28, 184, 183, -1,
                            29, 34, 30, -1, 34, 171, 172, -1,
                            27, 30, 35, -1, 31, 35, 219, -1,
                            30, 172, 173, -1, 35, 173, 248, -1,
                            36, 40, 41, -1, 37, 41, 186, -1,
                            40, 160, 159, -1, 41, 159, 245, -1,
                            37, 42, 38, -1, 42, 224, 223, -1,
                            187, 188, 42, -1, 188, 251, 224, -1,
                            36, 38, 43, -1, 39, 43, 182, -1,
                            38, 223, 222, -1, 43, 222, 250, -1,
                            39, 44, 40, -1, 44, 161, 160, -1,
                            181, 180, 44, -1, 180, 246, 161, -1,
                            45, 49, 50, -1, 46, 50, 191, -1,
                            49, 223, 224, -1, 50, 224, 251, -1,
                            46, 51, 47, -1, 190, 189, 51, -1,
                            45, 47, 52, -1, 48, 52, 183, -1,
                            48, 53, 49, -1, 53, 222, 223, -1,
                            184, 185, 53, -1, 185, 250, 222, -1,
                            54, 58, 59, -1, 55, 59, 192, -1,
                            58, 157, 156, -1, 59, 156, 244, -1,
                            55, 60, 56, -1, 60, 227, 226, -1,
                            193, 194, 60, -1, 194, 252, 227, -1,
                            54, 56, 61, -1, 57, 61, 188, -1,
                            56, 226, 225, -1, 61, 225, 251, -1,
                            57, 62, 58, -1, 62, 158, 157, -1,
                            187, 186, 62, -1, 186, 245, 158, -1,
                            63, 67, 68, -1, 64, 68, 197, -1,
                            67, 226, 227, -1, 68, 227, 252, -1,
                            64, 69, 65, -1, 196, 195, 69, -1,
                            63, 65, 70, -1, 66, 70, 189, -1,
                            66, 71, 67, -1, 71, 225, 226, -1,
                            190, 191, 71, -1, 191, 251, 225, -1,
                            76, 77, 73, -1, 77, 198, 199, -1,
                            154, 153, 77, -1, 153, 243, 198, -1,
                            72, 73, 78, -1, 74, 78, 230, -1,
                            73, 199, 200, -1, 78, 200, 253, -1,
                            74, 79, 75, -1, 79, 194, 193, -1,
                            229, 228, 79, -1, 228, 252, 194, -1,
                            72, 75, 80, -1, 76, 80, 155, -1,
                            75, 193, 192, -1, 80, 192, 244, -1,
                            85, 86, 82, -1, 86, 203, 202, -1,
                            229, 230, 86, -1, 230, 253, 203, -1,
                            81, 82, 87, -1, 82, 202, 201, -1,
                            83, 88, 84, -1, 88, 195, 196, -1,
                            81, 84, 89, -1, 85, 89, 228, -1,
                            84, 196, 197, -1, 89, 197, 252, -1,
                            94, 95, 91, -1, 95, 204, 205, -1,
                            151, 150, 95, -1, 150, 242, 204, -1,
                            90, 91, 96, -1, 92, 96, 233, -1,
                            91, 205, 206, -1, 96, 206, 254, -1,
                            92, 97, 93, -1, 97, 200, 199, -1,
                            232, 231, 97, -1, 231, 253, 200, -1,
                            90, 93, 98, -1, 94, 98, 152, -1,
                            93, 199, 198, -1, 98, 198, 243, -1,
                            103, 104, 100, -1, 104, 209, 208, -1,
                            232, 233, 104, -1, 233, 254, 209, -1,
                            99, 100, 105, -1, 100, 208, 207, -1,
                            101, 106, 102, -1, 106, 201, 202, -1,
                            99, 102, 107, -1, 103, 107, 231, -1,
                            102, 202, 203, -1, 107, 203, 253, -1,
                            108, 112, 113, -1, 109, 113, 210, -1,
                            112, 148, 147, -1, 113, 147, 241, -1,
                            109, 114, 110, -1, 114, 236, 235, -1,
                            211, 212, 114, -1, 212, 255, 236, -1,
                            108, 110, 115, -1, 111, 115, 206, -1,
                            110, 235, 234, -1, 115, 234, 254, -1,
                            111, 116, 112, -1, 116, 149, 148, -1,
                            205, 204, 116, -1, 204, 242, 149, -1,
                            117, 121, 122, -1, 118, 122, 215, -1,
                            121, 235, 236, -1, 122, 236, 255, -1,
                            118, 123, 119, -1, 214, 213, 123, -1,
                            117, 119, 124, -1, 120, 124, 207, -1,
                            120, 125, 121, -1, 125, 234, 235, -1,
                            208, 209, 125, -1, 209, 254, 234, -1,
                            126, 130, 131, -1, 127, 131, 174, -1,
                            130, 145, 144, -1, 131, 144, 240, -1,
                            127, 132, 128, -1, 132, 237, 238, -1,
                            175, 176, 132, -1, 176, 249, 237, -1,
                            126, 128, 133, -1, 129, 133, 212, -1,
                            128, 238, 239, -1, 133, 239, 255, -1,
                            129, 134, 130, -1, 134, 146, 145, -1,
                            211, 210, 134, -1, 210, 241, 146, -1,
                            135, 139, 140, -1, 136, 140, 179, -1,
                            139, 238, 237, -1, 140, 237, 249, -1,
                            136, 141, 137, -1, 178, 177, 141, -1,
                            135, 137, 142, -1, 138, 142, 213, -1,
                            138, 143, 139, -1, 143, 239, 238, -1,
                            214, 215, 143, -1, 215, 255, 239, -1,
                            246, 286, 273, -1, 145, 257, 256, -1,
                            153, 265, 283, -1, 160, 272, 271, -1,
                            152, 264, 263, -1, 166, 278, 279, -1,
                            245, 285, 270, -1, 150, 262, 282, -1,
                            240, 280, 277, -1, 157, 269, 268, -1,
                            149, 261, 260, -1, 164, 276, 275, -1,
                            147, 259, 281, -1, 244, 284, 267, -1,
                            162, 274, 286, -1, 146, 258, 257, -1,
                            154, 266, 265, -1, 161, 273, 272, -1,
                            144, 256, 280, -1, 243, 283, 264, -1,
                            167, 279, 287, -1, 159, 271, 285, -1,
                            151, 263, 262, -1, 165, 277, 278, -1,
                            158, 270, 269, -1, 242, 282, 261, -1,
                            247, 287, 276, -1, 156, 268, 284, -1,
                            148, 260, 259, -1, 163, 275, 274, -1,
                            241, 281, 258, -1, 155, 267, 266, -1,
                            262, 282, 261, -1, 263, 262, 261, -1,
                            263, 261, 260, -1, 264, 263, 259, -1,
                            272, 275, 274, -1, 283, 264, 265, -1,
                            271, 276, 275, -1, 258, 265, 259, -1,
                            281, 258, 259, -1, 266, 265, 258, -1,
                            266, 258, 257, -1, 267, 266, 257, -1,
                            267, 257, 256, -1, 284, 267, 256, -1,
                            284, 256, 280, -1, 268, 284, 280, -1,
                            268, 280, 277, -1, 269, 268, 278, -1,
                            263, 260, 259, -1, 270, 269, 279, -1,
                            268, 277, 278, -1, 285, 270, 271, -1,
                            276, 271, 279, -1, 270, 279, 271, -1,
                            287, 276, 279, -1, 272, 271, 275, -1,
                            269, 278, 279, -1, 273, 272, 274, -1,
                            286, 273, 274, -1, 264, 259, 265, -1,
                            101, 303, 305, -1, 88, 302, 316, -1,
                            15, 289, 288, -1, 177, 313, 310, -1,
                            52, 296, 314, -1, 65, 297, 299, -1,
                            141, 310, 309, -1, 207, 318, 304, -1,
                            16, 290, 313, -1, 29, 291, 293, -1,
                            105, 304, 303, -1, 195, 316, 298, -1,
                            142, 311, 319, -1, 183, 314, 292, -1,
                            69, 298, 297, -1, 119, 306, 308, -1,
                            106, 305, 317, -1, 33, 292, 291, -1,
                            83, 300, 302, -1, 70, 299, 315, -1,
                            213, 319, 307, -1, 34, 293, 312, -1,
                            47, 294, 296, -1, 123, 307, 306, -1,
                            201, 317, 301, -1, 11, 288, 290, -1,
                            87, 301, 300, -1, 189, 315, 295, -1,
                            137, 309, 311, -1, 124, 308, 318, -1,
                            171, 312, 289, -1, 51, 295, 294, -1,
                            308, 318, 304, -1, 308, 304, 303, -1,
                            306, 308, 303, -1, 306, 303, 307, -1,
                            294, 296, 292, -1, 307, 305, 301, -1,
                            305, 317, 301, -1, 311, 319, 307, -1,
                            301, 311, 307, -1, 311, 301, 300, -1,
                            309, 311, 300, -1, 309, 300, 302, -1,
                            310, 309, 302, -1, 310, 302, 316, -1,
                            313, 310, 316, -1, 313, 316, 298, -1,
                            290, 313, 298, -1, 290, 298, 297, -1,
                            288, 290, 297, -1, 288, 297, 299, -1,
                            289, 288, 299, -1, 289, 299, 293, -1,
                            299, 295, 293, -1, 299, 315, 295, -1,
                            303, 305, 307, -1, 293, 295, 294, -1,
                            291, 293, 294, -1, 291, 294, 292, -1,
                            292, 296, 314, -1, 293, 312, 289, -1,
                            0, 4, 1, -1, 1, 5, 169, -1,
                            4, 166, 5, -1, 5, 167, 168, -1,
                            2, 0, 6, -1, 217, 2, 216, -1,
                            6, 1, 170, -1, 216, 6, 248, -1,
                            0, 2, 3, -1, 3, 7, 175, -1,
                            2, 217, 7, -1, 7, 218, 176, -1,
                            4, 0, 8, -1, 166, 4, 165, -1,
                            8, 3, 174, -1, 165, 8, 240, -1,
                            9, 13, 10, -1, 10, 14, 172, -1,
                            13, 217, 14, -1, 14, 216, 173, -1,
                            11, 9, 15, -1, 15, 10, 171, -1,
                            9, 11, 12, -1, 12, 16, 178, -1,
                            13, 9, 17, -1, 217, 13, 218, -1,
                            17, 12, 179, -1, 218, 17, 249, -1,
                            18, 22, 19, -1, 19, 23, 181, -1,
                            22, 163, 23, -1, 23, 162, 180, -1,
                            20, 18, 24, -1, 220, 20, 221, -1,
                            24, 19, 182, -1, 221, 24, 250, -1,
                            18, 20, 21, -1, 21, 25, 169, -1,
                            20, 220, 25, -1, 25, 219, 170, -1,
                            22, 18, 26, -1, 163, 22, 164, -1,
                            26, 21, 168, -1, 164, 26, 247, -1,
                            27, 31, 28, -1, 28, 32, 184, -1,
                            31, 220, 32, -1, 32, 221, 185, -1,
                            29, 27, 33, -1, 33, 28, 183, -1,
                            27, 29, 30, -1, 30, 34, 172, -1,
                            31, 27, 35, -1, 220, 31, 219, -1,
                            35, 30, 173, -1, 219, 35, 248, -1,
                            37, 36, 41, -1, 187, 37, 186, -1,
                            41, 40, 159, -1, 186, 41, 245, -1,
                            36, 37, 38, -1, 38, 42, 223, -1,
                            37, 187, 42, -1, 42, 188, 224, -1,
                            39, 36, 43, -1, 181, 39, 182, -1,
                            43, 38, 222, -1, 182, 43, 250, -1,
                            36, 39, 40, -1, 40, 44, 160, -1,
                            39, 181, 44, -1, 44, 180, 161, -1,
                            46, 45, 50, -1, 190, 46, 191, -1,
                            50, 49, 224, -1, 191, 50, 251, -1,
                            45, 46, 47, -1, 46, 190, 51, -1,
                            48, 45, 52, -1, 184, 48, 183, -1,
                            45, 48, 49, -1, 49, 53, 223, -1,
                            48, 184, 53, -1, 53, 185, 222, -1,
                            55, 54, 59, -1, 193, 55, 192, -1,
                            59, 58, 156, -1, 192, 59, 244, -1,
                            54, 55, 56, -1, 56, 60, 226, -1,
                            55, 193, 60, -1, 60, 194, 227, -1,
                            57, 54, 61, -1, 187, 57, 188, -1,
                            61, 56, 225, -1, 188, 61, 251, -1,
                            54, 57, 58, -1, 58, 62, 157, -1,
                            57, 187, 62, -1, 62, 186, 158, -1,
                            64, 63, 68, -1, 196, 64, 197, -1,
                            68, 67, 227, -1, 197, 68, 252, -1,
                            63, 64, 65, -1, 64, 196, 69, -1,
                            66, 63, 70, -1, 190, 66, 189, -1,
                            63, 66, 67, -1, 67, 71, 226, -1,
                            66, 190, 71, -1, 71, 191, 225, -1,
                            72, 76, 73, -1, 73, 77, 199, -1,
                            76, 154, 77, -1, 77, 153, 198, -1,
                            74, 72, 78, -1, 229, 74, 230, -1,
                            78, 73, 200, -1, 230, 78, 253, -1,
                            72, 74, 75, -1, 75, 79, 193, -1,
                            74, 229, 79, -1, 79, 228, 194, -1,
                            76, 72, 80, -1, 154, 76, 155, -1,
                            80, 75, 192, -1, 155, 80, 244, -1,
                            81, 85, 82, -1, 82, 86, 202, -1,
                            85, 229, 86, -1, 86, 230, 203, -1,
                            83, 81, 87, -1, 87, 82, 201, -1,
                            81, 83, 84, -1, 84, 88, 196, -1,
                            85, 81, 89, -1, 229, 85, 228, -1,
                            89, 84, 197, -1, 228, 89, 252, -1,
                            90, 94, 91, -1, 91, 95, 205, -1,
                            94, 151, 95, -1, 95, 150, 204, -1,
                            92, 90, 96, -1, 232, 92, 233, -1,
                            96, 91, 206, -1, 233, 96, 254, -1,
                            90, 92, 93, -1, 93, 97, 199, -1,
                            92, 232, 97, -1, 97, 231, 200, -1,
                            94, 90, 98, -1, 151, 94, 152, -1,
                            98, 93, 198, -1, 152, 98, 243, -1,
                            99, 103, 100, -1, 100, 104, 208, -1,
                            103, 232, 104, -1, 104, 233, 209, -1,
                            101, 99, 105, -1, 105, 100, 207, -1,
                            99, 101, 102, -1, 102, 106, 202, -1,
                            103, 99, 107, -1, 232, 103, 231, -1,
                            107, 102, 203, -1, 231, 107, 253, -1,
                            109, 108, 113, -1, 211, 109, 210, -1,
                            113, 112, 147, -1, 210, 113, 241, -1,
                            108, 109, 110, -1, 110, 114, 235, -1,
                            109, 211, 114, -1, 114, 212, 236, -1,
                            111, 108, 115, -1, 205, 111, 206, -1,
                            115, 110, 234, -1, 206, 115, 254, -1,
                            108, 111, 112, -1, 112, 116, 148, -1,
                            111, 205, 116, -1, 116, 204, 149, -1,
                            118, 117, 122, -1, 214, 118, 215, -1,
                            122, 121, 236, -1, 215, 122, 255, -1,
                            117, 118, 119, -1, 118, 214, 123, -1,
                            120, 117, 124, -1, 208, 120, 207, -1,
                            117, 120, 121, -1, 121, 125, 235, -1,
                            120, 208, 125, -1, 125, 209, 234, -1,
                            127, 126, 131, -1, 175, 127, 174, -1,
                            131, 130, 144, -1, 174, 131, 240, -1,
                            126, 127, 128, -1, 128, 132, 238, -1,
                            127, 175, 132, -1, 132, 176, 237, -1,
                            129, 126, 133, -1, 211, 129, 212, -1,
                            133, 128, 239, -1, 212, 133, 255, -1,
                            126, 129, 130, -1, 130, 134, 145, -1,
                            129, 211, 134, -1, 134, 210, 146, -1,
                            136, 135, 140, -1, 178, 136, 179, -1,
                            140, 139, 237, -1, 179, 140, 249, -1,
                            135, 136, 137, -1, 136, 178, 141, -1,
                            138, 135, 142, -1, 214, 138, 213, -1,
                            135, 138, 139, -1, 139, 143, 238, -1,
                            138, 214, 143, -1, 143, 215, 239, -1,
                            161, 246, 273, -1, 144, 145, 256, -1,
                            243, 153, 283, -1, 159, 160, 271, -1,
                            151, 152, 263, -1, 167, 166, 279, -1,
                            158, 245, 270, -1, 242, 150, 282, -1,
                            165, 240, 277, -1, 156, 157, 268, -1,
                            148, 149, 260, -1, 163, 164, 275, -1,
                            241, 147, 281, -1, 155, 244, 267, -1,
                            246, 162, 286, -1, 145, 146, 257, -1,
                            153, 154, 265, -1, 160, 161, 272, -1,
                            240, 144, 280, -1, 152, 243, 264, -1,
                            247, 167, 287, -1, 245, 159, 285, -1,
                            150, 151, 262, -1, 166, 165, 278, -1,
                            157, 158, 269, -1, 149, 242, 261, -1,
                            164, 247, 276, -1, 244, 156, 284, -1,
                            147, 148, 259, -1, 162, 163, 274, -1,
                            146, 241, 258, -1, 154, 155, 266, -1,
                            106, 101, 305, -1, 195, 88, 316, -1,
                            11, 15, 288, -1, 141, 177, 310, -1,
                            183, 52, 314, -1, 70, 65, 299, -1,
                            137, 141, 309, -1, 105, 207, 304, -1,
                            177, 16, 313, -1, 34, 29, 293, -1,
                            101, 105, 303, -1, 69, 195, 298, -1,
                            213, 142, 319, -1, 33, 183, 292, -1,
                            65, 69, 297, -1, 124, 119, 308, -1,
                            201, 106, 317, -1, 29, 33, 291, -1,
                            88, 83, 302, -1, 189, 70, 315, -1,
                            123, 213, 307, -1, 171, 34, 312, -1,
                            52, 47, 296, -1, 119, 123, 306, -1,
                            87, 201, 301, -1, 16, 11, 290, -1,
                            83, 87, 300, -1, 51, 189, 295, -1,
                            142, 137, 311, -1, 207, 124, 318, -1,
                            15, 171, 289, -1, 47, 51, 294 ]
                        ccw TRUE
                        solid FALSE
                        convex TRUE
                        creaseAngle 0

                      }

                    }

                }

            }

        },
          
        Group {
          children 
            Transform {
              translation 0 3.3372902e-011 0.32499999
              rotation 0 0 1  0
              scale 1 1 1
              scaleOrientation 0 0 1  0

            }

        },
          
        Group {
          children 
            Transform {
              translation 0 0 0
              rotation 0 0 1  0
              scale 1 1 1
              scaleOrientation 0 0 1  0

            }

        } ]

    }

}
