#VRML V2.0 utf8


Group {
  children 
    Group {
      children 
        Group {
          children 
            Transform {
              translation 9.5495079e-010 -0.11 -0.140256
              rotation -0.70710671 0.70710683 -5.3385072e-008  3.1415925
              scale 1 1 1
              scaleOrientation 0 0 1  0
              children 
                Transform {
                  translation -0.10977 -3.9998499e-006 -0.147102
                  rotation 5.3526361e-005 5.3674605e-005 -0.99999994  1.5707967
                  scale 1 1 1
                  scaleOrientation 0 0 1  0
                  children 
                    Shape {
                      appearance 
                      Appearance {
                        material 
                        Material {
                          diffuseColor 0.65864992 0.50308388 0.31538299

                        }

                      }
                      geometry 
                      IndexedFaceSet {
                        coord 
                        Coordinate {
                          point [ -0.003484427 0.0034540291 0.003387749,
                              -0.0048436518 -0.003874182 0.0052078962,
                              0.0048436518 -0.003874182 0.0052078962,
                              0.003508687 0.0034540291 0.003387749,
                              -0.003509342 0.0021234751 -0.003371059,
                              -0.0036094179 -0.0038602939 -0.0052596331,
                              0.0036094179 -0.003710448 -0.0052596331,
                              0.003485143 0.0021234751 -0.0033710001,
                              -0.0039233561 0.0035340779 -0.000146548,
                              -0.0054323669 -0.004236876 -0.000216271,
                              0.0054323669 -0.004236876 -0.000216271,
                              0.0039234161 0.0035340779 -0.000146548,
                              0 -0.0040706391 -0.0058319559,
                              0 -0.004236876 0.0058319559,
                              -5.99132e-006 0.0023075929 -0.0035643571,
                              6.0086199e-006 0.0037955639 0.0036163919,
                              0 -0.004236876 -0.000216271,
                              0 0.00411731 -0.000141411,
                              -0.0041193361 -0.000128952 -0.0045989752,
                              -0.0042296639 5.7748799e-005 0.0042362208,
                              0.0041153431 -0.000128941 -0.0045989752,
                              0.0042336578 5.7758501e-005 0.0042362208,
                              -0.0050945282 6.8185102e-005 -0.00020438099,
                              0.0050945282 6.81827e-005 -0.00020438799,
                              5.1840402e-007 9.91907e-005 0.004768013,
                              -5.2001297e-007 -0.000111807 -0.0051327939,
                              -0.0038248301 0.002821624 -0.0020095101,
                              -0.0047778478 -0.004236876 -0.0033348789,
                              0.0047778478 -0.004236876 -0.0033348789,
                              0.003809094 0.002821624 -0.0020095101,
                              0 -0.004236876 -0.0033348789,
                              -3.6087099e-006 0.0033017991 -0.0020247099,
                              -0.0049368138 -3.3663498e-005 -0.002683043,
                              0.00493431 -3.36536e-005 -0.002683043,
                              -0.0054323669 -0.004236876 0.002947211,
                              0.0054323669 -0.004236876 0.002947211,
                              0.003823637 0.003628551 0.001874923,
                              -0.0038077231 0.003628551 0.001874923,
                              0 -0.004236876 0.002947211,
                              3.65136e-006 0.004236876 0.001921594,
                              -0.005005002 6.7768502e-005 0.002307415,
                              0.005007505 6.7763503e-005 0.0023073549,
                              -0.003930985 0.0020078421 0.003801882,
                              0.0039214492 0.001197397 -0.0039576879,
                              -0.0048081269 0.0019954441 -0.000175555,
                              3.5427299e-006 0.0021507139 0.0043210378,
                              -3.5314599e-006 0.0012159341 -0.0044524069,
                              -0.0039373632 0.001197397 -0.0039576879,
                              0.003946959 0.0020078421 0.003801882,
                              0.0048081269 0.0019954441 -0.000175555,
                              0.0046610832 0.001585364 -0.0023125999,
                              -0.004671454 0.001585364 -0.0023125999,
                              0.0046756859 0.0020424121 0.0020592799,
                              -0.0046652551 0.0020424121 0.0020592799,
                              -0.0039271112 -0.002079665 -0.0050947662,
                              0.0044910898 -0.0020654791 0.0047464371,
                              0.0052140951 -0.0020625589 -0.000209299,
                              -0.0044907331 -0.0020654791 0.0047464371,
                              0.0039268131 -0.0020475979 -0.0050947662,
                              -0.0052140951 -0.0020625589 -0.00020929299,
                              0 -0.0020608299 0.0052632089,
                              0 -0.002055346 -0.0056362152,
                              -0.0048719039 -0.0020713799 -0.0029817219,
                              0.004871726 -0.0020713799 -0.0029817219,
                              -0.0051856041 -0.0020641079 0.0025780201,
                              0.005185782 -0.0020641079 0.0025780201,
                              -0.002716183 -0.004236876 0.0058319559,
                              -0.001895129 0.002222657 -0.003488898,
                              -0.002716183 -0.004236876 -0.000216271,
                              -0.00182563 -0.004153728 -0.0057598939,
                              -0.0018765921 0.003662765 0.0035326481,
                              -0.002041101 0.003948688 -0.000142763,
                              -0.0021530979 -0.00012363101 -0.0050082798,
                              -0.0022126429 7.8937002e-005 0.0046440358,
                              -0.001986861 0.0031588669 -0.00199753,
                              -0.0023888941 -0.004236876 -0.0033348789,
                              -0.0019745231 0.0040590758 0.001887798,
                              -0.002716183 -0.004236876 0.002947211,
                              -0.002056598 0.001181483 -0.0043292041,
                              -0.002049922 0.002082109 0.004193007,
                              -0.002038419 -0.0020675061 -0.0055234432,
                              -0.0023483629 -0.0020631549 0.0051609869,
                              0.00182563 -0.00402528 -0.0057598939,
                              0.001894831 0.003662765 0.0035326481,
                              0.0020411611 0.003948688 -0.000142763,
                              0.002716183 -0.004236876 0.0058319559,
                              0.00187695 0.002222657 -0.003488898,
                              0.002716183 -0.004236876 -0.000216271,
                              0.002215147 7.8933997e-005 0.0046440358,
                              0.002150595 -0.00012363501 -0.0050082798,
                              0.0023888941 -0.004236876 -0.0033348789,
                              0.0019753571 0.0031588669 -0.00199753,
                              0.002716183 -0.004236876 0.002947211,
                              0.001986145 0.0040590758 0.001887798,
                              0.0020614259 0.002082109 0.004193007,
                              0.0020450349 0.001181483 -0.0043292041,
                              0.002348542 -0.0020631549 0.0051609869,
                              0.00203824 -0.002051472 -0.0055234432 ]

                        }
                        normal 
                        Normal {
                          vector [  ]

                        }
                        coordIndex [ 57, 1, 34, -1, 92, 85, 2, -1,
                            52, 48, 3, -1, 76, 70, 0, -1,
                            55, 2, 85, -1, 80, 54, 5, -1,
                            62, 59, 9, -1, 87, 10, 28, -1,
                            49, 11, 29, -1, 74, 71, 8, -1,
                            77, 66, 13, -1, 83, 15, 39, -1,
                            81, 60, 13, -1, 61, 12, 82, -1,
                            75, 68, 16, -1, 84, 17, 31, -1,
                            42, 19, 40, -1, 65, 55, 21, -1,
                            48, 21, 88, -1, 47, 18, 72, -1,
                            51, 44, 22, -1, 56, 23, 33, -1,
                            79, 45, 24, -1, 95, 46, 25, -1,
                            54, 62, 27, -1, 90, 28, 6, -1,
                            50, 29, 7, -1, 74, 26, 4, -1,
                            69, 75, 30, -1, 86, 91, 31, -1,
                            47, 51, 32, -1, 63, 33, 20, -1,
                            64, 34, 9, -1, 87, 92, 35, -1,
                            52, 36, 11, -1, 71, 76, 37, -1,
                            77, 38, 16, -1, 93, 39, 17, -1,
                            53, 40, 22, -1, 56, 65, 41, -1,
                            41, 21, 48, -1, 23, 49, 50, -1,
                            0, 42, 53, -1, 3, 48, 94, -1,
                            4, 47, 78, -1, 26, 8, 44, -1,
                            70, 15, 45, -1, 86, 14, 46, -1,
                            33, 50, 43, -1, 4, 26, 51, -1,
                            23, 41, 52, -1, 8, 37, 53, -1,
                            19, 57, 64, -1, 21, 55, 96, -1,
                            72, 18, 54, -1, 32, 22, 59, -1,
                            73, 24, 60, -1, 25, 61, 97, -1,
                            35, 2, 55, -1, 10, 56, 63, -1,
                            18, 32, 62, -1, 28, 63, 58, -1,
                            40, 64, 59, -1, 10, 35, 65, -1,
                            39, 15, 70, -1, 61, 80, 69, -1,
                            31, 17, 71, -1, 1, 66, 77, -1,
                            57, 81, 66, -1, 27, 9, 68, -1,
                            78, 72, 25, -1, 42, 79, 73, -1,
                            31, 74, 67, -1, 5, 27, 75, -1,
                            17, 39, 76, -1, 34, 77, 68, -1,
                            67, 78, 46, -1, 0, 70, 79, -1,
                            25, 72, 80, -1, 19, 73, 81, -1,
                            13, 85, 92, -1, 96, 85, 13, -1,
                            16, 87, 90, -1, 3, 83, 93, -1,
                            97, 82, 6, -1, 11, 84, 91, -1,
                            94, 88, 24, -1, 43, 95, 89, -1,
                            30, 90, 82, -1, 7, 29, 91, -1,
                            38, 92, 87, -1, 36, 93, 84, -1,
                            83, 94, 45, -1, 7, 86, 95, -1,
                            88, 96, 60, -1, 89, 97, 58, -1,
                            64, 57, 34, -1, 35, 92, 2, -1,
                            36, 52, 3, -1, 37, 76, 0, -1,
                            96, 55, 85, -1, 69, 80, 5, -1,
                            27, 62, 9, -1, 90, 87, 28, -1,
                            50, 49, 29, -1, 26, 74, 8, -1,
                            38, 77, 13, -1, 93, 83, 39, -1,
                            66, 81, 13, -1, 97, 61, 82, -1,
                            30, 75, 16, -1, 91, 84, 31, -1,
                            53, 42, 40, -1, 41, 65, 21, -1,
                            94, 48, 88, -1, 78, 47, 72, -1,
                            32, 51, 22, -1, 63, 56, 33, -1,
                            73, 79, 24, -1, 89, 95, 25, -1,
                            5, 54, 27, -1, 82, 90, 6, -1,
                            43, 50, 7, -1, 67, 74, 4, -1,
                            12, 69, 30, -1, 14, 86, 31, -1,
                            18, 47, 32, -1, 58, 63, 20, -1,
                            59, 64, 9, -1, 10, 87, 35, -1,
                            49, 52, 11, -1, 8, 71, 37, -1,
                            68, 77, 16, -1, 84, 93, 17, -1,
                            44, 53, 22, -1, 23, 56, 41, -1,
                            52, 41, 48, -1, 33, 23, 50, -1,
                            37, 0, 53, -1, 83, 3, 94, -1,
                            67, 4, 78, -1, 51, 26, 44, -1,
                            79, 70, 45, -1, 95, 86, 46, -1,
                            20, 33, 43, -1, 47, 4, 51, -1,
                            49, 23, 52, -1, 44, 8, 53, -1,
                            40, 19, 64, -1, 88, 21, 96, -1,
                            80, 72, 54, -1, 62, 32, 59, -1,
                            81, 73, 60, -1, 89, 25, 97, -1,
                            65, 35, 55, -1, 28, 10, 63, -1,
                            54, 18, 62, -1, 6, 28, 58, -1,
                            22, 40, 59, -1, 56, 10, 65, -1,
                            76, 39, 70, -1, 12, 61, 69, -1,
                            74, 31, 71, -1, 34, 1, 77, -1,
                            1, 57, 66, -1, 75, 27, 68, -1,
                            46, 78, 25, -1, 19, 42, 73, -1,
                            14, 31, 67, -1, 69, 5, 75, -1,
                            71, 17, 76, -1, 9, 34, 68, -1,
                            14, 67, 46, -1, 42, 0, 79, -1,
                            61, 25, 80, -1, 57, 19, 81, -1,
                            38, 13, 92, -1, 60, 96, 13, -1,
                            30, 16, 90, -1, 36, 3, 93, -1,
                            58, 97, 6, -1, 29, 11, 91, -1,
                            45, 94, 24, -1, 20, 43, 89, -1,
                            12, 30, 82, -1, 86, 7, 91, -1,
                            16, 38, 87, -1, 11, 36, 84, -1,
                            15, 83, 45, -1, 43, 7, 95, -1,
                            24, 88, 60, -1, 20, 89, 58 ]
                        ccw TRUE
                        solid FALSE
                        convex TRUE
                        creaseAngle 0

                      }

                    }

                }

            }

        }

    }

}
