#VRML V2.0 utf8


Group {
  children 
    Group {
      children [ 
        Group {
          children 
            Transform {
              translation 9.5495434e-010 -0.11 -0.093168005
              rotation -0.70710671 0.70710683 -5.3385072e-008  3.1415925
              scale 1 1 1
              scaleOrientation 0 0 1  0
              children 
                Transform {
                  translation -0.10977 -2.3670401e-008 -0.1081299
                  rotation 5.3526361e-005 5.3674605e-005 -0.99999994  1.5707967
                  scale 1 1 1
                  scaleOrientation 0 0 1  0
                  children 
                    Shape {
                      appearance 
                      Appearance {
                        material 
                        Material {
                          diffuseColor 0.65864992 0.50308388 0.31538299

                        }

                      }
                      geometry 
                      IndexedFaceSet {
                        coord 
                        Coordinate {
                          point [ -0.0040191999 0.0035210841 0.008903861,
                              -0.0049535632 -0.0039731259 0.01295691,
                              0.0049535632 -0.0039731259 0.01295691,
                              0.0040522809 0.0035210249 0.008903861,
                              -0.0040522809 0.003627121 -0.008903861,
                              -0.0049535632 -0.0039731259 -0.01295691,
                              0.0049535632 -0.0039731259 -0.01295691,
                              0.0040191999 0.003627121 -0.008903861,
                              -0.004414021 0.0038460491 0,
                              -0.0054323669 -0.0043358202 0,
                              0.0054323669 -0.0043358202 0,
                              0.004414021 0.003846108 0,
                              0 -0.0043358202 -0.01436394,
                              0 -0.0043358202 0.01436394,
                              -2.75979e-006 0.0040212269 -0.0096088639,
                              2.7630099e-006 0.0040035238 0.0096088639,
                              0 -0.0043358202 0,
                              0 0.0043358202 0,
                              -0.0047677751 -1.32e-005 -0.01110875,
                              -0.0047650328 -2.2038201e-005 0.01110881,
                              0.0047650328 -1.31974e-005 -0.01110881,
                              0.0047677751 -2.20322e-005 0.01110881,
                              -0.0051150322 1.35455e-006 0,
                              0.0051150322 1.35193e-006 0,
                              0 1.521e-005 0.01190143,
                              0 1.52044e-005 -0.01190143,
                              -0.0044127698 0.001914322 0.0099915862,
                              0.0044127698 0.0019761911 -0.0099915862,
                              -0.004903018 0.0020521281 0,
                              1.37899e-006 0.0021446941 0.01099687,
                              -1.3809999e-006 0.0021535149 -0.01099687,
                              -0.0044320822 0.0019761911 -0.0099915862,
                              0.0044320822 0.001914322 0.0099915862,
                              0.004903018 0.0020521281 0,
                              -0.0049458742 -0.002159595 -0.01228457,
                              0.0049458742 -0.002159595 0.01228457,
                              0.0052756071 -0.002159595 0,
                              -0.0049458742 -0.002159595 0.01228457,
                              0.0049458742 -0.002159595 -0.01228457,
                              -0.0052756071 -0.002159595 0,
                              0 -0.002159595 0.01310354,
                              0 -0.002159595 -0.01310354,
                              -0.0042800899 0.003781497 -0.004810214,
                              -0.0054323669 -0.0043358202 -0.007181942,
                              0.0054323669 -0.0043358202 -0.007181942,
                              0.004260778 0.003781497 -0.004810214,
                              0 -0.0043358202 -0.007181942,
                              -1.3838199e-006 0.0043145409 -0.005075275,
                              -0.0051013818 -5.9230201e-006 -0.0059244628,
                              0.0051000109 -5.9224199e-006 -0.0059244628,
                              0.0048113461 0.002012908 -0.005314826,
                              -0.0048223729 0.002012908 -0.005314826,
                              -0.0052756071 -0.002159595 -0.0065517421,
                              0.0052756071 -0.002159595 -0.0065517421,
                              -0.0054323669 -0.0043358202 0.007181942,
                              0.0054323669 -0.0043358202 0.007181942,
                              0.0042800899 0.0037196269 0.004810214,
                              -0.004260778 0.0037196269 0.004810214,
                              0 -0.0043358202 0.007181942,
                              1.38181e-006 0.0043057199 0.005075275,
                              -0.0051000109 -1.03394e-005 0.0059244628,
                              0.0051013818 -1.03408e-005 0.0059244628,
                              0.0048223729 0.001977562 0.0053148861,
                              -0.0048113461 0.0019775031 0.005314826,
                              -0.0052756071 -0.002159595 0.0065517421,
                              0.0052756071 -0.002159595 0.0065517421,
                              -0.002716183 -0.0043358202 0.01436394,
                              -0.0021925559 0.0038715601 -0.009346663,
                              -0.002716183 -0.0043358202 0,
                              -0.002716183 -0.0043358202 -0.01436394,
                              -0.0021733041 0.0038097501 0.009346663,
                              -0.002343595 0.0042269821 0,
                              -0.0025438659 1.01176e-006 -0.01187521,
                              -0.0025424359 -3.4162999e-006 0.01187521,
                              -0.0023564689 0.0020683401 -0.01083952,
                              -0.0023454421 0.002032995 0.01083952,
                              -0.0026378031 -0.002159595 -0.01310354,
                              -0.0026378031 -0.002159595 0.01310354,
                              -0.002262949 0.0041837092 -0.0049179788,
                              -0.002716183 -0.0043358202 -0.007181942,
                              -0.0022519231 0.0041483641 0.0049179788,
                              -0.002716183 -0.0043358202 0.007181942,
                              0.002716183 -0.0043358202 -0.01436394,
                              0.0021925559 0.0038097501 0.009346663,
                              0.002343595 0.0042269821 0,
                              0.002716183 -0.0043358202 0.01436394,
                              0.0021733041 0.0038715601 -0.009346663,
                              0.002716183 -0.0043358202 0,
                              0.0025438659 -3.41187e-006 0.01187521,
                              0.0025424359 1.00211e-006 -0.01187521,
                              0.0023564689 0.002032995 0.01083952,
                              0.0023454421 0.0020683401 -0.01083952,
                              0.0026378031 -0.002159595 0.01310354,
                              0.0026378031 -0.002159595 -0.01310354,
                              0.002716183 -0.0043358202 -0.007181942,
                              0.002251863 0.0041837092 -0.0049179788,
                              0.002716183 -0.0043358202 0.007181942,
                              0.0022628901 0.0041483641 0.0049179788 ]

                        }
                        normal 
                        DEF _+0 Normal {
                          vector [  ]

                        }
                        coordIndex [ 37, 1, 54, -1, 96, 85, 2, -1,
                            62, 32, 3, -1, 80, 70, 0, -1,
                            92, 35, 2, -1, 76, 34, 5, -1,
                            52, 39, 9, -1, 87, 10, 44, -1,
                            33, 11, 45, -1, 71, 8, 42, -1,
                            66, 13, 58, -1, 83, 15, 59, -1,
                            77, 40, 13, -1, 93, 41, 12, -1,
                            79, 68, 16, -1, 95, 84, 17, -1,
                            26, 19, 60, -1, 65, 35, 21, -1,
                            90, 32, 21, -1, 74, 31, 18, -1,
                            51, 28, 22, -1, 36, 23, 49, -1,
                            75, 29, 24, -1, 91, 30, 25, -1,
                            61, 21, 32, -1, 23, 33, 50, -1,
                            0, 26, 63, -1, 3, 32, 90, -1,
                            67, 4, 31, -1, 42, 8, 28, -1,
                            70, 15, 29, -1, 86, 14, 30, -1,
                            19, 37, 64, -1, 88, 21, 35, -1,
                            72, 18, 34, -1, 48, 22, 39, -1,
                            73, 24, 40, -1, 89, 25, 41, -1,
                            55, 2, 35, -1, 10, 36, 53, -1,
                            34, 52, 43, -1, 94, 44, 6, -1,
                            50, 45, 7, -1, 78, 42, 4, -1,
                            69, 79, 46, -1, 86, 95, 47, -1,
                            31, 51, 48, -1, 53, 49, 20, -1,
                            49, 50, 27, -1, 4, 42, 51, -1,
                            18, 48, 52, -1, 44, 53, 38, -1,
                            64, 54, 9, -1, 96, 55, 10, -1,
                            33, 62, 56, -1, 71, 80, 57, -1,
                            68, 81, 58, -1, 97, 59, 17, -1,
                            63, 60, 22, -1, 36, 65, 61, -1,
                            23, 61, 62, -1, 57, 63, 28, -1,
                            60, 64, 39, -1, 10, 55, 65, -1,
                            59, 15, 70, -1, 76, 69, 12, -1,
                            17, 71, 78, -1, 1, 66, 81, -1,
                            77, 66, 1, -1, 9, 68, 79, -1,
                            74, 72, 25, -1, 75, 73, 19, -1,
                            67, 74, 30, -1, 0, 70, 75, -1,
                            72, 76, 41, -1, 73, 77, 37, -1,
                            47, 78, 67, -1, 5, 43, 79, -1,
                            17, 59, 80, -1, 54, 81, 68, -1,
                            13, 85, 96, -1, 92, 85, 13, -1,
                            16, 87, 94, -1, 3, 83, 97, -1,
                            93, 82, 6, -1, 45, 11, 84, -1,
                            90, 88, 24, -1, 91, 89, 20, -1,
                            83, 90, 29, -1, 7, 86, 91, -1,
                            88, 92, 40, -1, 89, 93, 38, -1,
                            12, 46, 94, -1, 7, 45, 95, -1,
                            16, 58, 96, -1, 56, 97, 84, -1,
                            64, 37, 54, -1, 55, 96, 2, -1,
                            56, 62, 3, -1, 57, 80, 0, -1,
                            85, 92, 2, -1, 69, 76, 5, -1,
                            43, 52, 9, -1, 94, 87, 44, -1,
                            50, 33, 45, -1, 78, 71, 42, -1,
                            81, 66, 58, -1, 97, 83, 59, -1,
                            66, 77, 13, -1, 82, 93, 12, -1,
                            46, 79, 16, -1, 47, 95, 17, -1,
                            63, 26, 60, -1, 61, 65, 21, -1,
                            88, 90, 21, -1, 72, 74, 18, -1,
                            48, 51, 22, -1, 53, 36, 49, -1,
                            73, 75, 24, -1, 89, 91, 25, -1,
                            62, 61, 32, -1, 49, 23, 50, -1,
                            57, 0, 63, -1, 83, 3, 90, -1,
                            74, 67, 31, -1, 51, 42, 28, -1,
                            75, 70, 29, -1, 91, 86, 30, -1,
                            60, 19, 64, -1, 92, 88, 35, -1,
                            76, 72, 34, -1, 52, 48, 39, -1,
                            77, 73, 40, -1, 93, 89, 41, -1,
                            65, 55, 35, -1, 44, 10, 53, -1,
                            5, 34, 43, -1, 82, 94, 6, -1,
                            27, 50, 7, -1, 67, 78, 4, -1,
                            12, 69, 46, -1, 14, 86, 47, -1,
                            18, 31, 48, -1, 38, 53, 20, -1,
                            20, 49, 27, -1, 31, 4, 51, -1,
                            34, 18, 52, -1, 6, 44, 38, -1,
                            39, 64, 9, -1, 87, 96, 10, -1,
                            11, 33, 56, -1, 8, 71, 57, -1,
                            16, 68, 58, -1, 84, 97, 17, -1,
                            28, 63, 22, -1, 23, 36, 61, -1,
                            33, 23, 62, -1, 8, 57, 28, -1,
                            22, 60, 39, -1, 36, 10, 65, -1,
                            80, 59, 70, -1, 41, 76, 12, -1,
                            47, 17, 78, -1, 54, 1, 81, -1,
                            37, 77, 1, -1, 43, 9, 79, -1,
                            30, 74, 25, -1, 26, 75, 19, -1,
                            14, 67, 30, -1, 26, 0, 75, -1,
                            25, 72, 41, -1, 19, 73, 37, -1,
                            14, 47, 67, -1, 69, 5, 79, -1,
                            71, 17, 80, -1, 9, 54, 68, -1,
                            58, 13, 96, -1, 40, 92, 13, -1,
                            46, 16, 94, -1, 56, 3, 97, -1,
                            38, 93, 6, -1, 95, 45, 84, -1,
                            29, 90, 24, -1, 27, 91, 20, -1,
                            15, 83, 29, -1, 27, 7, 91, -1,
                            24, 88, 40, -1, 20, 89, 38, -1,
                            82, 12, 94, -1, 86, 7, 95, -1,
                            87, 16, 96, -1, 11, 56, 84 ]
                        ccw TRUE
                        solid FALSE
                        convex TRUE
                        creaseAngle 0

                      }

                    }

                }

            }

        },
          
        Group {
          children 
            Transform {
              translation 9.5495434e-010 -0.11 -0.093168005
              rotation -0.70710671 0.70710683 -5.3385072e-008  3.1415925
              scale 1 1 1
              scaleOrientation 0 0 1  0
              children 
                Transform {
                  translation -0.11 -1.15872e-009 -0.121896
                  rotation 5.3526361e-005 5.3674605e-005 -0.99999994  1.5707967
                  scale 1 1 1
                  scaleOrientation 0 0 1  0
                  children 
                    Shape {
                      appearance 
                      Appearance {
                        material 
                        Material {
                          diffuseColor 0.082025923 0.063583359 0.041056361

                        }

                      }
                      geometry 
                      IndexedFaceSet {
                        coord 
                        Coordinate {
                          point [ 0 0 0.004041492,
                              0 0 0.004041492,
                              0 0 0.004041492,
                              0 0 0.004041492,
                              0 0 0.004041492,
                              0 0 0.004041492,
                              0 0 0.004041492,
                              0 0 0.004041492,
                              0 0 0.004041492,
                              0 0 0.004041492,
                              0 0 0.004041492,
                              0 0 0.004041492,
                              0 0 0.004041492,
                              0 0 0.004041492,
                              0 0 0.004041492,
                              0 0 0.004041492,
                              0 0 0.004041492,
                              0 0 0.004041492,
                              0 0 0.004041492,
                              0 0 0.004041492,
                              0 0 0.004041492,
                              0 0 0.004041492,
                              0 0 0.004041492,
                              0 0 0.004041492,
                              0 0 0.004041492,
                              0 0 0.004041492,
                              0 0 0.004041492,
                              0 0 0.004041492,
                              0 0 0.004041492,
                              0 0 0.004041492,
                              0 0 0.004041492,
                              0 0 0.004041492,
                              -0.00043763299 0.00043763101 0.0039940472,
                              -0.00029344199 0.00054670102 0.0039940472,
                              -0.00016724299 0.00059985201 0.0039940472,
                              -7.3480202e-005 0.00061675702 0.0039940472,
                              0 0.00061890401 0.0039940472,
                              7.3482603e-005 0.00061675702 0.0039940472,
                              0.000167238 0.00059985201 0.0039940472,
                              0.00029343701 0.00054670102 0.0039940472,
                              0.000437635 0.00043763101 0.0039940472,
                              0.00054670603 0.00029343899 0.0039940472,
                              0.00059985498 0.00016724 0.0039940472,
                              0.000616759 7.34844e-005 0.0039940472,
                              0.00061889901 0 0.0039940472,
                              0.000616759 -7.34852e-005 0.0039940472,
                              0.00059985498 -0.000167241 0.0039940472,
                              0.00054670603 -0.00029344001 0.0039940472,
                              0.00043762801 -0.00043763101 0.0039940472,
                              0.00029343701 -0.00054670201 0.0039940472,
                              0.000167238 -0.00059985201 0.0039940472,
                              7.3482603e-005 -0.00061675801 0.0039940472,
                              0 -0.00061890401 0.0039940472,
                              -7.3487397e-005 -0.00061675801 0.0039940472,
                              -0.000167235 -0.00059985201 0.0039940472,
                              -0.00029344199 -0.00054670201 0.0039940472,
                              -0.00043763299 -0.00043763101 0.0039940472,
                              -0.000546703 -0.00029344001 0.0039940472,
                              -0.000599853 -0.00016724 0.0039940472,
                              -0.00061675702 -7.3485098e-005 0.0039940472,
                              -0.00061890401 0 0.0039940472,
                              -0.00061675702 7.3484502e-005 0.0039940472,
                              -0.00059984601 0.00016724 0.0039940472,
                              -0.00054669601 0.00029343899 0.0039940472,
                              -0.00088702398 0.00088702701 0.003843009,
                              -0.00059476699 0.00110805 0.003843009,
                              -0.000338974 0.001215815 0.003843009,
                              -0.000148946 0.001250088 0.003843009,
                              0 0.001254439 0.003843009,
                              0.00014894101 0.001250088 0.003843009,
                              0.00033897601 0.001215815 0.003843009,
                              0.00059476198 0.00110805 0.003843009,
                              0.00088702602 0.00088702701 0.003843009,
                              0.00110805 0.00059476699 0.003843009,
                              0.001215815 0.00033897601 0.003843009,
                              0.001250088 0.00014894499 0.003843009,
                              0.001254439 0 0.003843009,
                              0.001250088 -0.000148946 0.003843009,
                              0.001215815 -0.000338977 0.003843009,
                              0.00110805 -0.00059476797 0.003843009,
                              0.00088701898 -0.000887028 0.003843009,
                              0.00059477001 -0.00110805 0.003843009,
                              0.00033897601 -0.001215815 0.003843009,
                              0.00014894801 -0.001250088 0.003843009,
                              0 -0.001254439 0.003843009,
                              -0.000148946 -0.001250088 0.003843009,
                              -0.000338974 -0.001215815 0.003843009,
                              -0.00059476699 -0.00110805 0.003843009,
                              -0.00088702398 -0.00088702701 0.003843009,
                              -0.00110805 -0.00059476797 0.003843009,
                              -0.001215815 -0.000338977 0.003843009,
                              -0.001250088 -0.00014894499 0.003843009,
                              -0.001254439 0 0.003843009,
                              -0.001250088 0.00014894499 0.003843009,
                              -0.001215815 0.00033897601 0.003843009,
                              -0.00110805 0.00059476699 0.003843009,
                              -0.001329839 0.001329839 0.0035800331,
                              -0.00089169602 0.0016612411 0.0035800331,
                              -0.00050820899 0.0018227689 0.0035800331,
                              -0.00022330901 0.001874148 0.0035800331,
                              0 0.0018806451 0.0035800331,
                              0.000223296 0.001874148 0.0035800331,
                              0.000508197 0.0018227689 0.0035800331,
                              0.00089169102 0.0016612411 0.0035800331,
                              0.001329839 0.001329839 0.0035800331,
                              0.0016612411 0.00089169201 0.0035800331,
                              0.0018227689 0.00050820201 0.0035800331,
                              0.001874148 0.00022330201 0.0035800331,
                              0.0018806451 0 0.0035800331,
                              0.001874148 -0.000223303 0.0035800331,
                              0.0018227689 -0.000508203 0.0035800331,
                              0.0016612411 -0.00089169299 0.0035800331,
                              0.001329839 -0.001329839 0.0035800331,
                              0.00089169102 -0.0016612411 0.0035800331,
                              0.000508197 -0.0018227689 0.0035800331,
                              0.000223296 -0.001874148 0.0035800331,
                              0 -0.0018806451 0.0035800331,
                              -0.00022330201 -0.001874148 0.0035800331,
                              -0.00050820201 -0.0018227689 0.0035800331,
                              -0.00089168898 -0.0016612411 0.0035800331,
                              -0.001329839 -0.001329839 0.0035800331,
                              -0.0016612411 -0.00089169201 0.0035800331,
                              -0.0018227689 -0.000508203 0.0035800331,
                              -0.001874148 -0.000223303 0.0035800331,
                              -0.0018806451 0 0.0035800331,
                              -0.001874148 0.00022330201 0.0035800331,
                              -0.0018227689 0.000508203 0.0035800331,
                              -0.0016612411 0.00089169201 0.0035800331,
                              -0.001745283 0.001745283 0.0032055969,
                              -0.0011702169 0.0021802781 0.0032055969,
                              -0.00066697598 0.002392232 0.0032055969,
                              -0.00029306501 0.0024597039 0.0032055969,
                              0 0.0024682281 0.0032055969,
                              0.00029306699 0.0024597039 0.0032055969,
                              0.00066697801 0.002392232 0.0032055969,
                              0.0011702169 0.0021802781 0.0032055969,
                              0.001745283 0.001745283 0.0032055969,
                              0.0021802781 0.0011702169 0.0032055969,
                              0.002392232 0.000666974 0.0032055969,
                              0.002459645 0.000293066 0.0032055969,
                              0.0024682281 0 0.0032055969,
                              0.0024597039 -0.00029306699 0.0032055969,
                              0.002392232 -0.00066697499 0.0032055969,
                              0.0021802781 -0.0011702169 0.0032055969,
                              0.001745283 -0.001745283 0.0032055969,
                              0.0011702169 -0.0021802781 0.0032055969,
                              0.00066696998 -0.002392232 0.0032055969,
                              0.00029306699 -0.0024597039 0.0032055969,
                              0 -0.0024682281 0.0032055969,
                              -0.00029306501 -0.0024597039 0.0032055969,
                              -0.00066697598 -0.002392232 0.0032055969,
                              -0.001170277 -0.0021802781 0.0032055969,
                              -0.001745283 -0.001745283 0.0032055969,
                              -0.0021802781 -0.0011702169 0.0032055969,
                              -0.002392232 -0.00066697499 0.0032055969,
                              -0.0024597039 -0.00029306699 0.0032055969,
                              -0.0024682281 0 0.0032055969,
                              -0.002459645 0.000293066 0.0032055969,
                              -0.002392232 0.000666974 0.0032055969,
                              -0.0021802781 0.0011702169 0.0032055969,
                              -0.0021129251 0.0021129251 0.0027304881,
                              -0.001416742 0.0026395321 0.0027304881,
                              -0.00080745202 0.0028961301 0.0027304881,
                              -0.00035478899 0.0029777279 0.0027304881,
                              0 0.0029881001 0.0027304881,
                              0.00035479901 0.0029777279 0.0027304881,
                              0.00080745399 0.0028961301 0.0027304881,
                              0.001416742 0.0026395321 0.0027304881,
                              0.0021129251 0.0021129251 0.0027304881,
                              0.0026395321 0.001416742 0.0027304881,
                              0.0028961301 0.00080745399 0.0027304881,
                              0.0029777279 0.00035479199 0.0027304881,
                              0.0029881001 0 0.0027304881,
                              0.0029777279 -0.000354794 0.0027304881,
                              0.0028961301 -0.00080745597 0.0027304881,
                              0.0026395321 -0.001416742 0.0027304881,
                              0.0021129251 -0.0021129251 0.0027304881,
                              0.001416742 -0.0026395321 0.0027304881,
                              0.00080746203 -0.0028961301 0.0027304881,
                              0.00035479199 -0.0029777279 0.0027304881,
                              0 -0.0029881001 0.0027304881,
                              -0.000354797 -0.0029777279 0.0027304881,
                              -0.00080745999 -0.0028961301 0.0027304881,
                              -0.001416742 -0.0026395321 0.0027304881,
                              -0.0021129251 -0.0021129251 0.0027304881,
                              -0.0026395321 -0.001416742 0.0027304881,
                              -0.0028961301 -0.00080745498 0.0027304881,
                              -0.0029777279 -0.00035479301 0.0027304881,
                              -0.0029881001 0 0.0027304881,
                              -0.0029777279 0.00035479301 0.0027304881,
                              -0.0028961301 0.00080745498 0.0027304881,
                              -0.0026395321 0.001416742 0.0027304881,
                              -0.0024155369 0.0024155369 0.002174913,
                              -0.001619637 0.003017544 0.002174913,
                              -0.00092311 0.0033109181 0.002174913,
                              -0.00040560999 0.003404259 0.002174913,
                              0 0.0034160609 0.002174913,
                              0.00040560501 0.003404259 0.002174913,
                              0.00092310499 0.0033109181 0.002174913,
                              0.001619637 0.003017544 0.002174913,
                              0.0024155369 0.0024155369 0.002174913,
                              0.003017544 0.001619637 0.002174913,
                              0.0033109181 0.000923104 0.002174913,
                              0.003404259 0.00040560801 0.002174913,
                              0.0034160609 0 0.002174913,
                              0.003404259 -0.000405609 0.002174913,
                              0.0033109181 -0.00092310499 0.002174913,
                              0.003017544 -0.001619637 0.002174913,
                              0.0024155369 -0.0024155369 0.002174913,
                              0.001619637 -0.003017544 0.002174913,
                              0.00092310499 -0.0033109181 0.002174913,
                              0.00040560501 -0.003404259 0.002174913,
                              0 -0.0034160609 0.002174913,
                              -0.00040560999 -0.003404259 0.002174913,
                              -0.00092310301 -0.0033109181 0.002174913,
                              -0.001619637 -0.003017544 0.002174913,
                              -0.0024155369 -0.0024155369 0.002174913,
                              -0.003017544 -0.001619637 0.002174913,
                              -0.0033109181 -0.000923104 0.002174913,
                              -0.003404259 -0.000405609 0.002174913,
                              -0.003416121 0 0.002174913,
                              -0.003404259 0.000405609 0.002174913,
                              -0.0033109181 0.000923104 0.002174913,
                              -0.003017544 0.001619637 0.002174913,
                              -0.002642035 0.002642035 0.001565992,
                              -0.0017715089 0.0033004871 0.001565992,
                              -0.001009643 0.0036213989 0.001565992,
                              -0.00044363999 0.0037234421 0.001565992,
                              0 0.0037363761 0.001565992,
                              0.00044364299 0.0037234421 0.001565992,
                              0.001009643 0.0036213989 0.001565992,
                              0.0017715089 0.0033004871 0.001565992,
                              0.002642035 0.002642035 0.001565992,
                              0.0033004871 0.0017715089 0.001565992,
                              0.0036213989 0.001009643 0.001565992,
                              0.0037234421 0.00044363999 0.001565992,
                              0.0037363761 0 0.001565992,
                              0.0037234421 -0.00044364101 0.001565992,
                              0.0036213989 -0.001009643 0.001565992,
                              0.0033004871 -0.0017715089 0.001565992,
                              0.002642035 -0.002642035 0.001565992,
                              0.0017715089 -0.0033004871 0.001565992,
                              0.001009643 -0.0036213989 0.001565992,
                              0.00044364299 -0.0037234421 0.001565992,
                              0 -0.0037363761 0.001565992,
                              -0.00044363999 -0.0037234421 0.001565992,
                              -0.001009643 -0.0036213989 0.001565992,
                              -0.0017715089 -0.0033004871 0.001565992,
                              -0.002642035 -0.002642035 0.001565992,
                              -0.0033004871 -0.0017715089 0.001565992,
                              -0.0036213989 -0.001009643 0.001565992,
                              -0.0037234421 -0.00044364101 0.001565992,
                              -0.0037363761 0 0.001565992,
                              -0.0037234421 0.00044363999 0.001565992,
                              -0.0036213989 0.001009643 0.001565992,
                              -0.0033004871 0.0017715089 0.001565992,
                              -0.002788424 0.002788424 0.00093340903,
                              -0.001869678 0.003483414 0.00093340903,
                              -0.001065552 0.003822088 0.00093340903,
                              -0.00046822699 0.0039297929 0.00093340903,
                              0 0.0039434428 0.00093340903,
                              0.00046822999 0.0039297929 0.00093340903,
                              0.001065611 0.003822088 0.00093340903,
                              0.001869678 0.003483414 0.00093340903,
                              0.002788424 0.002788424 0.00093340903,
                              0.003483414 0.001869678 0.00093340903,
                              0.003822088 0.001065611 0.00093340903,
                              0.0039297929 0.000468226 0.00093340903,
                              0.0039434428 0 0.00093340903,
                              0.0039297929 -0.00046822801 0.00093340903,
                              0.003822088 -0.001065611 0.00093340903,
                              0.003483414 -0.001869678 0.00093340903,
                              0.002788424 -0.002788424 0.00093340903,
                              0.001869678 -0.003483414 0.00093340903,
                              0.001065611 -0.003822088 0.00093340903,
                              0.00046822199 -0.0039297929 0.00093340903,
                              0 -0.0039434428 0.00093340903,
                              -0.00046822699 -0.0039297929 0.00093340903,
                              -0.001065552 -0.003822088 0.00093340903,
                              -0.001869678 -0.003483414 0.00093340903,
                              -0.002788424 -0.002788424 0.00093340903,
                              -0.003483414 -0.001869678 0.00093340903,
                              -0.003822088 -0.001065611 0.00093340903,
                              -0.0039297929 -0.00046822699 0.00093340903,
                              -0.003943502 0 0.00093340903,
                              -0.0039297929 0.000468226 0.00093340903,
                              -0.003822088 0.001065611 0.00093340903,
                              -0.003483414 0.001869678 0.00093340903,
                              -0.002857744 0.002857744 0.000305077,
                              -0.00191617 0.00357002 0.000305077,
                              -0.001092076 0.003917098 0.000305077,
                              -0.00047986399 0.0040274849 0.000305077,
                              0 0.004041492 0.000305077,
                              0.00047986599 0.0040274849 0.000305077,
                              0.001092076 0.003917098 0.000305077,
                              0.00191617 0.00357002 0.00030506999,
                              0.002857744 0.002857744 0.00030506999,
                              0.00357002 0.00191617 0.00030506999,
                              0.003917098 0.001092076 0.00030506999,
                              0.0040274849 0.00047986399 0.00030506999,
                              0.004041492 0 0.00030506999,
                              0.0040274849 -0.000479865 0.00030506999,
                              0.003917098 -0.001092076 0.00030506999,
                              0.00357002 -0.00191617 0.00030506999,
                              0.002857744 -0.002857744 0.00030506999,
                              0.00191617 -0.00357002 0.00030506999,
                              0.001092076 -0.003917098 0.000305077,
                              0.00047985901 -0.0040274849 0.000305077,
                              0 -0.004041492 0.000305077,
                              -0.00047986399 -0.0040274849 0.000305077,
                              -0.001092076 -0.003917098 0.000305077,
                              -0.00191617 -0.00357002 0.000305077,
                              -0.002857744 -0.002857744 0.000305077,
                              -0.00357002 -0.00191617 0.000305077,
                              -0.003917098 -0.001092076 0.000305077,
                              -0.0040274849 -0.000479865 0.000305077,
                              -0.004041492 0 0.000305077,
                              -0.0040274849 0.00047986399 0.000305077,
                              -0.003917098 0.001092076 0.000305077,
                              -0.00357002 0.00191617 0.000305077,
                              -0.002857744 0.002857744 -0.00030510899,
                              -0.00191617 0.00357002 -0.00030510899,
                              -0.001092076 0.003917098 -0.00030511501,
                              -0.00047986399 0.0040274849 -0.00030511501,
                              0 0.004041492 -0.00030511501,
                              0.00047986599 0.0040274849 -0.00030511501,
                              0.001092076 0.003917098 -0.00030511501,
                              0.00191617 0.00357002 -0.00030511501,
                              0.002857744 0.002857744 -0.00030511501,
                              0.00357002 0.00191617 -0.00030511501,
                              0.003917098 0.001092076 -0.00030511501,
                              0.0040274849 0.00047986399 -0.00030511501,
                              0.004041492 0 -0.00030511501,
                              0.0040274849 -0.000479865 -0.00030511501,
                              0.003917098 -0.001092076 -0.00030511501,
                              0.00357002 -0.00191617 -0.00030511501,
                              0.002857744 -0.002857744 -0.00030511501,
                              0.00191617 -0.00357002 -0.00030511501,
                              0.001092076 -0.003917098 -0.00030511501,
                              0.00047985901 -0.0040274849 -0.00030511501,
                              0 -0.004041492 -0.00030511501,
                              -0.00047986399 -0.0040274849 -0.00030511501,
                              -0.001092076 -0.003917098 -0.00030511501,
                              -0.00191617 -0.00357002 -0.00030510899,
                              -0.002857744 -0.002857744 -0.00030510899,
                              -0.00357002 -0.00191617 -0.00030510899,
                              -0.003917098 -0.001092076 -0.00030510899,
                              -0.0040274849 -0.000479865 -0.00030510899,
                              -0.004041492 0 -0.00030510899,
                              -0.0040274849 0.00047986399 -0.00030510899,
                              -0.003917098 0.001092076 -0.00030510899,
                              -0.00357002 0.00191617 -0.00030510899,
                              -0.002788424 0.002788424 -0.00093344698,
                              -0.001869678 0.003483414 -0.00093344698,
                              -0.001065552 0.003822088 -0.00093344698,
                              -0.00046822699 0.0039297929 -0.00093344698,
                              0 0.0039434428 -0.00093344698,
                              0.00046822199 0.0039297929 -0.00093344698,
                              0.001065611 0.003822088 -0.00093344698,
                              0.001869678 0.003483414 -0.00093344698,
                              0.002788424 0.002788424 -0.00093344698,
                              0.003483414 0.001869678 -0.00093344698,
                              0.003822088 0.001065611 -0.00093344698,
                              0.0039297929 0.000468226 -0.00093344698,
                              0.0039434428 0 -0.00093344698,
                              0.0039297929 -0.00046822801 -0.00093344698,
                              0.003822088 -0.001065611 -0.00093344698,
                              0.003483414 -0.001869678 -0.00093344698,
                              0.002788424 -0.002788424 -0.00093344698,
                              0.001869678 -0.003483414 -0.00093344698,
                              0.001065611 -0.003822088 -0.00093344698,
                              0.00046822199 -0.0039297929 -0.00093344698,
                              0 -0.0039434428 -0.00093344698,
                              -0.00046822699 -0.0039297929 -0.00093344698,
                              -0.001065552 -0.003822088 -0.00093344698,
                              -0.001869678 -0.003483414 -0.00093344698,
                              -0.002788424 -0.002788424 -0.00093344098,
                              -0.003483414 -0.001869678 -0.00093344098,
                              -0.003822088 -0.001065611 -0.00093344698,
                              -0.0039297929 -0.00046822699 -0.00093344098,
                              -0.003943502 0 -0.00093344098,
                              -0.0039297929 0.00046822699 -0.00093344098,
                              -0.003822088 0.001065611 -0.00093344098,
                              -0.003483414 0.001869678 -0.00093344098,
                              -0.002642035 0.002642035 -0.001566052,
                              -0.0017715089 0.0033004871 -0.001566052,
                              -0.001009643 0.0036213989 -0.001566052,
                              -0.00044363999 0.0037234421 -0.001566052,
                              0 0.0037363761 -0.001566052,
                              0.00044364299 0.0037234421 -0.001566052,
                              0.001009643 0.0036213989 -0.001566052,
                              0.0017715089 0.0033004871 -0.001566052,
                              0.002642035 0.002642035 -0.001566052,
                              0.0033004871 0.0017715089 -0.001566052,
                              0.0036213989 0.001009643 -0.001566052,
                              0.0037234421 0.00044363999 -0.001566052,
                              0.0037363761 0 -0.001566052,
                              0.0037234421 -0.00044364101 -0.001566052,
                              0.0036213989 -0.001009643 -0.001566052,
                              0.0033004871 -0.0017715089 -0.001566052,
                              0.002642035 -0.002642035 -0.001566052,
                              0.0017715089 -0.0033004871 -0.001566052,
                              0.001009643 -0.0036213989 -0.001566052,
                              0.00044364299 -0.0037234421 -0.001566052,
                              0 -0.0037363761 -0.001566052,
                              -0.000443647 -0.0037234421 -0.001566052,
                              -0.001009643 -0.0036213989 -0.001566052,
                              -0.0017715089 -0.0033004871 -0.001566052,
                              -0.002642035 -0.002642035 -0.001566052,
                              -0.0033004871 -0.0017715089 -0.001566052,
                              -0.0036213989 -0.001009643 -0.001566052,
                              -0.0037234421 -0.00044364101 -0.001566052,
                              -0.0037363761 0 -0.001566052,
                              -0.0037234421 0.00044363999 -0.001566052,
                              -0.0036213989 0.001009643 -0.001566052,
                              -0.0033004871 0.0017715089 -0.001566052,
                              -0.0024155369 0.0024155369 -0.002174973,
                              -0.001619637 0.003017544 -0.002174973,
                              -0.00092310301 0.0033109181 -0.002174973,
                              -0.000405617 0.003404259 -0.002174973,
                              0 0.0034160609 -0.002174973,
                              0.00040560501 0.003404259 -0.002174973,
                              0.00092310499 0.0033109181 -0.002174973,
                              0.001619637 0.003017544 -0.002174973,
                              0.0024155369 0.0024155369 -0.002174973,
                              0.003017544 0.001619637 -0.002174973,
                              0.0033109181 0.000923104 -0.002174973,
                              0.003404259 0.00040560801 -0.002174973,
                              0.0034160609 0 -0.002174973,
                              0.003404259 -0.00040560999 -0.002174973,
                              0.0033109181 -0.00092310499 -0.002174973,
                              0.003017544 -0.001619637 -0.002174973,
                              0.0024155369 -0.0024155369 -0.002174973,
                              0.001619637 -0.003017544 -0.002174973,
                              0.00092310499 -0.0033109181 -0.002174973,
                              0.00040560501 -0.003404259 -0.002174973,
                              0 -0.0034160609 -0.002174973,
                              -0.00040560999 -0.003404259 -0.002174973,
                              -0.00092311 -0.0033109181 -0.002174973,
                              -0.001619637 -0.003017544 -0.002174973,
                              -0.0024155369 -0.0024155369 -0.002174973,
                              -0.003017544 -0.001619637 -0.002174973,
                              -0.0033109181 -0.000923104 -0.002174973,
                              -0.003404259 -0.000405609 -0.002174973,
                              -0.003416121 0 -0.002174973,
                              -0.003404259 0.000405609 -0.002174973,
                              -0.0033109181 0.000923104 -0.002174973,
                              -0.003017544 0.001619637 -0.002174973,
                              -0.0021129251 0.0021129251 -0.0027304881,
                              -0.001416742 0.0026395321 -0.0027304881,
                              -0.00080745202 0.0028961301 -0.0027304881,
                              -0.00035478899 0.0029777279 -0.0027304881,
                              0 0.0029881001 -0.0027304881,
                              0.00035479901 0.0029777279 -0.0027304881,
                              0.00080745399 0.0028961301 -0.0027304881,
                              0.001416742 0.0026395321 -0.0027304881,
                              0.0021129251 0.0021129251 -0.0027304881,
                              0.0026395321 0.001416742 -0.0027304881,
                              0.0028961301 0.00080745498 -0.0027304881,
                              0.0029777279 0.00035479301 -0.0027304881,
                              0.0029881001 0 -0.0027304881,
                              0.0029777279 -0.000354794 -0.0027304881,
                              0.0028961301 -0.00080745597 -0.0027304881,
                              0.0026395321 -0.001416742 -0.0027304881,
                              0.0021129251 -0.0021129251 -0.0027304881,
                              0.001416742 -0.0026395321 -0.0027304881,
                              0.00080746203 -0.0028961301 -0.0027304881,
                              0.00035479901 -0.0029777279 -0.0027304881,
                              0 -0.0029881001 -0.0027304881,
                              -0.000354797 -0.0029777279 -0.0027304881,
                              -0.00080745999 -0.0028961301 -0.0027304881,
                              -0.001416742 -0.0026395321 -0.0027304881,
                              -0.0021129251 -0.0021129251 -0.0027304881,
                              -0.0026395321 -0.001416742 -0.0027304881,
                              -0.0028961301 -0.00080745498 -0.0027304881,
                              -0.0029777279 -0.00035479301 -0.0027304881,
                              -0.0029881001 0 -0.0027304881,
                              -0.0029777279 0.00035479301 -0.0027304881,
                              -0.0028961301 0.00080745498 -0.0027304881,
                              -0.0026395321 0.001416742 -0.0027304881,
                              -0.001745283 0.001745283 -0.003205657,
                              -0.0011702169 0.0021802781 -0.003205657,
                              -0.00066697598 0.002392232 -0.003205657,
                              -0.00029306501 0.0024597039 -0.003205657,
                              0 0.0024682281 -0.003205657,
                              0.000293074 0.0024597039 -0.003205657,
                              0.00066696998 0.002392232 -0.003205657,
                              0.0011702169 0.0021802781 -0.003205657,
                              0.001745283 0.001745283 -0.003205657,
                              0.0021802781 0.0011702169 -0.003205657,
                              0.002392232 0.000666974 -0.003205657,
                              0.002459645 0.000293066 -0.003205657,
                              0.0024682281 0 -0.003205657,
                              0.0024597039 -0.00029306699 -0.003205657,
                              0.002392232 -0.00066697598 -0.003205657,
                              0.0021802781 -0.0011702169 -0.003205657,
                              0.001745283 -0.001745283 -0.003205657,
                              0.001170277 -0.0021802781 -0.003205657,
                              0.00066697801 -0.002392232 -0.003205657,
                              0.00029306699 -0.0024597039 -0.003205657,
                              0 -0.0024682281 -0.003205657,
                              -0.00029306501 -0.0024597039 -0.003205657,
                              -0.00066697598 -0.002392232 -0.003205657,
                              -0.0011702169 -0.0021802781 -0.003205657,
                              -0.001745283 -0.001745283 -0.003205657,
                              -0.0021802781 -0.0011702169 -0.003205657,
                              -0.002392232 -0.00066697499 -0.003205657,
                              -0.0024597039 -0.00029306699 -0.003205657,
                              -0.0024682281 0 -0.003205657,
                              -0.002459645 0.000293066 -0.003205657,
                              -0.002392232 0.00066697499 -0.003205657,
                              -0.0021802781 0.0011702169 -0.003205657,
                              -0.001329839 0.001329839 -0.0035800929,
                              -0.00089169602 0.0016612411 -0.0035800929,
                              -0.00050820899 0.0018227689 -0.0035800929,
                              -0.00022330201 0.001874148 -0.0035800929,
                              0 0.0018806451 -0.0035800929,
                              0.000223296 0.001874148 -0.0035800929,
                              0.000508197 0.0018227689 -0.0035800929,
                              0.00089169102 0.0016612411 -0.0035800929,
                              0.001329839 0.001329839 -0.0035800929,
                              0.0016612411 0.00089169299 -0.0035800929,
                              0.0018227689 0.000508203 -0.0035800929,
                              0.001874148 0.00022330201 -0.0035800929,
                              0.0018806451 0 -0.0035800929,
                              0.001874148 -0.000223303 -0.0035800929,
                              0.0018227689 -0.00050820399 -0.0035800929,
                              0.0016612411 -0.00089169299 -0.0035800929,
                              0.001329839 -0.001329839 -0.0035800929,
                              0.00089169102 -0.0016612411 -0.0035800929,
                              0.00050820399 -0.0018227689 -0.0035800929,
                              0.000223304 -0.001874148 -0.0035800929,
                              0 -0.0018806451 -0.0035800929,
                              -0.00022330201 -0.001874148 -0.0035800929,
                              -0.00050820201 -0.0018227689 -0.0035800929,
                              -0.00089169602 -0.0016612411 -0.0035800929,
                              -0.001329839 -0.001329839 -0.0035800929,
                              -0.0016612411 -0.00089169299 -0.0035800929,
                              -0.0018227689 -0.000508203 -0.0035800929,
                              -0.001874148 -0.000223303 -0.0035800929,
                              -0.0018806451 0 -0.0035800929,
                              -0.001874148 0.00022330201 -0.0035800929,
                              -0.0018227689 0.000508203 -0.0035800929,
                              -0.0016612411 0.00089169299 -0.0035800929,
                              -0.00088703103 0.000887028 -0.0038430691,
                              -0.00059476699 0.00110805 -0.0038430691,
                              -0.000338974 0.001215815 -0.0038430691,
                              -0.000148939 0.001250088 -0.0038430691,
                              0 0.001254439 -0.0038430691,
                              0.00014894801 0.001250088 -0.0038430691,
                              0.00033897601 0.001215815 -0.0038430691,
                              0.00059476198 0.00110805 -0.0038430691,
                              0.00088702602 0.000887028 -0.0038430691,
                              0.00110805 0.00059476797 -0.0038430691,
                              0.001215815 0.00033897601 -0.0038430691,
                              0.001250088 0.00014894499 -0.0038430691,
                              0.001254439 0 -0.0038430691,
                              0.001250088 -0.000148946 -0.0038430691,
                              0.001215815 -0.000338977 -0.0038430691,
                              0.00110805 -0.00059476902 -0.0038430691,
                              0.00088702602 -0.00088702899 -0.0038430691,
                              0.00059477001 -0.00110805 -0.0038430691,
                              0.00033897601 -0.001215815 -0.0038430691,
                              0.00014894801 -0.001250088 -0.0038430691,
                              0 -0.001254439 -0.0038430691,
                              -0.000148953 -0.001250088 -0.0038430691,
                              -0.00033898099 -0.001215815 -0.0038430691,
                              -0.00059477403 -0.00110805 -0.0038430691,
                              -0.00088703103 -0.00088702899 -0.0038430691,
                              -0.00110805 -0.00059476902 -0.0038430691,
                              -0.001215815 -0.000338977 -0.0038430691,
                              -0.001250088 -0.00014894499 -0.0038430691,
                              -0.001254439 0 -0.0038430691,
                              -0.001250088 0.00014894499 -0.0038430691,
                              -0.001215815 0.000338977 -0.0038430691,
                              -0.00110805 0.00059476797 -0.0038430691,
                              -0.00043763299 0.000437632 -0.0039941068,
                              -0.00029344199 0.000546703 -0.0039941068,
                              -0.00016724299 0.000599853 -0.0039941068,
                              -7.3487397e-005 0.000616759 -0.0039941068,
                              0 0.000618905 -0.0039941068,
                              7.3482603e-005 0.000616759 -0.0039941068,
                              0.000167238 0.000599853 -0.0039941068,
                              0.00029343701 0.000546703 -0.0039941068,
                              0.00043762801 0.000437632 -0.0039941068,
                              0.00054670603 0.00029344001 -0.0039941068,
                              0.00059985498 0.00016724 -0.0039941068,
                              0.000616759 7.3484603e-005 -0.0039941068,
                              0.00061890698 0 -0.0039941068,
                              0.000616759 -7.3485397e-005 -0.0039941068,
                              0.00059985498 -0.000167241 -0.0039941068,
                              0.00054669898 -0.000293441 -0.0039941068,
                              0.000437635 -0.00043763299 -0.0039941068,
                              0.00029343701 -0.00054670399 -0.0039941068,
                              0.000167238 -0.00059985399 -0.0039941068,
                              7.3482603e-005 -0.000616759 -0.0039941068,
                              0 -0.00061890599 -0.0039941068,
                              -7.3487397e-005 -0.000616759 -0.0039941068,
                              -0.00016724299 -0.00059985399 -0.0039941068,
                              -0.00029344199 -0.00054670399 -0.0039941068,
                              -0.00043763299 -0.00043763299 -0.0039941068,
                              -0.00054671097 -0.000293441 -0.0039941068,
                              -0.00059985998 -0.000167241 -0.0039941068,
                              -0.00061676401 -7.3485302e-005 -0.0039941068,
                              -0.00061890401 0 -0.0039941068,
                              -0.00061676401 7.3484698e-005 -0.0039941068,
                              -0.00059985998 0.00016724 -0.0039941068,
                              -0.00054671097 0.00029344001 -0.0039941068,
                              0 0 -0.004041492,
                              0 0 -0.004041492,
                              0 0 -0.004041492,
                              0 0 -0.004041492,
                              0 0 -0.004041492,
                              0 0 -0.004041492,
                              0 0 -0.004041492,
                              0 0 -0.004041492,
                              0 0 -0.004041492,
                              0 0 -0.004041492,
                              0 0 -0.004041492,
                              0 0 -0.004041492,
                              0 0 -0.004041492,
                              0 0 -0.004041492,
                              0 0 -0.004041492,
                              0 0 -0.004041492,
                              0 0 -0.004041492,
                              0 0 -0.004041492,
                              0 0 -0.004041492,
                              0 0 -0.004041492,
                              0 0 -0.004041492,
                              0 0 -0.004041492,
                              0 0 -0.004041492,
                              0 0 -0.004041492,
                              0 0 -0.004041492,
                              0 0 -0.004041492,
                              0 0 -0.004041492,
                              0 0 -0.004041492,
                              0 0 -0.004041492,
                              0 0 -0.004041492,
                              0 0 -0.004041492,
                              0 0 -0.004041492 ]

                        }
                        normal 
                        USE _+0
                        coordIndex [ 31, 63, 32, -1, 1, 0, 32, -1,
                            2, 1, 33, -1, 2, 34, 35, -1,
                            3, 35, 36, -1, 5, 4, 36, -1,
                            6, 5, 37, -1, 6, 38, 39, -1,
                            7, 39, 40, -1, 9, 8, 40, -1,
                            10, 9, 41, -1, 10, 42, 43, -1,
                            11, 43, 44, -1, 13, 12, 44, -1,
                            14, 13, 45, -1, 14, 46, 47, -1,
                            15, 47, 48, -1, 17, 16, 48, -1,
                            18, 17, 49, -1, 18, 50, 51, -1,
                            19, 51, 52, -1, 21, 20, 52, -1,
                            22, 21, 53, -1, 22, 54, 55, -1,
                            23, 55, 56, -1, 25, 24, 56, -1,
                            26, 25, 57, -1, 26, 58, 59, -1,
                            27, 59, 60, -1, 29, 28, 60, -1,
                            30, 29, 61, -1, 30, 62, 63, -1,
                            63, 95, 64, -1, 33, 32, 64, -1,
                            34, 33, 65, -1, 34, 66, 67, -1,
                            35, 67, 68, -1, 37, 36, 68, -1,
                            38, 37, 69, -1, 38, 70, 71, -1,
                            39, 71, 72, -1, 41, 40, 72, -1,
                            42, 41, 73, -1, 42, 74, 75, -1,
                            43, 75, 76, -1, 45, 44, 76, -1,
                            46, 45, 77, -1, 46, 78, 79, -1,
                            47, 79, 80, -1, 49, 48, 80, -1,
                            50, 49, 81, -1, 50, 82, 83, -1,
                            51, 83, 84, -1, 53, 52, 84, -1,
                            54, 53, 85, -1, 54, 86, 87, -1,
                            55, 87, 88, -1, 57, 56, 88, -1,
                            58, 57, 89, -1, 58, 90, 91, -1,
                            59, 91, 92, -1, 61, 60, 92, -1,
                            62, 61, 93, -1, 62, 94, 95, -1,
                            95, 127, 96, -1, 65, 64, 96, -1,
                            66, 65, 97, -1, 66, 98, 99, -1,
                            67, 99, 100, -1, 69, 68, 100, -1,
                            70, 69, 101, -1, 70, 102, 103, -1,
                            71, 103, 104, -1, 73, 72, 104, -1,
                            74, 73, 105, -1, 74, 106, 107, -1,
                            75, 107, 108, -1, 77, 76, 108, -1,
                            78, 77, 109, -1, 78, 110, 111, -1,
                            79, 111, 112, -1, 81, 80, 112, -1,
                            82, 81, 113, -1, 82, 114, 115, -1,
                            83, 115, 116, -1, 85, 84, 116, -1,
                            86, 85, 117, -1, 86, 118, 119, -1,
                            87, 119, 120, -1, 89, 88, 120, -1,
                            90, 89, 121, -1, 90, 122, 123, -1,
                            91, 123, 124, -1, 93, 92, 124, -1,
                            94, 93, 125, -1, 94, 126, 127, -1,
                            127, 159, 128, -1, 97, 96, 128, -1,
                            98, 97, 129, -1, 98, 130, 131, -1,
                            99, 131, 132, -1, 101, 100, 132, -1,
                            102, 101, 133, -1, 102, 134, 135, -1,
                            103, 135, 136, -1, 105, 104, 136, -1,
                            106, 105, 137, -1, 106, 138, 139, -1,
                            107, 139, 140, -1, 109, 108, 140, -1,
                            110, 109, 141, -1, 110, 142, 143, -1,
                            111, 143, 144, -1, 113, 112, 144, -1,
                            114, 113, 145, -1, 114, 146, 147, -1,
                            115, 147, 148, -1, 117, 116, 148, -1,
                            118, 117, 149, -1, 118, 150, 151, -1,
                            119, 151, 152, -1, 121, 120, 152, -1,
                            122, 121, 153, -1, 122, 154, 155, -1,
                            123, 155, 156, -1, 125, 124, 156, -1,
                            126, 125, 157, -1, 126, 158, 159, -1,
                            159, 191, 160, -1, 129, 128, 160, -1,
                            130, 129, 161, -1, 130, 162, 163, -1,
                            131, 163, 164, -1, 133, 132, 164, -1,
                            134, 133, 165, -1, 134, 166, 167, -1,
                            135, 167, 168, -1, 137, 136, 168, -1,
                            138, 137, 169, -1, 138, 170, 171, -1,
                            139, 171, 172, -1, 141, 140, 172, -1,
                            142, 141, 173, -1, 142, 174, 175, -1,
                            143, 175, 176, -1, 145, 144, 176, -1,
                            146, 145, 177, -1, 146, 178, 179, -1,
                            147, 179, 180, -1, 149, 148, 180, -1,
                            150, 149, 181, -1, 150, 182, 183, -1,
                            151, 183, 184, -1, 153, 152, 184, -1,
                            154, 153, 185, -1, 154, 186, 187, -1,
                            155, 187, 188, -1, 157, 156, 188, -1,
                            158, 157, 189, -1, 158, 190, 191, -1,
                            191, 223, 192, -1, 161, 160, 192, -1,
                            162, 161, 193, -1, 162, 194, 195, -1,
                            163, 195, 196, -1, 165, 164, 196, -1,
                            166, 165, 197, -1, 166, 198, 199, -1,
                            167, 199, 200, -1, 169, 168, 200, -1,
                            170, 169, 201, -1, 170, 202, 203, -1,
                            171, 203, 204, -1, 173, 172, 204, -1,
                            174, 173, 205, -1, 174, 206, 207, -1,
                            175, 207, 208, -1, 177, 176, 208, -1,
                            178, 177, 209, -1, 178, 210, 211, -1,
                            179, 211, 212, -1, 181, 180, 212, -1,
                            182, 181, 213, -1, 182, 214, 215, -1,
                            183, 215, 216, -1, 185, 184, 216, -1,
                            186, 185, 217, -1, 186, 218, 219, -1,
                            187, 219, 220, -1, 189, 188, 220, -1,
                            190, 189, 221, -1, 190, 222, 223, -1,
                            223, 255, 224, -1, 193, 192, 224, -1,
                            194, 193, 225, -1, 194, 226, 227, -1,
                            195, 227, 228, -1, 197, 196, 228, -1,
                            198, 197, 229, -1, 198, 230, 231, -1,
                            199, 231, 232, -1, 201, 200, 232, -1,
                            202, 201, 233, -1, 202, 234, 235, -1,
                            203, 235, 236, -1, 205, 204, 236, -1,
                            206, 205, 237, -1, 206, 238, 239, -1,
                            207, 239, 240, -1, 209, 208, 240, -1,
                            210, 209, 241, -1, 210, 242, 243, -1,
                            211, 243, 244, -1, 213, 212, 244, -1,
                            214, 213, 245, -1, 214, 246, 247, -1,
                            215, 247, 248, -1, 217, 216, 248, -1,
                            218, 217, 249, -1, 218, 250, 251, -1,
                            219, 251, 252, -1, 221, 220, 252, -1,
                            222, 221, 253, -1, 222, 254, 255, -1,
                            255, 287, 256, -1, 225, 224, 256, -1,
                            226, 225, 257, -1, 226, 258, 259, -1,
                            227, 259, 260, -1, 229, 228, 260, -1,
                            230, 229, 261, -1, 230, 262, 263, -1,
                            231, 263, 264, -1, 233, 232, 264, -1,
                            234, 233, 265, -1, 234, 266, 267, -1,
                            235, 267, 268, -1, 237, 236, 268, -1,
                            238, 237, 269, -1, 238, 270, 271, -1,
                            239, 271, 272, -1, 241, 240, 272, -1,
                            242, 241, 273, -1, 242, 274, 275, -1,
                            243, 275, 276, -1, 245, 244, 276, -1,
                            246, 245, 277, -1, 246, 278, 279, -1,
                            247, 279, 280, -1, 249, 248, 280, -1,
                            250, 249, 281, -1, 250, 282, 283, -1,
                            251, 283, 284, -1, 253, 252, 284, -1,
                            254, 253, 285, -1, 254, 286, 287, -1,
                            287, 319, 288, -1, 257, 256, 288, -1,
                            258, 257, 289, -1, 258, 290, 291, -1,
                            259, 291, 292, -1, 261, 260, 292, -1,
                            262, 261, 293, -1, 262, 294, 295, -1,
                            263, 295, 296, -1, 265, 264, 296, -1,
                            266, 265, 297, -1, 266, 298, 299, -1,
                            267, 299, 300, -1, 269, 268, 300, -1,
                            270, 269, 301, -1, 270, 302, 303, -1,
                            271, 303, 304, -1, 273, 272, 304, -1,
                            274, 273, 305, -1, 274, 306, 307, -1,
                            275, 307, 308, -1, 277, 276, 308, -1,
                            278, 277, 309, -1, 278, 310, 311, -1,
                            279, 311, 312, -1, 281, 280, 312, -1,
                            282, 281, 313, -1, 282, 314, 315, -1,
                            283, 315, 316, -1, 285, 284, 316, -1,
                            286, 285, 317, -1, 286, 318, 319, -1,
                            288, 319, 351, -1, 289, 288, 320, -1,
                            290, 289, 321, -1, 290, 322, 323, -1,
                            291, 323, 324, -1, 292, 324, 325, -1,
                            293, 325, 326, -1, 295, 294, 326, -1,
                            296, 295, 327, -1, 296, 328, 329, -1,
                            297, 329, 330, -1, 298, 330, 331, -1,
                            299, 331, 332, -1, 301, 300, 332, -1,
                            302, 301, 333, -1, 303, 302, 334, -1,
                            303, 335, 336, -1, 304, 336, 337, -1,
                            305, 337, 338, -1, 306, 338, 339, -1,
                            307, 339, 340, -1, 308, 340, 341, -1,
                            309, 341, 342, -1, 310, 342, 343, -1,
                            311, 343, 344, -1, 312, 344, 345, -1,
                            314, 313, 345, -1, 315, 314, 346, -1,
                            316, 315, 347, -1, 317, 316, 348, -1,
                            318, 317, 349, -1, 319, 318, 350, -1,
                            320, 351, 383, -1, 320, 352, 353, -1,
                            321, 353, 354, -1, 323, 322, 354, -1,
                            324, 323, 355, -1, 324, 356, 357, -1,
                            325, 357, 358, -1, 327, 326, 358, -1,
                            328, 327, 359, -1, 328, 360, 361, -1,
                            329, 361, 362, -1, 331, 330, 362, -1,
                            332, 331, 363, -1, 332, 364, 365, -1,
                            333, 365, 366, -1, 335, 334, 366, -1,
                            336, 335, 367, -1, 336, 368, 369, -1,
                            337, 369, 370, -1, 339, 338, 370, -1,
                            340, 339, 371, -1, 340, 372, 373, -1,
                            341, 373, 374, -1, 343, 342, 374, -1,
                            344, 343, 375, -1, 344, 376, 377, -1,
                            345, 377, 378, -1, 347, 346, 378, -1,
                            348, 347, 379, -1, 348, 380, 381, -1,
                            349, 381, 382, -1, 351, 350, 382, -1,
                            352, 383, 415, -1, 352, 384, 385, -1,
                            353, 385, 386, -1, 355, 354, 386, -1,
                            356, 355, 387, -1, 356, 388, 389, -1,
                            357, 389, 390, -1, 359, 358, 390, -1,
                            360, 359, 391, -1, 360, 392, 393, -1,
                            361, 393, 394, -1, 363, 362, 394, -1,
                            364, 363, 395, -1, 364, 396, 397, -1,
                            365, 397, 398, -1, 367, 366, 398, -1,
                            368, 367, 399, -1, 368, 400, 401, -1,
                            369, 401, 402, -1, 371, 370, 402, -1,
                            372, 371, 403, -1, 372, 404, 405, -1,
                            373, 405, 406, -1, 375, 374, 406, -1,
                            376, 375, 407, -1, 376, 408, 409, -1,
                            377, 409, 410, -1, 379, 378, 410, -1,
                            380, 379, 411, -1, 380, 412, 413, -1,
                            381, 413, 414, -1, 383, 382, 414, -1,
                            384, 415, 447, -1, 384, 416, 417, -1,
                            385, 417, 418, -1, 387, 386, 418, -1,
                            388, 387, 419, -1, 388, 420, 421, -1,
                            389, 421, 422, -1, 391, 390, 422, -1,
                            392, 391, 423, -1, 392, 424, 425, -1,
                            393, 425, 426, -1, 395, 394, 426, -1,
                            396, 395, 427, -1, 396, 428, 429, -1,
                            397, 429, 430, -1, 399, 398, 430, -1,
                            400, 399, 431, -1, 400, 432, 433, -1,
                            401, 433, 434, -1, 403, 402, 434, -1,
                            404, 403, 435, -1, 404, 436, 437, -1,
                            405, 437, 438, -1, 407, 406, 438, -1,
                            408, 407, 439, -1, 408, 440, 441, -1,
                            409, 441, 442, -1, 411, 410, 442, -1,
                            412, 411, 443, -1, 412, 444, 445, -1,
                            413, 445, 446, -1, 415, 414, 446, -1,
                            416, 447, 479, -1, 416, 448, 449, -1,
                            417, 449, 450, -1, 419, 418, 450, -1,
                            420, 419, 451, -1, 420, 452, 453, -1,
                            421, 453, 454, -1, 423, 422, 454, -1,
                            424, 423, 455, -1, 424, 456, 457, -1,
                            425, 457, 458, -1, 427, 426, 458, -1,
                            428, 427, 459, -1, 428, 460, 461, -1,
                            429, 461, 462, -1, 431, 430, 462, -1,
                            432, 431, 463, -1, 432, 464, 465, -1,
                            433, 465, 466, -1, 435, 434, 466, -1,
                            436, 435, 467, -1, 436, 468, 469, -1,
                            437, 469, 470, -1, 439, 438, 470, -1,
                            440, 439, 471, -1, 440, 472, 473, -1,
                            441, 473, 474, -1, 443, 442, 474, -1,
                            444, 443, 475, -1, 444, 476, 477, -1,
                            445, 477, 478, -1, 447, 446, 478, -1,
                            448, 479, 511, -1, 448, 480, 481, -1,
                            449, 481, 482, -1, 451, 450, 482, -1,
                            452, 451, 483, -1, 452, 484, 485, -1,
                            453, 485, 486, -1, 455, 454, 486, -1,
                            456, 455, 487, -1, 456, 488, 489, -1,
                            457, 489, 490, -1, 459, 458, 490, -1,
                            460, 459, 491, -1, 460, 492, 493, -1,
                            461, 493, 494, -1, 463, 462, 494, -1,
                            464, 463, 495, -1, 464, 496, 497, -1,
                            465, 497, 498, -1, 467, 466, 498, -1,
                            468, 467, 499, -1, 468, 500, 501, -1,
                            469, 501, 502, -1, 471, 470, 502, -1,
                            472, 471, 503, -1, 472, 504, 505, -1,
                            473, 505, 506, -1, 475, 474, 506, -1,
                            476, 475, 507, -1, 476, 508, 509, -1,
                            477, 509, 510, -1, 479, 478, 510, -1,
                            480, 511, 543, -1, 480, 512, 513, -1,
                            481, 513, 514, -1, 483, 482, 514, -1,
                            484, 483, 515, -1, 484, 516, 517, -1,
                            485, 517, 518, -1, 487, 486, 518, -1,
                            488, 487, 519, -1, 488, 520, 521, -1,
                            489, 521, 522, -1, 491, 490, 522, -1,
                            492, 491, 523, -1, 492, 524, 525, -1,
                            493, 525, 526, -1, 495, 494, 526, -1,
                            496, 495, 527, -1, 496, 528, 529, -1,
                            497, 529, 530, -1, 499, 498, 530, -1,
                            500, 499, 531, -1, 500, 532, 533, -1,
                            501, 533, 534, -1, 503, 502, 534, -1,
                            504, 503, 535, -1, 504, 536, 537, -1,
                            505, 537, 538, -1, 507, 506, 538, -1,
                            508, 507, 539, -1, 508, 540, 541, -1,
                            509, 541, 542, -1, 511, 510, 542, -1,
                            512, 543, 575, -1, 512, 544, 545, -1,
                            513, 545, 546, -1, 515, 514, 546, -1,
                            516, 515, 547, -1, 516, 548, 549, -1,
                            517, 549, 550, -1, 519, 518, 550, -1,
                            520, 519, 551, -1, 520, 552, 553, -1,
                            521, 553, 554, -1, 523, 522, 554, -1,
                            524, 523, 555, -1, 524, 556, 557, -1,
                            525, 557, 558, -1, 527, 526, 558, -1,
                            528, 527, 559, -1, 528, 560, 561, -1,
                            529, 561, 562, -1, 531, 530, 562, -1,
                            532, 531, 563, -1, 532, 564, 565, -1,
                            533, 565, 566, -1, 535, 534, 566, -1,
                            536, 535, 567, -1, 536, 568, 569, -1,
                            537, 569, 570, -1, 539, 538, 570, -1,
                            540, 539, 571, -1, 540, 572, 573, -1,
                            541, 573, 574, -1, 543, 542, 574, -1,
                            544, 575, 607, -1, 544, 576, 577, -1,
                            545, 577, 578, -1, 547, 546, 578, -1,
                            548, 547, 579, -1, 548, 580, 581, -1,
                            549, 581, 582, -1, 551, 550, 582, -1,
                            552, 551, 583, -1, 552, 584, 585, -1,
                            553, 585, 586, -1, 555, 554, 586, -1,
                            556, 555, 587, -1, 556, 588, 589, -1,
                            557, 589, 590, -1, 559, 558, 590, -1,
                            560, 559, 591, -1, 560, 592, 593, -1,
                            561, 593, 594, -1, 563, 562, 594, -1,
                            564, 563, 595, -1, 564, 596, 597, -1,
                            565, 597, 598, -1, 567, 566, 598, -1,
                            568, 567, 599, -1, 568, 600, 601, -1,
                            569, 601, 602, -1, 571, 570, 602, -1,
                            572, 571, 603, -1, 572, 604, 605, -1,
                            573, 605, 606, -1, 575, 574, 606, -1,
                            576, 607, 639, -1, 576, 608, 609, -1,
                            577, 609, 610, -1, 579, 578, 610, -1,
                            580, 579, 611, -1, 580, 612, 613, -1,
                            581, 613, 614, -1, 583, 582, 614, -1,
                            584, 583, 615, -1, 584, 616, 617, -1,
                            585, 617, 618, -1, 587, 586, 618, -1,
                            588, 587, 619, -1, 588, 620, 621, -1,
                            589, 621, 622, -1, 591, 590, 622, -1,
                            592, 591, 623, -1, 592, 624, 625, -1,
                            593, 625, 626, -1, 595, 594, 626, -1,
                            596, 595, 627, -1, 596, 628, 629, -1,
                            597, 629, 630, -1, 599, 598, 630, -1,
                            600, 599, 631, -1, 600, 632, 633, -1,
                            601, 633, 634, -1, 603, 602, 634, -1,
                            604, 603, 635, -1, 604, 636, 637, -1,
                            605, 637, 638, -1, 607, 606, 638, -1,
                            0, 31, 32, -1, 33, 1, 32, -1,
                            34, 2, 33, -1, 3, 2, 35, -1,
                            4, 3, 36, -1, 37, 5, 36, -1,
                            38, 6, 37, -1, 7, 6, 39, -1,
                            8, 7, 40, -1, 41, 9, 40, -1,
                            42, 10, 41, -1, 11, 10, 43, -1,
                            12, 11, 44, -1, 45, 13, 44, -1,
                            46, 14, 45, -1, 15, 14, 47, -1,
                            16, 15, 48, -1, 49, 17, 48, -1,
                            50, 18, 49, -1, 19, 18, 51, -1,
                            20, 19, 52, -1, 53, 21, 52, -1,
                            54, 22, 53, -1, 23, 22, 55, -1,
                            24, 23, 56, -1, 57, 25, 56, -1,
                            58, 26, 57, -1, 27, 26, 59, -1,
                            28, 27, 60, -1, 61, 29, 60, -1,
                            62, 30, 61, -1, 31, 30, 63, -1,
                            32, 63, 64, -1, 65, 33, 64, -1,
                            66, 34, 65, -1, 35, 34, 67, -1,
                            36, 35, 68, -1, 69, 37, 68, -1,
                            70, 38, 69, -1, 39, 38, 71, -1,
                            40, 39, 72, -1, 73, 41, 72, -1,
                            74, 42, 73, -1, 43, 42, 75, -1,
                            44, 43, 76, -1, 77, 45, 76, -1,
                            78, 46, 77, -1, 47, 46, 79, -1,
                            48, 47, 80, -1, 81, 49, 80, -1,
                            82, 50, 81, -1, 51, 50, 83, -1,
                            52, 51, 84, -1, 85, 53, 84, -1,
                            86, 54, 85, -1, 55, 54, 87, -1,
                            56, 55, 88, -1, 89, 57, 88, -1,
                            90, 58, 89, -1, 59, 58, 91, -1,
                            60, 59, 92, -1, 93, 61, 92, -1,
                            94, 62, 93, -1, 63, 62, 95, -1,
                            64, 95, 96, -1, 97, 65, 96, -1,
                            98, 66, 97, -1, 67, 66, 99, -1,
                            68, 67, 100, -1, 101, 69, 100, -1,
                            102, 70, 101, -1, 71, 70, 103, -1,
                            72, 71, 104, -1, 105, 73, 104, -1,
                            106, 74, 105, -1, 75, 74, 107, -1,
                            76, 75, 108, -1, 109, 77, 108, -1,
                            110, 78, 109, -1, 79, 78, 111, -1,
                            80, 79, 112, -1, 113, 81, 112, -1,
                            114, 82, 113, -1, 83, 82, 115, -1,
                            84, 83, 116, -1, 117, 85, 116, -1,
                            118, 86, 117, -1, 87, 86, 119, -1,
                            88, 87, 120, -1, 121, 89, 120, -1,
                            122, 90, 121, -1, 91, 90, 123, -1,
                            92, 91, 124, -1, 125, 93, 124, -1,
                            126, 94, 125, -1, 95, 94, 127, -1,
                            96, 127, 128, -1, 129, 97, 128, -1,
                            130, 98, 129, -1, 99, 98, 131, -1,
                            100, 99, 132, -1, 133, 101, 132, -1,
                            134, 102, 133, -1, 103, 102, 135, -1,
                            104, 103, 136, -1, 137, 105, 136, -1,
                            138, 106, 137, -1, 107, 106, 139, -1,
                            108, 107, 140, -1, 141, 109, 140, -1,
                            142, 110, 141, -1, 111, 110, 143, -1,
                            112, 111, 144, -1, 145, 113, 144, -1,
                            146, 114, 145, -1, 115, 114, 147, -1,
                            116, 115, 148, -1, 149, 117, 148, -1,
                            150, 118, 149, -1, 119, 118, 151, -1,
                            120, 119, 152, -1, 153, 121, 152, -1,
                            154, 122, 153, -1, 123, 122, 155, -1,
                            124, 123, 156, -1, 157, 125, 156, -1,
                            158, 126, 157, -1, 127, 126, 159, -1,
                            128, 159, 160, -1, 161, 129, 160, -1,
                            162, 130, 161, -1, 131, 130, 163, -1,
                            132, 131, 164, -1, 165, 133, 164, -1,
                            166, 134, 165, -1, 135, 134, 167, -1,
                            136, 135, 168, -1, 169, 137, 168, -1,
                            170, 138, 169, -1, 139, 138, 171, -1,
                            140, 139, 172, -1, 173, 141, 172, -1,
                            174, 142, 173, -1, 143, 142, 175, -1,
                            144, 143, 176, -1, 177, 145, 176, -1,
                            178, 146, 177, -1, 147, 146, 179, -1,
                            148, 147, 180, -1, 181, 149, 180, -1,
                            182, 150, 181, -1, 151, 150, 183, -1,
                            152, 151, 184, -1, 185, 153, 184, -1,
                            186, 154, 185, -1, 155, 154, 187, -1,
                            156, 155, 188, -1, 189, 157, 188, -1,
                            190, 158, 189, -1, 159, 158, 191, -1,
                            160, 191, 192, -1, 193, 161, 192, -1,
                            194, 162, 193, -1, 163, 162, 195, -1,
                            164, 163, 196, -1, 197, 165, 196, -1,
                            198, 166, 197, -1, 167, 166, 199, -1,
                            168, 167, 200, -1, 201, 169, 200, -1,
                            202, 170, 201, -1, 171, 170, 203, -1,
                            172, 171, 204, -1, 205, 173, 204, -1,
                            206, 174, 205, -1, 175, 174, 207, -1,
                            176, 175, 208, -1, 209, 177, 208, -1,
                            210, 178, 209, -1, 179, 178, 211, -1,
                            180, 179, 212, -1, 213, 181, 212, -1,
                            214, 182, 213, -1, 183, 182, 215, -1,
                            184, 183, 216, -1, 217, 185, 216, -1,
                            218, 186, 217, -1, 187, 186, 219, -1,
                            188, 187, 220, -1, 221, 189, 220, -1,
                            222, 190, 221, -1, 191, 190, 223, -1,
                            192, 223, 224, -1, 225, 193, 224, -1,
                            226, 194, 225, -1, 195, 194, 227, -1,
                            196, 195, 228, -1, 229, 197, 228, -1,
                            230, 198, 229, -1, 199, 198, 231, -1,
                            200, 199, 232, -1, 233, 201, 232, -1,
                            234, 202, 233, -1, 203, 202, 235, -1,
                            204, 203, 236, -1, 237, 205, 236, -1,
                            238, 206, 237, -1, 207, 206, 239, -1,
                            208, 207, 240, -1, 241, 209, 240, -1,
                            242, 210, 241, -1, 211, 210, 243, -1,
                            212, 211, 244, -1, 245, 213, 244, -1,
                            246, 214, 245, -1, 215, 214, 247, -1,
                            216, 215, 248, -1, 249, 217, 248, -1,
                            250, 218, 249, -1, 219, 218, 251, -1,
                            220, 219, 252, -1, 253, 221, 252, -1,
                            254, 222, 253, -1, 223, 222, 255, -1,
                            224, 255, 256, -1, 257, 225, 256, -1,
                            258, 226, 257, -1, 227, 226, 259, -1,
                            228, 227, 260, -1, 261, 229, 260, -1,
                            262, 230, 261, -1, 231, 230, 263, -1,
                            232, 231, 264, -1, 265, 233, 264, -1,
                            266, 234, 265, -1, 235, 234, 267, -1,
                            236, 235, 268, -1, 269, 237, 268, -1,
                            270, 238, 269, -1, 239, 238, 271, -1,
                            240, 239, 272, -1, 273, 241, 272, -1,
                            274, 242, 273, -1, 243, 242, 275, -1,
                            244, 243, 276, -1, 277, 245, 276, -1,
                            278, 246, 277, -1, 247, 246, 279, -1,
                            248, 247, 280, -1, 281, 249, 280, -1,
                            282, 250, 281, -1, 251, 250, 283, -1,
                            252, 251, 284, -1, 285, 253, 284, -1,
                            286, 254, 285, -1, 255, 254, 287, -1,
                            256, 287, 288, -1, 289, 257, 288, -1,
                            290, 258, 289, -1, 259, 258, 291, -1,
                            260, 259, 292, -1, 293, 261, 292, -1,
                            294, 262, 293, -1, 263, 262, 295, -1,
                            264, 263, 296, -1, 297, 265, 296, -1,
                            298, 266, 297, -1, 267, 266, 299, -1,
                            268, 267, 300, -1, 301, 269, 300, -1,
                            302, 270, 301, -1, 271, 270, 303, -1,
                            272, 271, 304, -1, 305, 273, 304, -1,
                            306, 274, 305, -1, 275, 274, 307, -1,
                            276, 275, 308, -1, 309, 277, 308, -1,
                            310, 278, 309, -1, 279, 278, 311, -1,
                            280, 279, 312, -1, 313, 281, 312, -1,
                            314, 282, 313, -1, 283, 282, 315, -1,
                            284, 283, 316, -1, 317, 285, 316, -1,
                            318, 286, 317, -1, 287, 286, 319, -1,
                            320, 288, 351, -1, 321, 289, 320, -1,
                            322, 290, 321, -1, 291, 290, 323, -1,
                            292, 291, 324, -1, 293, 292, 325, -1,
                            294, 293, 326, -1, 327, 295, 326, -1,
                            328, 296, 327, -1, 297, 296, 329, -1,
                            298, 297, 330, -1, 299, 298, 331, -1,
                            300, 299, 332, -1, 333, 301, 332, -1,
                            334, 302, 333, -1, 335, 303, 334, -1,
                            304, 303, 336, -1, 305, 304, 337, -1,
                            306, 305, 338, -1, 307, 306, 339, -1,
                            308, 307, 340, -1, 309, 308, 341, -1,
                            310, 309, 342, -1, 311, 310, 343, -1,
                            312, 311, 344, -1, 313, 312, 345, -1,
                            346, 314, 345, -1, 347, 315, 346, -1,
                            348, 316, 347, -1, 349, 317, 348, -1,
                            350, 318, 349, -1, 351, 319, 350, -1,
                            352, 320, 383, -1, 321, 320, 353, -1,
                            322, 321, 354, -1, 355, 323, 354, -1,
                            356, 324, 355, -1, 325, 324, 357, -1,
                            326, 325, 358, -1, 359, 327, 358, -1,
                            360, 328, 359, -1, 329, 328, 361, -1,
                            330, 329, 362, -1, 363, 331, 362, -1,
                            364, 332, 363, -1, 333, 332, 365, -1,
                            334, 333, 366, -1, 367, 335, 366, -1,
                            368, 336, 367, -1, 337, 336, 369, -1,
                            338, 337, 370, -1, 371, 339, 370, -1,
                            372, 340, 371, -1, 341, 340, 373, -1,
                            342, 341, 374, -1, 375, 343, 374, -1,
                            376, 344, 375, -1, 345, 344, 377, -1,
                            346, 345, 378, -1, 379, 347, 378, -1,
                            380, 348, 379, -1, 349, 348, 381, -1,
                            350, 349, 382, -1, 383, 351, 382, -1,
                            384, 352, 415, -1, 353, 352, 385, -1,
                            354, 353, 386, -1, 387, 355, 386, -1,
                            388, 356, 387, -1, 357, 356, 389, -1,
                            358, 357, 390, -1, 391, 359, 390, -1,
                            392, 360, 391, -1, 361, 360, 393, -1,
                            362, 361, 394, -1, 395, 363, 394, -1,
                            396, 364, 395, -1, 365, 364, 397, -1,
                            366, 365, 398, -1, 399, 367, 398, -1,
                            400, 368, 399, -1, 369, 368, 401, -1,
                            370, 369, 402, -1, 403, 371, 402, -1,
                            404, 372, 403, -1, 373, 372, 405, -1,
                            374, 373, 406, -1, 407, 375, 406, -1,
                            408, 376, 407, -1, 377, 376, 409, -1,
                            378, 377, 410, -1, 411, 379, 410, -1,
                            412, 380, 411, -1, 381, 380, 413, -1,
                            382, 381, 414, -1, 415, 383, 414, -1,
                            416, 384, 447, -1, 385, 384, 417, -1,
                            386, 385, 418, -1, 419, 387, 418, -1,
                            420, 388, 419, -1, 389, 388, 421, -1,
                            390, 389, 422, -1, 423, 391, 422, -1,
                            424, 392, 423, -1, 393, 392, 425, -1,
                            394, 393, 426, -1, 427, 395, 426, -1,
                            428, 396, 427, -1, 397, 396, 429, -1,
                            398, 397, 430, -1, 431, 399, 430, -1,
                            432, 400, 431, -1, 401, 400, 433, -1,
                            402, 401, 434, -1, 435, 403, 434, -1,
                            436, 404, 435, -1, 405, 404, 437, -1,
                            406, 405, 438, -1, 439, 407, 438, -1,
                            440, 408, 439, -1, 409, 408, 441, -1,
                            410, 409, 442, -1, 443, 411, 442, -1,
                            444, 412, 443, -1, 413, 412, 445, -1,
                            414, 413, 446, -1, 447, 415, 446, -1,
                            448, 416, 479, -1, 417, 416, 449, -1,
                            418, 417, 450, -1, 451, 419, 450, -1,
                            452, 420, 451, -1, 421, 420, 453, -1,
                            422, 421, 454, -1, 455, 423, 454, -1,
                            456, 424, 455, -1, 425, 424, 457, -1,
                            426, 425, 458, -1, 459, 427, 458, -1,
                            460, 428, 459, -1, 429, 428, 461, -1,
                            430, 429, 462, -1, 463, 431, 462, -1,
                            464, 432, 463, -1, 433, 432, 465, -1,
                            434, 433, 466, -1, 467, 435, 466, -1,
                            468, 436, 467, -1, 437, 436, 469, -1,
                            438, 437, 470, -1, 471, 439, 470, -1,
                            472, 440, 471, -1, 441, 440, 473, -1,
                            442, 441, 474, -1, 475, 443, 474, -1,
                            476, 444, 475, -1, 445, 444, 477, -1,
                            446, 445, 478, -1, 479, 447, 478, -1,
                            480, 448, 511, -1, 449, 448, 481, -1,
                            450, 449, 482, -1, 483, 451, 482, -1,
                            484, 452, 483, -1, 453, 452, 485, -1,
                            454, 453, 486, -1, 487, 455, 486, -1,
                            488, 456, 487, -1, 457, 456, 489, -1,
                            458, 457, 490, -1, 491, 459, 490, -1,
                            492, 460, 491, -1, 461, 460, 493, -1,
                            462, 461, 494, -1, 495, 463, 494, -1,
                            496, 464, 495, -1, 465, 464, 497, -1,
                            466, 465, 498, -1, 499, 467, 498, -1,
                            500, 468, 499, -1, 469, 468, 501, -1,
                            470, 469, 502, -1, 503, 471, 502, -1,
                            504, 472, 503, -1, 473, 472, 505, -1,
                            474, 473, 506, -1, 507, 475, 506, -1,
                            508, 476, 507, -1, 477, 476, 509, -1,
                            478, 477, 510, -1, 511, 479, 510, -1,
                            512, 480, 543, -1, 481, 480, 513, -1,
                            482, 481, 514, -1, 515, 483, 514, -1,
                            516, 484, 515, -1, 485, 484, 517, -1,
                            486, 485, 518, -1, 519, 487, 518, -1,
                            520, 488, 519, -1, 489, 488, 521, -1,
                            490, 489, 522, -1, 523, 491, 522, -1,
                            524, 492, 523, -1, 493, 492, 525, -1,
                            494, 493, 526, -1, 527, 495, 526, -1,
                            528, 496, 527, -1, 497, 496, 529, -1,
                            498, 497, 530, -1, 531, 499, 530, -1,
                            532, 500, 531, -1, 501, 500, 533, -1,
                            502, 501, 534, -1, 535, 503, 534, -1,
                            536, 504, 535, -1, 505, 504, 537, -1,
                            506, 505, 538, -1, 539, 507, 538, -1,
                            540, 508, 539, -1, 509, 508, 541, -1,
                            510, 509, 542, -1, 543, 511, 542, -1,
                            544, 512, 575, -1, 513, 512, 545, -1,
                            514, 513, 546, -1, 547, 515, 546, -1,
                            548, 516, 547, -1, 517, 516, 549, -1,
                            518, 517, 550, -1, 551, 519, 550, -1,
                            552, 520, 551, -1, 521, 520, 553, -1,
                            522, 521, 554, -1, 555, 523, 554, -1,
                            556, 524, 555, -1, 525, 524, 557, -1,
                            526, 525, 558, -1, 559, 527, 558, -1,
                            560, 528, 559, -1, 529, 528, 561, -1,
                            530, 529, 562, -1, 563, 531, 562, -1,
                            564, 532, 563, -1, 533, 532, 565, -1,
                            534, 533, 566, -1, 567, 535, 566, -1,
                            568, 536, 567, -1, 537, 536, 569, -1,
                            538, 537, 570, -1, 571, 539, 570, -1,
                            572, 540, 571, -1, 541, 540, 573, -1,
                            542, 541, 574, -1, 575, 543, 574, -1,
                            576, 544, 607, -1, 545, 544, 577, -1,
                            546, 545, 578, -1, 579, 547, 578, -1,
                            580, 548, 579, -1, 549, 548, 581, -1,
                            550, 549, 582, -1, 583, 551, 582, -1,
                            584, 552, 583, -1, 553, 552, 585, -1,
                            554, 553, 586, -1, 587, 555, 586, -1,
                            588, 556, 587, -1, 557, 556, 589, -1,
                            558, 557, 590, -1, 591, 559, 590, -1,
                            592, 560, 591, -1, 561, 560, 593, -1,
                            562, 561, 594, -1, 595, 563, 594, -1,
                            596, 564, 595, -1, 565, 564, 597, -1,
                            566, 565, 598, -1, 599, 567, 598, -1,
                            600, 568, 599, -1, 569, 568, 601, -1,
                            570, 569, 602, -1, 603, 571, 602, -1,
                            604, 572, 603, -1, 573, 572, 605, -1,
                            574, 573, 606, -1, 607, 575, 606, -1,
                            608, 576, 639, -1, 577, 576, 609, -1,
                            578, 577, 610, -1, 611, 579, 610, -1,
                            612, 580, 611, -1, 581, 580, 613, -1,
                            582, 581, 614, -1, 615, 583, 614, -1,
                            616, 584, 615, -1, 585, 584, 617, -1,
                            586, 585, 618, -1, 619, 587, 618, -1,
                            620, 588, 619, -1, 589, 588, 621, -1,
                            590, 589, 622, -1, 623, 591, 622, -1,
                            624, 592, 623, -1, 593, 592, 625, -1,
                            594, 593, 626, -1, 627, 595, 626, -1,
                            628, 596, 627, -1, 597, 596, 629, -1,
                            598, 597, 630, -1, 631, 599, 630, -1,
                            632, 600, 631, -1, 601, 600, 633, -1,
                            602, 601, 634, -1, 635, 603, 634, -1,
                            636, 604, 635, -1, 605, 604, 637, -1,
                            606, 605, 638, -1, 639, 607, 638 ]
                        ccw TRUE
                        solid FALSE
                        convex TRUE
                        creaseAngle 0

                      }

                    }

                }

            }

        },
          
        Group {
          children 
            Transform {
              translation -8.88178e-016 0 0.028728001
              rotation 0 0 1  0
              scale 1 1 1
              scaleOrientation 0 0 1  0

            }

        } ]

    }

}
