#VRML V2.0 utf8


Group {
  children 
    Group {
      children [ 
        Group {
          children 
            Transform {
              translation 0.074900009 -4.1961401e-010 -0.50924999
              rotation 0 0 1  0
              scale 1 1 1
              scaleOrientation 0 0 1  0

            }

        },
          
        Group {
          children 
            Transform {
              translation 0.051539999 -0.033261809 -0.50649989
              rotation 0 0 1  0
              scale 1 1 1
              scaleOrientation 0 0 1  0

            }

        },
          
        Group {
          children 
            Transform {
              translation -0.052000001 0 0.491
              rotation 0 0 1  0
              scale 1 1 1
              scaleOrientation 0 0 1  0
              children 
                Transform {
                  translation 0.0526 0.023800001 -0.5097
                  rotation 0 0 0.99999994  3.4557519
                  scale 0.99999976 0.99999976 1
                  scaleOrientation 0 0 1  0
                  children 
                    Shape {
                      appearance 
                      Appearance {
                        material 
                        Material {
                          diffuseColor 0.082025923 0.063583359 0.041056361

                        }

                      }
                      geometry 
                      IndexedFaceSet {
                        coord 
                        Coordinate {
                          point [ -0.003016233 0.01451569 -0.003715097,
                              -0.007354199 -0.01287311 0.003715097,
                              -0.0029580591 0.01423805 -0.0047044149,
                              -0.0072960849 -0.01315075 0.0027258389,
                              -0.0027028909 0.01393955 -0.005655705,
                              -0.0070408578 -0.01344925 0.001774549,
                              -0.0022604461 0.01363164 -0.0065324302,
                              -0.0065984721 -0.01375716 0.00089784298,
                              -0.00164783 0.01332616 -0.0073008528,
                              -0.005985796 -0.01406264 0.000129398,
                              -0.00088852801 0.01303482 -0.0079315295,
                              -0.005226492 -0.01435399 -0.00050124899,
                              -1.17067e-005 0.0127688 -0.0084001422,
                              -0.004349648 -0.01462 -0.00096986099,
                              0.00094891799 0.01253837 -0.0086886883,
                              -0.00338906 -0.01485043 -0.001258373,
                              0.001956403 0.01235234 -0.0087861409,
                              -0.0023815031 -0.01503646 -0.001355826,
                              0.0029720659 0.01221793 -0.0086886883,
                              -0.00136584 -0.01517087 -0.001258373,
                              0.003956913 0.01214021 -0.0084001422,
                              -0.00038105299 -0.01524859 -0.00096986099,
                              0.0048729768 0.01212227 -0.0079315295,
                              0.00053505402 -0.01526653 -0.00050124899,
                              0.0056852102 0.01216471 -0.0073008528,
                              0.001347243 -0.01522409 0.000129398,
                              0.0063622589 0.01226592 -0.0065324302,
                              0.002024292 -0.01512289 0.00089784199,
                              0.0068781972 0.01242208 -0.005655705,
                              0.0025402301 -0.01496672 0.001774549,
                              0.0072131152 0.01262712 -0.0047044149,
                              0.002875149 -0.01476168 0.0027258389,
                              0.007354199 0.01287311 -0.003715097,
                              0.003016233 -0.01451569 0.003715097,
                              0.0072960849 0.01315075 -0.0027258389,
                              0.0029580591 -0.01423805 0.0047044149,
                              0.0070408578 0.01344925 -0.001774549,
                              0.0027028909 -0.01393955 0.005655705,
                              0.0065984721 0.01375716 -0.00089784001,
                              0.0022604461 -0.01363164 0.0065324302,
                              0.005985796 0.01406264 -0.00012939599,
                              0.00164783 -0.01332616 0.0073008528,
                              0.005226492 0.01435399 0.00050125102,
                              0.00088852597 -0.01303482 0.0079315295,
                              0.004349648 0.01462 0.00096986297,
                              1.17025e-005 -0.0127688 0.0084001422,
                              0.003389 0.01485043 0.0012584321,
                              -0.000948923 -0.01253837 0.0086886883,
                              0.0023815031 0.01503646 0.001355826,
                              -0.001956403 -0.01235234 0.0087861409,
                              0.00136584 0.01517087 0.001258373,
                              -0.0029720659 -0.01221793 0.0086886883,
                              0.00038104801 0.01524859 0.00096985901,
                              -0.003956913 -0.01214021 0.0084001422,
                              -0.00053506001 0.01526653 0.00050124503,
                              -0.0048730369 -0.01212227 0.0079315295,
                              -0.001347243 0.01522409 -0.000129402,
                              -0.0056852102 -0.01216471 0.0073008528,
                              -0.002024292 0.01512289 -0.000897847,
                              -0.0063622589 -0.01226592 0.0065324302,
                              -0.0025402301 0.01496672 -0.001774549,
                              -0.0068781972 -0.01242208 0.005655705,
                              -0.002875149 0.01476168 -0.0027258389,
                              -0.0072131152 -0.01262712 0.0047044149 ]

                        }
                        normal 
                        DEF _+0 Normal {
                          vector [  ]

                        }
                        coordIndex [ 2, 3, 1, -1, 2, 4, 5, -1,
                            6, 7, 5, -1, 8, 9, 7, -1,
                            10, 11, 9, -1, 12, 13, 11, -1,
                            12, 14, 15, -1, 16, 17, 15, -1,
                            16, 18, 19, -1, 18, 20, 21, -1,
                            22, 23, 21, -1, 24, 25, 23, -1,
                            26, 27, 25, -1, 28, 29, 27, -1,
                            30, 31, 29, -1, 32, 33, 31, -1,
                            34, 35, 33, -1, 36, 37, 35, -1,
                            38, 39, 37, -1, 40, 41, 39, -1,
                            40, 42, 43, -1, 44, 45, 43, -1,
                            46, 47, 45, -1, 46, 48, 49, -1,
                            50, 51, 49, -1, 52, 53, 51, -1,
                            52, 54, 55, -1, 56, 57, 55, -1,
                            58, 59, 57, -1, 58, 60, 61, -1,
                            41, 19, 25, -1, 0, 1, 63, -1,
                            60, 62, 63, -1, 0, 50, 40, -1,
                            0, 2, 1, -1, 3, 2, 5, -1,
                            4, 6, 5, -1, 6, 8, 7, -1,
                            8, 10, 9, -1, 10, 12, 11, -1,
                            13, 12, 15, -1, 14, 16, 15, -1,
                            17, 16, 19, -1, 19, 18, 21, -1,
                            20, 22, 21, -1, 22, 24, 23, -1,
                            24, 26, 25, -1, 26, 28, 27, -1,
                            28, 30, 29, -1, 30, 32, 31, -1,
                            32, 34, 33, -1, 34, 36, 35, -1,
                            36, 38, 37, -1, 38, 40, 39, -1,
                            41, 40, 43, -1, 42, 44, 43, -1,
                            44, 46, 45, -1, 47, 46, 49, -1,
                            48, 50, 49, -1, 50, 52, 51, -1,
                            53, 52, 55, -1, 54, 56, 55, -1,
                            56, 58, 57, -1, 59, 58, 61, -1,
                            63, 1, 3, -1, 59, 61, 63, -1,
                            55, 57, 59, -1, 47, 53, 55, -1,
                            47, 49, 51, -1, 5, 45, 47, -1,
                            45, 41, 43, -1, 41, 37, 39, -1,
                            37, 33, 35, -1, 33, 29, 31, -1,
                            29, 25, 27, -1, 25, 21, 23, -1,
                            15, 17, 19, -1, 19, 13, 15, -1,
                            13, 9, 11, -1, 9, 5, 7, -1,
                            59, 63, 3, -1, 5, 55, 59, -1,
                            53, 47, 51, -1, 33, 37, 41, -1,
                            25, 29, 33, -1, 19, 21, 25, -1,
                            5, 13, 19, -1, 13, 5, 9, -1,
                            5, 59, 3, -1, 55, 5, 47, -1,
                            41, 25, 33, -1, 41, 5, 19, -1,
                            5, 41, 45, -1, 62, 0, 63, -1,
                            61, 60, 63, -1, 4, 2, 0, -1,
                            8, 6, 4, -1, 12, 10, 8, -1,
                            20, 14, 12, -1, 20, 18, 16, -1,
                            24, 22, 20, -1, 28, 26, 24, -1,
                            24, 30, 28, -1, 30, 34, 32, -1,
                            40, 38, 36, -1, 44, 42, 40, -1,
                            48, 46, 44, -1, 44, 50, 48, -1,
                            50, 54, 52, -1, 50, 58, 56, -1,
                            0, 62, 60, -1, 8, 4, 0, -1,
                            0, 12, 8, -1, 14, 20, 16, -1,
                            20, 30, 24, -1, 30, 36, 34, -1,
                            50, 44, 40, -1, 56, 54, 50, -1,
                            0, 60, 58, -1, 20, 12, 0, -1,
                            36, 30, 20, -1, 20, 0, 36, -1,
                            0, 58, 50, -1, 40, 36, 0 ]
                        ccw TRUE
                        solid FALSE
                        convex TRUE
                        creaseAngle 0

                      }

                    }

                }

            }

        },
          
        Group {
          children 
            Transform {
              translation -0.052000001 0 0.491
              rotation 0 0 1  0
              scale 1 1 1
              scaleOrientation 0 0 1  0
              children 
                Transform {
                  translation 0.052000001 1.5335701e-008 -0.491
                  rotation 0 0 1  3.1415927
                  scale 1 1 1
                  scaleOrientation 0 0 1  0
                  children 
                    Shape {
                      appearance 
                      Appearance {
                        material 
                        Material {
                          diffuseColor 0.65864992 0.50308388 0.31538299

                        }

                      }
                      geometry 
                      IndexedFaceSet {
                        coord 
                        Coordinate {
                          point [ 0.01595079 0.0153405 -0.038720358,
                              0.01595062 0.01538419 -0.032854311,
                              0.01535063 0.01803189 -0.038720358,
                              0.01535868 0.018042861 -0.032854311,
                              0.01459157 0.020330129 -0.038720358,
                              0.0145995 0.0203408 -0.032854311,
                              0.01364254 0.022372421 -0.038720358,
                              0.01365035 0.022382731 -0.032854311,
                              0.01250559 0.02416628 -0.038720358,
                              0.01251327 0.02417635 -0.032854311,
                              0.01118254 0.02571952 -0.038720358,
                              0.01119023 0.02572923 -0.032854311,
                              0.0096755018 0.027039699 -0.038720358,
                              0.0096830716 0.027049061 -0.032854311,
                              0.0079863658 0.028134519 -0.038720358,
                              0.007993876 0.028143579 -0.032854311,
                              0.0061170449 0.0290116 -0.038720358,
                              0.006124496 0.02902036 -0.032854311,
                              0.0040695658 0.029678641 -0.038720358,
                              0.0040768981 0.029687099 -0.032854311,
                              0.001845896 0.030143259 -0.038720358,
                              0.0018531081 0.030151419 -0.032854311,
                              -0.00055208598 0.03041321 -0.038720358,
                              -0.00054490601 0.030421009 -0.032854311,
                              -0.0030997989 0.03046375 -0.038720358,
                              -0.003098309 0.03047931 -0.032854311,
                              -0.0056640501 0.03014808 -0.038720358,
                              -0.0056729312 0.03016966 -0.032854311,
                              -0.0080569983 0.029351231 -0.038720358,
                              -0.0080658793 0.029369829 -0.032854311,
                              -0.01023751 0.028108111 -0.038720358,
                              -0.01024633 0.02812379 -0.032854311,
                              -0.01220554 0.02648937 -0.038720358,
                              -0.01221436 0.026502069 -0.032854311,
                              -0.01396113 0.024565689 -0.038720358,
                              -0.01397001 0.02457547 -0.032854311,
                              -0.01550441 0.02240782 -0.038720358,
                              -0.01551324 0.022414619 -0.032854311,
                              -0.01683533 0.020086341 -0.038720358,
                              -0.01684415 0.02009022 -0.032854311,
                              -0.01795399 0.01767206 -0.038720358,
                              -0.01796281 0.01767295 -0.032854311,
                              -0.01886039 0.01523554 -0.038720358,
                              -0.018869219 0.01523351 -0.032854311,
                              -0.01955455 0.01284748 -0.038720358,
                              -0.019563431 0.01284253 -0.032854311,
                              -0.02003663 0.01057863 -0.038720358,
                              -0.02004545 0.0105707 -0.032854311,
                              -0.02033334 0.0082187047 -0.038720358,
                              -0.02033549 0.0082780709 -0.032854311,
                              -0.02053236 0.0050124521 -0.038720358,
                              -0.020539399 0.0049945111 -0.032854311,
                              -0.020587619 0.001917123 -0.038720358,
                              -0.020593461 0.001901984 -0.032854311,
                              -0.020503281 -0.01177471 -0.038720358,
                              -0.02050793 -0.01178705 -0.032854311,
                              -0.02030766 -0.01420831 -0.038720358,
                              -0.02031111 -0.01421791 -0.032854311,
                              -0.020029239 -0.016411779 -0.038720358,
                              -0.02003151 -0.016418571 -0.032854311,
                              -0.019696349 -0.0184521 -0.038720358,
                              -0.01969742 -0.0184561 -0.032854311,
                              -0.019337351 -0.020396469 -0.038720358,
                              -0.019337229 -0.020397659 -0.032854311,
                              -0.018980561 -0.02231192 -0.038720358,
                              -0.018979309 -0.022310309 -0.032854311,
                              -0.01865446 -0.02426552 -0.038720358,
                              -0.01865202 -0.024261169 -0.032854311,
                              0.01613396 -0.022477141 -0.038720358,
                              0.01613521 -0.022461349 -0.032854311,
                              0.016481631 -0.019201569 -0.038720358,
                              0.016483599 -0.01918971 -0.032854311,
                              0.016780909 -0.01621067 -0.038720358,
                              0.016783711 -0.01620274 -0.032854311,
                              0.01701271 -0.01341074 -0.038720358,
                              0.01701629 -0.01340669 -0.032854311,
                              0.01715791 0.000252962 -0.038720358,
                              0.017162319 0.00025310001 -0.032854311,
                              0.01719748 0.0029523959 -0.038720358,
                              0.01720267 0.0029486411 -0.032854311,
                              0.01711219 0.005742311 -0.038720358,
                              0.01711821 0.005734622 -0.032854311,
                              0.01688307 0.0087165227 -0.038720358,
                              0.01688987 0.0087048998 -0.032854311,
                              0.016490931 0.01196873 -0.038720358,
                              0.0164985 0.01195323 -0.032854311,
                              0.015861981 0.01534807 -0.02238219,
                              0.01527273 0.0179944 -0.02238225,
                              0.01451718 0.020281309 -0.02238219,
                              0.01357269 0.02231341 -0.02238219,
                              0.01244109 0.024098391 -0.02238219,
                              0.01112437 0.02564382 -0.02238219,
                              0.0096244812 0.026957329 -0.02238219,
                              0.0079433909 0.028046601 -0.02238219,
                              0.006082952 0.02891916 -0.02238225,
                              0.004045248 0.02958267 -0.02238225,
                              0.0018321869 0.03004479 -0.02238225,
                              -0.00055433402 0.030313071 -0.02238225,
                              -0.0030953879 0.030370951 -0.02238225,
                              -0.005657434 0.030062729 -0.02238225,
                              -0.0080388784 0.029266831 -0.02238219,
                              -0.0102089 0.02802675 -0.02238219,
                              -0.01216745 0.02641296 -0.02238225,
                              -0.01391464 0.024495659 -0.02238225,
                              -0.01545047 0.022345239 -0.02238225,
                              -0.01677501 0.020032041 -0.02238219,
                              -0.017888241 0.017626461 -0.02238219,
                              -0.018790299 0.01519876 -0.02238219,
                              -0.01948118 0.01281929 -0.02238219,
                              -0.01996088 0.01055848 -0.02238219,
                              -0.0202496 0.0082759261 -0.02238219,
                              -0.02045243 0.005009233 -0.02238219,
                              -0.020506261 0.001931548 -0.02238219,
                              -0.02042114 -0.01174443 -0.02238219,
                              -0.020225341 -0.01416361 -0.02238219,
                              -0.01994711 -0.016353721 -0.02238219,
                              -0.019614629 -0.01838153 -0.02238219,
                              -0.019256171 -0.02031379 -0.02238219,
                              -0.01889997 -0.02221727 -0.02238219,
                              -0.01857429 -0.02415877 -0.02238219,
                              0.016045621 -0.02236777 -0.02238219,
                              0.01639235 -0.01911181 -0.02238219,
                              0.01669096 -0.01613914 -0.02238219,
                              0.01692247 -0.0133565 -0.02238219,
                              0.01706779 0.00029037101 -0.02238219,
                              0.0171079 0.0029730201 -0.02238219,
                              0.01702386 0.0057456489 -0.02238219,
                              0.01679658 0.0087017408 -0.02238219,
                              0.01640713 0.01193445 -0.02238219,
                              0.01520329 0.01508474 -0.01234346,
                              0.01463526 0.01763582 -0.01234346,
                              0.01390689 0.019840591 -0.01234346,
                              0.01299625 0.021799801 -0.01234346,
                              0.01190531 0.023520639 -0.01234346,
                              0.01063585 0.02501058 -0.01234346,
                              0.0091898441 0.02627694 -0.01234346,
                              0.0075690742 0.027327061 -0.01234346,
                              0.0057754512 0.028168321 -0.01234346,
                              0.0038108821 0.02880799 -0.01234346,
                              0.001677274 0.029253541 -0.01234346,
                              -0.00062355999 0.02951216 -0.01234346,
                              -0.003073453 0.029568071 -0.01234346,
                              -0.0055435891 0.02927094 -0.01234346,
                              -0.0078395596 0.028503589 -0.01234346,
                              -0.009931623 0.027308039 -0.01234346,
                              -0.01181983 0.02575212 -0.01234346,
                              -0.01350432 0.023903601 -0.01234346,
                              -0.01498502 0.021830371 -0.01234346,
                              -0.016261989 0.019600211 -0.01234346,
                              -0.01733529 0.01728099 -0.01234346,
                              -0.01820492 0.01494044 -0.01234346,
                              -0.018871 0.01264637 -0.01234346,
                              -0.01933348 0.01046669 -0.01234346,
                              -0.01961177 0.0082666269 -0.01234346,
                              -0.019807391 0.005116581 -0.01234346,
                              -0.019859251 0.0021494031 -0.01234346,
                              -0.019777231 -0.000468124 -0.01234346,
                              -0.019588411 -0.01376134 -0.01234346,
                              -0.019320181 -0.015872831 -0.01234346,
                              -0.018999631 -0.0178278 -0.01234346,
                              -0.018654039 -0.019690629 -0.01234346,
                              -0.018310601 -0.021525741 -0.01234346,
                              -0.01799654 -0.023397559 -0.01234346,
                              0.01538038 -0.021670749 -0.01234346,
                              0.015714699 -0.01853173 -0.01234346,
                              0.01600259 -0.01566582 -0.01234346,
                              0.01622575 -0.01298314 -0.01234346,
                              0.01636588 0.00056730199 -0.01234346,
                              0.01640456 0.0031535621 -0.01234346,
                              0.016323561 0.0058267112 -0.01234346,
                              0.01610445 0.0086765876 -0.01234346,
                              0.015728951 0.01179325 -0.01234346,
                              0.01421308 0.01468849 -0.0061497092,
                              0.01367694 0.017096629 -0.0061497092,
                              0.01298928 0.01917797 -0.0061497092,
                              0.01212966 0.02102744 -0.0061497092,
                              0.01109975 0.02265197 -0.0061497092,
                              0.0099014044 0.024058521 -0.0061497092,
                              0.0085362792 0.025254009 -0.0061497092,
                              0.0070062871 0.02624535 -0.0061497092,
                              0.005313098 0.027039461 -0.0061497092,
                              0.003458499 0.027643319 -0.0061497092,
                              0.0014443391 0.02806389 -0.0061497092,
                              -0.00072768697 0.02830809 -0.0061497092,
                              -0.003040432 0.0283609 -0.0061497092,
                              -0.005372345 0.0280804 -0.0061497092,
                              -0.0075397491 0.02735596 -0.0061497092,
                              -0.0095146894 0.026227349 -0.0061497092,
                              -0.01129722 0.02475851 -0.0061497092,
                              -0.01288735 0.02301353 -0.0061497092,
                              -0.0142852 0.02105635 -0.0061497092,
                              -0.01549065 0.018951049 -0.0061497092,
                              -0.01650387 0.016761599 -0.0061497092,
                              -0.017324859 0.01455205 -0.0061497092,
                              -0.017953631 0.01238644 -0.0061497092,
                              -0.018390231 0.01032876 -0.0061497092,
                              -0.01865291 0.0082520843 -0.0061497092,
                              -0.018837569 0.0052781701 -0.0061497092,
                              -0.018886561 0.002477109 -0.0061497092,
                              -0.01880908 6.1169299e-006 -0.0061497092,
                              -0.01863086 -0.01315653 -0.0061497092,
                              -0.0183776 -0.01514977 -0.0061497092,
                              -0.01807504 -0.016995311 -0.0061497092,
                              -0.017748769 -0.018753819 -0.0061497092,
                              -0.01742458 -0.02048623 -0.0061497092,
                              -0.017128101 -0.02225321 -0.0061497092,
                              0.01438027 -0.02062308 -0.0061497092,
                              0.01469588 -0.01765978 -0.0061497092,
                              0.01496767 -0.01495432 -0.0061497092,
                              0.01517832 -0.01242184 -0.0061497092,
                              0.01531058 0.00098362204 -0.0061497092,
                              0.01534712 0.0034251211 -0.0061497092,
                              0.01527065 0.0059485431 -0.0061497092,
                              0.01506382 0.0086388579 -0.0061497092,
                              0.01470935 0.011581 -0.0061497092,
                              0.01311957 0.01425093 -0.0020171399,
                              0.01261854 0.016501119 -0.0020171399,
                              0.01197594 0.0184462 -0.0020171399,
                              0.01117259 0.020174559 -0.0020171399,
                              0.01021015 0.02169269 -0.0020171399,
                              0.0090902438 0.023007089 -0.0020171399,
                              0.0078145862 0.024124259 -0.0020171399,
                              0.006384789 0.02505064 -0.0020171399,
                              0.004802465 0.02579277 -0.0020171399,
                              0.0030693409 0.026357111 -0.0020171399,
                              0.001187086 0.02675014 -0.0020171399,
                              -0.00084267202 0.02697831 -0.0020171399,
                              -0.003003954 0.027027721 -0.0020171399,
                              -0.005183219 0.026765641 -0.0020171399,
                              -0.0072086449 0.026088649 -0.0020171399,
                              -0.0090543032 0.025033889 -0.0020171399,
                              -0.01072007 0.02366125 -0.0020171399,
                              -0.01220607 0.02203053 -0.0020171399,
                              -0.01351231 0.020201501 -0.0020171399,
                              -0.01463884 0.01823407 -0.0020171399,
                              -0.01558572 0.01618802 -0.0020171399,
                              -0.01635289 0.0141232 -0.0020171399,
                              -0.016940471 0.01209938 -0.0020171399,
                              -0.01734852 0.01017647 -0.0020171399,
                              -0.017593971 0.0082361689 -0.0020171399,
                              -0.017766589 0.0054565659 -0.0020171399,
                              -0.01781231 0.002838969 -0.0020171399,
                              -0.01773995 0.000529841 -0.0020171399,
                              -0.017573349 -0.0124886 -0.0020171399,
                              -0.017336721 -0.0143513 -0.0020171399,
                              -0.0170539 -0.0160759 -0.0020171399,
                              -0.016749021 -0.017719259 -0.0020171399,
                              -0.01644605 -0.019338191 -0.0020171399,
                              -0.01616901 -0.020989411 -0.0020171399,
                              0.0132758 -0.019465979 -0.0020171399,
                              0.01357072 -0.016696749 -0.0020171399,
                              0.0138247 -0.01416856 -0.0020171399,
                              0.01402157 -0.01180195 -0.0020171399,
                              0.01414519 0.001443386 -0.0020171399,
                              0.01417934 0.003724932 -0.0020171399,
                              0.01410788 0.0060830712 -0.0020171399,
                              0.01391458 0.0085971951 -0.0020171399,
                              0.0135833 0.01134663 -0.0020171399,
                              0.01000237 0.01352262 0.00024063099,
                              0.0095970035 0.0153405 0.00024063099,
                              0.0090839863 0.016893679 0.00024063099,
                              0.0084426403 0.01827389 0.00024063099,
                              0.0076742759 0.019486239 0.000240635,
                              0.0067801471 0.020535881 0.00024063099,
                              0.0057616821 0.021428101 0.00024063099,
                              0.0046201339 0.022167981 0.00024063099,
                              0.0033568139 0.02276068 0.00024063099,
                              0.0019730921 0.02321147 0.00024063099,
                              0.000470314 0.023525471 0.00024063099,
                              -0.00115025 0.023707859 0.00024063099,
                              -0.0028722279 0.023742249 0.00024063099,
                              -0.0046054721 0.02352911 0.00024063099,
                              -0.0062226648 0.022990519 0.00024063099,
                              -0.00769627 0.022150271 0.00024063099,
                              -0.0090262881 0.021056229 0.00024063099,
                              -0.01021277 0.019756131 0.00024063099,
                              -0.01125574 0.01829773 0.00024063099,
                              -0.01215517 0.016728749 0.00024063099,
                              -0.01291114 0.01509702 0.00024063099,
                              -0.01352369 0.01345032 0.00024063099,
                              -0.0139929 0.01183634 0.000240635,
                              -0.01431864 0.01030296 0.00024063099,
                              -0.01451897 0.0087100863 0.00024063099,
                              -0.01465362 0.0065409541 0.00024063099,
                              -0.01469093 0.0044491878 0.00024063099,
                              -0.01463389 0.0026036501 0.00024063099,
                              -0.01450169 0.00095909799 0.00024063099,
                              -0.01431345 -0.00052993698 0.00024063099,
                              -0.01408845 -0.01286965 0.000240635,
                              -0.01375705 -0.01475214 0.000240635,
                              -0.01347219 -0.01681488 0.00015009601,
                              -0.01315069 -0.01930791 0.00028055199,
                              -0.001315057 -0.02622783 -0.038720358,
                              -0.00131303 -0.026214421 -0.032854311,
                              -0.001318693 -0.02610272 -0.02238219,
                              0.0099182716 -0.017608641 0.000310492,
                              0.01036119 -0.01337569 0.000240639,
                              0.01056343 -0.000393622 0.00024063099,
                              0.01072013 0.00149846 0.000240635,
                              0.0108183 0.003324925 0.00024063099,
                              0.01084506 0.0051491852 0.00024063099,
                              0.01078742 0.0070345402 0.00024063099,
                              0.01063263 0.0090444079 0.00024063099,
                              0.01036763 0.01124221 0.00024063099,
                              -0.001360535 -0.02527165 -0.01234346,
                              -0.0014234181 -0.0240224 -0.0061497092,
                              -0.0014336701 -0.023021691 -0.0020171399,
                              -0.0020196431 -0.020932009 0.00019769699,
                              0.003509223 -0.020551911 0.00019270901,
                              0.0057611461 -0.02278864 -0.0020171399,
                              0.006307363 -0.02397578 -0.0061497092,
                              0.0068287249 -0.025222359 -0.01234346,
                              0.0071755052 -0.026051581 -0.02238219,
                              0.0072221751 -0.02616298 -0.032854311,
                              0.007220983 -0.02617955 -0.038720358,
                              -0.0075485702 -0.020984231 0.000202686,
                              -0.0086286059 -0.02325475 -0.0020171399,
                              -0.0091542602 -0.02406895 -0.0061497092,
                              -0.0095498562 -0.025320999 -0.01234346,
                              -0.0098130098 -0.02615392 -0.02238219,
                              -0.0098483562 -0.02626585 -0.032854311,
                              -0.0098512173 -0.026276169 -0.038720358,
                              -0.002834677 0.02190846 0.00024063099,
                              -0.0027962921 0.02096205 0.00024063099,
                              0.001507282 0.02064549 0.00024063099,
                              -0.002746999 0.01986289 0.00024063099,
                              -0.0070013399 0.019080279 0.00024063099,
                              0.0020462871 0.01958411 0.00024063099,
                              -0.002687454 0.01863235 0.00024063099,
                              -0.0074213138 0.01768052 0.00024063099,
                              0.0025278919 0.01838892 0.000240635,
                              -0.002618432 0.0172916 0.000240635,
                              -0.0077648158 0.01619434 0.000240635,
                              -0.0025405281 0.0158621 0.00024063099,
                              0.0033147931 0.015629349 0.00024063099,
                              -0.0024544001 0.01436501 0.00024063099,
                              -0.0082236519 0.01310068 0.000240635,
                              0.0036180611 0.01408112 0.00024063099,
                              -0.0023607609 0.01282173 0.00024063099,
                              -0.0083397031 0.01156234 0.00024063099,
                              0.0038719771 0.0123195 0.00024063099,
                              -0.0022583001 0.01111632 0.00024063099,
                              -0.0083886376 0.0099132061 0.00024063099,
                              -0.0083982944 0.0077162981 0.00024063099,
                              -0.0021429651 0.0088915816 0.00024063099,
                              0.0041123028 0.01006686 0.00024063099,
                              -0.0083600283 0.0055980082 0.00024063099,
                              -0.00202912 0.0067468281 0.00024063099,
                              0.0043017259 0.0078955879 0.00024063099,
                              -0.0082785478 0.003711402 0.00024063099,
                              -0.001923203 0.0048190951 0.00024063099,
                              0.0044320822 0.005926847 0.00024063099,
                              -0.0081650009 0.0020065899 0.00024063099,
                              -0.0018283119 0.0030541411 0.00024063099,
                              0.0045083761 0.004101634 0.00024063099,
                              -0.0080305329 0.00043379099 0.00024063099,
                              -0.001747548 0.00139749 0.00024063099,
                              0.004535317 0.002361238 0.00024063099,
                              -0.0078862896 -0.001056909 0.00024063099,
                              -0.001684129 -0.00020512201 0.00024063099,
                              0.004517972 0.00064668799 0.000240635,
                              -0.007676899 -0.01390272 0.000240635,
                              -0.001596748 -0.01305335 0.000240635,
                              0.0044832821 -0.001242995 0.00024063099,
                              -0.0075138211 -0.015955091 0.000172731,
                              -0.0015555019 -0.01509529 0.00019536899,
                              0.0044028158 -0.01423549 0.000218,
                              0.002951025 0.01706796 0.00024063099,
                              -0.0080321431 0.01465618 0.00024063099,
                              0.00091191399 0.02156502 0.00024063099,
                              -0.0065045352 0.02035909 0.00024063099,
                              -0.0059304829 0.021482339 0.00024063099,
                              0.00026105699 0.02233457 0.00024063099,
                              -0.02033334 0.0082187047 -0.038720358,
                              -0.02053236 0.0050124521 -0.038720358,
                              -0.02030766 -0.01420831 -0.038720358,
                              -0.020029239 -0.016411779 -0.038720358,
                              -0.019696349 -0.0184521 -0.038720358,
                              -0.019337351 -0.020396469 -0.038720358,
                              0.01613396 -0.022477141 -0.038720358,
                              0.01613396 -0.022477141 -0.038720358,
                              0.01613521 -0.022461349 -0.032854311,
                              0.001845896 0.030143259 -0.038720358,
                              -0.00055208598 0.03041321 -0.038720358,
                              0.01711219 0.005742311 -0.038720358,
                              0.01688307 0.0087165227 -0.038720358,
                              0.0061170449 0.0290116 -0.038720358,
                              0.0040695658 0.029678641 -0.038720358,
                              0.01715791 0.000252962 -0.038720358,
                              0.01719748 0.0029523959 -0.038720358,
                              -0.0030997989 0.03046375 -0.038720358,
                              -0.0056640501 0.03014808 -0.038720358,
                              -0.01886039 0.01523554 -0.038720358,
                              -0.01955455 0.01284748 -0.038720358,
                              -0.0080569983 0.029351231 -0.038720358,
                              -0.01023751 0.028108111 -0.038720358,
                              0.01595079 0.0153405 -0.038720358,
                              0.016490931 0.01196873 -0.038720358,
                              -0.02003663 0.01057863 -0.038720358,
                              0.01250559 0.02416628 -0.038720358,
                              0.01118254 0.02571952 -0.038720358,
                              0.016481631 -0.019201569 -0.038720358,
                              0.0096755018 0.027039699 -0.038720358,
                              0.0079863658 0.028134519 -0.038720358,
                              -0.01683533 0.020086341 -0.038720358,
                              -0.01795399 0.01767206 -0.038720358,
                              0.016780909 -0.01621067 -0.038720358,
                              0.01701271 -0.01341074 -0.038720358,
                              -0.01396113 0.024565689 -0.038720358,
                              -0.01550441 0.02240782 -0.038720358,
                              -0.018980561 -0.02231192 -0.038720358,
                              -0.01865446 -0.02426552 -0.038720358,
                              -0.01865446 -0.02426552 -0.038720358,
                              0.01459157 0.020330129 -0.038720358,
                              0.01364254 0.022372421 -0.038720358,
                              -0.020503281 -0.01177471 -0.038720358,
                              0.01535063 0.01803189 -0.038720358,
                              -0.020587619 0.001917123 -0.038720358,
                              -0.01865202 -0.024261169 -0.032854311,
                              -0.01220554 0.02648937 -0.038720358,
                              -0.01857429 -0.02415877 -0.02238219,
                              0.016045621 -0.02236777 -0.02238219,
                              0.01538038 -0.021670749 -0.01234346,
                              -0.01799654 -0.023397559 -0.01234346,
                              0.01438027 -0.02062308 -0.0061497092,
                              -0.017128101 -0.02225321 -0.0061497092,
                              -0.0072086449 0.026088649 -0.0020171399,
                              -0.0090543032 0.025033889 -0.0020171399,
                              -0.01558572 0.01618802 -0.0020171399,
                              -0.01635289 0.0141232 -0.0020171399,
                              -0.016940471 0.01209938 -0.0020171399,
                              -0.01734852 0.01017647 -0.0020171399,
                              0.01311957 0.01425093 -0.0020171399,
                              0.0135833 0.01134663 -0.0020171399,
                              -0.01072007 0.02366125 -0.0020171399,
                              0.01021015 0.02169269 -0.0020171399,
                              0.0090902438 0.023007089 -0.0020171399,
                              -0.01351231 0.020201501 -0.0020171399,
                              -0.01463884 0.01823407 -0.0020171399,
                              -0.01644605 -0.019338191 -0.0020171399,
                              -0.01616901 -0.020989411 -0.0020171399,
                              -0.01616901 -0.020989411 -0.0020171399,
                              -0.01616901 -0.020989411 -0.0020171399,
                              0.0078145862 0.024124259 -0.0020171399,
                              0.006384789 0.02505064 -0.0020171399,
                              0.01357072 -0.016696749 -0.0020171399,
                              0.0138247 -0.01416856 -0.0020171399,
                              0.01197594 0.0184462 -0.0020171399,
                              0.01117259 0.020174559 -0.0020171399,
                              -0.01220607 0.02203053 -0.0020171399,
                              0.01402157 -0.01180195 -0.0020171399,
                              0.01414519 0.001443386 -0.0020171399,
                              -0.01781231 0.002838969 -0.0020171399,
                              -0.01773995 0.000529841 -0.0020171399,
                              0.01391458 0.0085971951 -0.0020171399,
                              0.01261854 0.016501119 -0.0020171399,
                              -0.017593971 0.0082361689 -0.0020171399,
                              -0.017766589 0.0054565659 -0.0020171399,
                              -0.017573349 -0.0124886 -0.0020171399,
                              -0.017336721 -0.0143513 -0.0020171399,
                              -0.0170539 -0.0160759 -0.0020171399,
                              -0.016749021 -0.017719259 -0.0020171399,
                              -0.00084267202 0.02697831 -0.0020171399,
                              -0.003003954 0.027027721 -0.0020171399,
                              0.01417934 0.003724932 -0.0020171399,
                              0.01410788 0.0060830712 -0.0020171399,
                              0.0030693409 0.026357111 -0.0020171399,
                              0.001187086 0.02675014 -0.0020171399,
                              0.004802465 0.02579277 -0.0020171399,
                              -0.005183219 0.026765641 -0.0020171399,
                              0.0132758 -0.019465979 -0.0020171399,
                              0.0132758 -0.019465979 -0.0020171399,
                              0.0132758 -0.019465979 -0.0020171399,
                              0.0057611461 -0.02278864 -0.0020171399,
                              0.007220983 -0.02617955 -0.038720358,
                              -0.0062226648 0.022990519 0.00024063099,
                              -0.00769627 0.022150271 0.00024063099,
                              -0.01291114 0.01509702 0.00024063099,
                              -0.01352369 0.01345032 0.00024063099,
                              -0.0139929 0.01183634 0.000240635,
                              -0.01431864 0.01030296 0.00024063099,
                              0.01000237 0.01352262 0.00024063099,
                              0.01036763 0.01124221 0.00024063099,
                              -0.0090262881 0.021056229 0.00024063099,
                              0.0076742759 0.019486239 0.000240635,
                              0.0067801471 0.020535881 0.00024063099,
                              -0.01125574 0.01829773 0.00024063099,
                              -0.01215517 0.016728749 0.00024063099,
                              -0.01347219 -0.01681488 0.00015009601,
                              -0.01315069 -0.01930791 0.00028055199,
                              -0.01315069 -0.01930791 0.00028055199,
                              0.0057616821 0.021428101 0.00024063099,
                              0.0046201339 0.022167981 0.00024063099,
                              0.01036119 -0.01337569 0.000240639,
                              0.01056343 -0.000393622 0.00024063099,
                              0.0090839863 0.016893679 0.00024063099,
                              0.0084426403 0.01827389 0.00024063099,
                              -0.01021277 0.019756131 0.00024063099,
                              0.01072013 0.00149846 0.000240635,
                              0.0108183 0.003324925 0.00024063099,
                              -0.01469093 0.0044491878 0.00024063099,
                              -0.01463389 0.0026036501 0.00024063099,
                              0.01063263 0.0090444079 0.00024063099,
                              0.0095970035 0.0153405 0.00024063099,
                              -0.01451897 0.0087100863 0.00024063099,
                              -0.01465362 0.0065409541 0.00024063099,
                              -0.01450169 0.00095909799 0.00024063099,
                              -0.01431345 -0.00052993698 0.00024063099,
                              -0.01408845 -0.01286965 0.000240635,
                              -0.01375705 -0.01475214 0.000240635,
                              -0.00115025 0.023707859 0.00024063099,
                              -0.0028722279 0.023742249 0.00024063099,
                              0.01084506 0.0051491852 0.00024063099,
                              0.01078742 0.0070345402 0.00024063099,
                              0.0019730921 0.02321147 0.00024063099,
                              0.000470314 0.023525471 0.00024063099,
                              0.0033568139 0.02276068 0.00024063099,
                              -0.0046054721 0.02352911 0.00024063099,
                              0.0099182716 -0.017608641 0.000310492,
                              0.0099182716 -0.017608641 0.000310492,
                              0.003509223 -0.020551911 0.00019270901,
                              -0.0098512173 -0.026276169 -0.038720358,
                              -0.001315057 -0.02622783 -0.038720358,
                              -0.0086286059 -0.02325475 -0.0020171399,
                              -0.0014336701 -0.023021691 -0.0020171399,
                              -0.0075485702 -0.020984231 0.000202686,
                              -0.0020196431 -0.020932009 0.00019769699 ]

                        }
                        normal 
                        USE _+0
                        coordIndex [ 1, 0, 2, -1, 3, 2, 4, -1,
                            5, 4, 6, -1, 7, 6, 8, -1,
                            9, 8, 10, -1, 11, 10, 12, -1,
                            12, 14, 15, -1, 14, 16, 17, -1,
                            16, 18, 19, -1, 18, 20, 21, -1,
                            20, 22, 23, -1, 22, 24, 25, -1,
                            25, 24, 26, -1, 27, 26, 28, -1,
                            28, 30, 31, -1, 30, 32, 33, -1,
                            32, 34, 35, -1, 34, 36, 37, -1,
                            36, 38, 39, -1, 39, 38, 40, -1,
                            41, 40, 42, -1, 43, 42, 44, -1,
                            45, 44, 46, -1, 46, 48, 49, -1,
                            48, 50, 51, -1, 51, 50, 52, -1,
                            53, 52, 54, -1, 55, 54, 56, -1,
                            57, 56, 58, -1, 59, 58, 60, -1,
                            61, 60, 62, -1, 62, 64, 65, -1,
                            64, 66, 67, -1, 69, 68, 70, -1,
                            71, 70, 72, -1, 73, 72, 74, -1,
                            75, 74, 76, -1, 76, 78, 79, -1,
                            78, 80, 81, -1, 80, 82, 83, -1,
                            82, 84, 85, -1, 85, 84, 0, -1,
                            114, 113, 55, -1, 94, 93, 15, -1,
                            111, 110, 49, -1, 89, 88, 5, -1,
                            75, 123, 122, -1, 81, 126, 125, -1,
                            19, 95, 94, -1, 39, 105, 104, -1,
                            86, 128, 85, -1, 23, 97, 96, -1,
                            110, 109, 47, -1, 43, 107, 106, -1,
                            83, 127, 126, -1, 85, 128, 127, -1,
                            115, 114, 57, -1, 87, 86, 1, -1,
                            113, 112, 53, -1, 35, 103, 102, -1,
                            118, 117, 63, -1, 45, 108, 107, -1,
                            112, 111, 51, -1, 27, 99, 98, -1,
                            33, 102, 101, -1, 116, 115, 59, -1,
                            88, 87, 3, -1, 29, 100, 99, -1,
                            41, 106, 105, -1, 21, 96, 95, -1,
                            119, 118, 65, -1, 77, 124, 123, -1,
                            117, 116, 61, -1, 47, 109, 108, -1,
                            93, 92, 13, -1, 92, 91, 11, -1,
                            37, 104, 103, -1, 91, 90, 9, -1,
                            25, 98, 97, -1, 90, 89, 7, -1,
                            71, 121, 120, -1, 73, 122, 121, -1,
                            79, 125, 124, -1, 31, 101, 100, -1,
                            108, 151, 150, -1, 159, 158, 115, -1,
                            124, 167, 166, -1, 104, 147, 146, -1,
                            121, 164, 163, -1, 126, 169, 168, -1,
                            101, 144, 143, -1, 157, 156, 113, -1,
                            162, 161, 118, -1, 107, 150, 149, -1,
                            156, 155, 112, -1, 127, 170, 169, -1,
                            123, 166, 165, -1, 136, 135, 92, -1,
                            158, 157, 114, -1, 106, 149, 148, -1,
                            135, 134, 91, -1, 96, 139, 138, -1,
                            109, 152, 151, -1, 95, 138, 137, -1,
                            129, 171, 128, -1, 171, 170, 127, -1,
                            137, 136, 93, -1, 160, 159, 116, -1,
                            130, 129, 86, -1, 122, 165, 164, -1,
                            131, 130, 87, -1, 98, 141, 140, -1,
                            102, 145, 144, -1, 100, 143, 142, -1,
                            132, 131, 88, -1, 133, 132, 89, -1,
                            125, 168, 167, -1, 97, 140, 139, -1,
                            154, 153, 110, -1, 155, 154, 111, -1,
                            153, 152, 109, -1, 134, 133, 90, -1,
                            161, 160, 117, -1, 103, 146, 145, -1,
                            99, 142, 141, -1, 105, 148, 147, -1,
                            164, 207, 206, -1, 169, 212, 211, -1,
                            144, 187, 186, -1, 200, 199, 156, -1,
                            205, 204, 161, -1, 150, 193, 192, -1,
                            199, 198, 155, -1, 170, 213, 212, -1,
                            166, 209, 208, -1, 179, 178, 135, -1,
                            201, 200, 157, -1, 149, 192, 191, -1,
                            178, 177, 134, -1, 139, 182, 181, -1,
                            152, 195, 194, -1, 138, 181, 180, -1,
                            172, 214, 171, -1, 214, 213, 170, -1,
                            180, 179, 136, -1, 203, 202, 159, -1,
                            173, 172, 129, -1, 174, 173, 130, -1,
                            165, 208, 207, -1, 141, 184, 183, -1,
                            145, 188, 187, -1, 143, 186, 185, -1,
                            175, 174, 131, -1, 176, 175, 132, -1,
                            168, 211, 210, -1, 140, 183, 182, -1,
                            197, 196, 153, -1, 198, 197, 154, -1,
                            196, 195, 152, -1, 177, 176, 133, -1,
                            204, 203, 160, -1, 146, 189, 188, -1,
                            142, 185, 184, -1, 148, 191, 190, -1,
                            151, 194, 193, -1, 202, 201, 158, -1,
                            167, 210, 209, -1, 147, 190, 189, -1,
                            243, 242, 199, -1, 248, 247, 204, -1,
                            193, 236, 235, -1, 242, 241, 198, -1,
                            213, 256, 255, -1, 209, 252, 251, -1,
                            222, 221, 178, -1, 244, 243, 200, -1,
                            192, 235, 234, -1, 221, 220, 177, -1,
                            182, 225, 224, -1, 195, 238, 237, -1,
                            181, 224, 223, -1, 215, 257, 214, -1,
                            257, 256, 213, -1, 223, 222, 179, -1,
                            246, 245, 202, -1, 216, 215, 172, -1,
                            217, 216, 173, -1, 208, 251, 250, -1,
                            184, 227, 226, -1, 188, 231, 230, -1,
                            186, 229, 228, -1, 218, 217, 174, -1,
                            219, 218, 175, -1, 211, 254, 253, -1,
                            240, 239, 196, -1, 183, 226, 225, -1,
                            241, 240, 197, -1, 239, 238, 195, -1,
                            220, 219, 176, -1, 247, 246, 203, -1,
                            189, 232, 231, -1, 185, 228, 227, -1,
                            191, 234, 233, -1, 194, 237, 236, -1,
                            245, 244, 201, -1, 210, 253, 252, -1,
                            190, 233, 232, -1, 207, 250, 470, -1,
                            212, 255, 254, -1, 187, 230, 229, -1,
                            450, 298, 297, -1, 444, 265, 264, -1,
                            287, 286, 458, -1, 428, 278, 277, -1,
                            264, 263, 436, -1, 467, 268, 267, -1,
                            281, 280, 430, -1, 466, 267, 266, -1,
                            432, 258, 303, -1, 433, 303, 302, -1,
                            468, 266, 265, -1, 289, 288, 460, -1,
                            259, 258, 432, -1, 260, 259, 455, -1,
                            446, 297, 296, -1, 463, 270, 269, -1,
                            434, 274, 273, -1, 426, 272, 271, -1,
                            261, 260, 447, -1, 262, 261, 448, -1,
                            464, 300, 299, -1, 462, 269, 268, -1,
                            283, 282, 456, -1, 284, 283, 457, -1,
                            282, 281, 431, -1, 263, 262, 435, -1,
                            290, 289, 461, -1, 449, 275, 274, -1,
                            469, 271, 270, -1, 438, 277, 276, -1,
                            280, 279, 429, -1, 288, 287, 459, -1,
                            451, 299, 298, -1, 437, 276, 275, -1,
                            445, 296, 518, -1, 465, 301, 300, -1,
                            427, 273, 272, -1, 286, 285, 453, -1,
                            291, 290, 439, -1, 279, 278, 428, -1,
                            285, 284, 452, -1, 454, 302, 301, -1,
                            379, 381, 313, -1, 421, 312, 313, -1,
                            312, 294, 293, -1, 293, 292, 314, -1,
                            320, 321, 292, -1, 293, 294, 319, -1,
                            320, 319, 420, -1, 321, 320, 418, -1,
                            319, 318, 423, -1, 294, 304, 318, -1,
                            311, 304, 294, -1, 312, 421, 422, -1,
                            424, 310, 311, -1, 310, 305, 304, -1,
                            304, 305, 317, -1, 318, 317, 425, -1,
                            317, 523, 441, -1, 316, 315, 489, -1,
                            306, 307, 315, -1, 305, 524, 523, -1,
                            308, 307, 306, -1, 473, 524, 305, -1,
                            310, 424, 249, -1, 309, 472, 295, -1,
                            372, 516, 514, -1, 510, 322, 372, -1,
                            517, 371, 322, -1, 476, 483, 371, -1,
                            516, 372, 369, -1, 323, 369, 372, -1,
                            323, 322, 371, -1, 483, 497, 370, -1,
                            362, 365, 366, -1, 361, 364, 365, -1,
                            359, 362, 363, -1, 356, 359, 360, -1,
                            353, 356, 357, -1, 350, 353, 354, -1,
                            347, 350, 351, -1, 344, 347, 348, -1,
                            341, 344, 345, -1, 338, 341, 340, -1,
                            335, 338, 337, -1, 333, 335, 334, -1,
                            331, 333, 367, -1, 331, 330, 327, -1,
                            328, 327, 324, -1, 325, 324, 369, -1,
                            492, 369, 324, -1, 491, 324, 327, -1,
                            485, 327, 330, -1, 484, 330, 367, -1,
                            496, 367, 334, -1, 495, 334, 337, -1,
                            481, 503, 337, -1, 482, 481, 340, -1,
                            502, 482, 345, -1, 513, 502, 348, -1,
                            512, 513, 351, -1, 499, 512, 354, -1,
                            498, 499, 357, -1, 494, 498, 360, -1,
                            493, 494, 363, -1, 519, 493, 366, -1,
                            520, 366, 365, -1, 526, 365, 364, -1,
                            490, 525, 364, -1, 364, 361, 509, -1,
                            361, 358, 508, -1, 358, 355, 507, -1,
                            355, 352, 506, -1, 352, 349, 501, -1,
                            349, 346, 500, -1, 346, 343, 505, -1,
                            343, 342, 504, -1, 480, 504, 342, -1,
                            479, 480, 339, -1, 478, 479, 336, -1,
                            477, 478, 368, -1, 487, 477, 332, -1,
                            486, 487, 329, -1, 497, 486, 326, -1,
                            325, 323, 370, -1, 326, 329, 328, -1,
                            329, 332, 331, -1, 332, 368, 333, -1,
                            335, 333, 368, -1, 336, 339, 338, -1,
                            339, 342, 341, -1, 342, 343, 344, -1,
                            343, 346, 347, -1, 346, 349, 350, -1,
                            349, 352, 353, -1, 352, 355, 356, -1,
                            355, 358, 359, -1, 358, 361, 362, -1,
                            385, 393, 397, -1, 3, 1, 2, -1,
                            5, 3, 4, -1, 7, 5, 6, -1,
                            9, 7, 8, -1, 11, 9, 10, -1,
                            13, 11, 12, -1, 13, 12, 15, -1,
                            15, 14, 17, -1, 17, 16, 19, -1,
                            19, 18, 21, -1, 21, 20, 23, -1,
                            23, 22, 25, -1, 27, 25, 26, -1,
                            29, 27, 28, -1, 29, 28, 31, -1,
                            31, 30, 33, -1, 33, 32, 35, -1,
                            35, 34, 37, -1, 37, 36, 39, -1,
                            41, 39, 40, -1, 43, 41, 42, -1,
                            45, 43, 44, -1, 47, 45, 46, -1,
                            47, 46, 49, -1, 49, 48, 51, -1,
                            53, 51, 52, -1, 55, 53, 54, -1,
                            57, 55, 56, -1, 59, 57, 58, -1,
                            61, 59, 60, -1, 63, 61, 62, -1,
                            63, 62, 65, -1, 65, 64, 67, -1,
                            71, 69, 70, -1, 73, 71, 72, -1,
                            75, 73, 74, -1, 77, 75, 76, -1,
                            77, 76, 79, -1, 79, 78, 81, -1,
                            81, 80, 83, -1, 83, 82, 85, -1,
                            1, 85, 0, -1, 57, 114, 55, -1,
                            17, 94, 15, -1, 51, 111, 49, -1,
                            7, 89, 5, -1, 73, 75, 122, -1,
                            79, 81, 125, -1, 17, 19, 94, -1,
                            37, 39, 104, -1, 1, 86, 85, -1,
                            21, 23, 96, -1, 49, 110, 47, -1,
                            41, 43, 106, -1, 81, 83, 126, -1,
                            83, 85, 127, -1, 59, 115, 57, -1,
                            3, 87, 1, -1, 55, 113, 53, -1,
                            33, 35, 102, -1, 65, 118, 63, -1,
                            43, 45, 107, -1, 53, 112, 51, -1,
                            25, 27, 98, -1, 31, 33, 101, -1,
                            61, 116, 59, -1, 5, 88, 3, -1,
                            27, 29, 99, -1, 39, 41, 105, -1,
                            19, 21, 95, -1, 67, 119, 65, -1,
                            75, 77, 123, -1, 63, 117, 61, -1,
                            45, 47, 108, -1, 15, 93, 13, -1,
                            13, 92, 11, -1, 35, 37, 103, -1,
                            11, 91, 9, -1, 23, 25, 97, -1,
                            9, 90, 7, -1, 69, 71, 120, -1,
                            71, 73, 121, -1, 77, 79, 124, -1,
                            29, 31, 100, -1, 107, 108, 150, -1,
                            116, 159, 115, -1, 123, 124, 166, -1,
                            103, 104, 146, -1, 120, 121, 163, -1,
                            125, 126, 168, -1, 100, 101, 143, -1,
                            114, 157, 113, -1, 119, 162, 118, -1,
                            106, 107, 149, -1, 113, 156, 112, -1,
                            126, 127, 169, -1, 122, 123, 165, -1,
                            93, 136, 92, -1, 115, 158, 114, -1,
                            105, 106, 148, -1, 92, 135, 91, -1,
                            95, 96, 138, -1, 108, 109, 151, -1,
                            94, 95, 137, -1, 86, 129, 128, -1,
                            128, 171, 127, -1, 94, 137, 93, -1,
                            117, 160, 116, -1, 87, 130, 86, -1,
                            121, 122, 164, -1, 88, 131, 87, -1,
                            97, 98, 140, -1, 101, 102, 144, -1,
                            99, 100, 142, -1, 89, 132, 88, -1,
                            90, 133, 89, -1, 124, 125, 167, -1,
                            96, 97, 139, -1, 111, 154, 110, -1,
                            112, 155, 111, -1, 110, 153, 109, -1,
                            91, 134, 90, -1, 118, 161, 117, -1,
                            102, 103, 145, -1, 98, 99, 141, -1,
                            104, 105, 147, -1, 163, 164, 206, -1,
                            168, 169, 211, -1, 143, 144, 186, -1,
                            157, 200, 156, -1, 162, 205, 161, -1,
                            149, 150, 192, -1, 156, 199, 155, -1,
                            169, 170, 212, -1, 165, 166, 208, -1,
                            136, 179, 135, -1, 158, 201, 157, -1,
                            148, 149, 191, -1, 135, 178, 134, -1,
                            138, 139, 181, -1, 151, 152, 194, -1,
                            137, 138, 180, -1, 129, 172, 171, -1,
                            171, 214, 170, -1, 137, 180, 136, -1,
                            160, 203, 159, -1, 130, 173, 129, -1,
                            131, 174, 130, -1, 164, 165, 207, -1,
                            140, 141, 183, -1, 144, 145, 187, -1,
                            142, 143, 185, -1, 132, 175, 131, -1,
                            133, 176, 132, -1, 167, 168, 210, -1,
                            139, 140, 182, -1, 154, 197, 153, -1,
                            155, 198, 154, -1, 153, 196, 152, -1,
                            134, 177, 133, -1, 161, 204, 160, -1,
                            145, 146, 188, -1, 141, 142, 184, -1,
                            147, 148, 190, -1, 150, 151, 193, -1,
                            159, 202, 158, -1, 166, 167, 209, -1,
                            146, 147, 189, -1, 200, 243, 199, -1,
                            205, 248, 204, -1, 192, 193, 235, -1,
                            199, 242, 198, -1, 212, 213, 255, -1,
                            208, 209, 251, -1, 179, 222, 178, -1,
                            201, 244, 200, -1, 191, 192, 234, -1,
                            178, 221, 177, -1, 181, 182, 224, -1,
                            194, 195, 237, -1, 180, 181, 223, -1,
                            172, 215, 214, -1, 214, 257, 213, -1,
                            180, 223, 179, -1, 203, 246, 202, -1,
                            173, 216, 172, -1, 174, 217, 173, -1,
                            207, 208, 250, -1, 183, 184, 226, -1,
                            187, 188, 230, -1, 185, 186, 228, -1,
                            175, 218, 174, -1, 176, 219, 175, -1,
                            210, 211, 253, -1, 197, 240, 196, -1,
                            182, 183, 225, -1, 198, 241, 197, -1,
                            196, 239, 195, -1, 177, 220, 176, -1,
                            204, 247, 203, -1, 188, 189, 231, -1,
                            184, 185, 227, -1, 190, 191, 233, -1,
                            193, 194, 236, -1, 202, 245, 201, -1,
                            209, 210, 252, -1, 189, 190, 232, -1,
                            206, 207, 470, -1, 211, 212, 254, -1,
                            186, 187, 229, -1, 446, 450, 297, -1,
                            443, 444, 264, -1, 459, 287, 458, -1,
                            438, 428, 277, -1, 443, 264, 436, -1,
                            466, 467, 267, -1, 431, 281, 430, -1,
                            468, 466, 266, -1, 433, 432, 303, -1,
                            454, 433, 302, -1, 444, 468, 265, -1,
                            461, 289, 460, -1, 455, 259, 432, -1,
                            447, 260, 455, -1, 445, 446, 296, -1,
                            462, 463, 269, -1, 427, 434, 273, -1,
                            469, 426, 271, -1, 448, 261, 447, -1,
                            435, 262, 448, -1, 451, 464, 299, -1,
                            467, 462, 268, -1, 457, 283, 456, -1,
                            452, 284, 457, -1, 456, 282, 431, -1,
                            436, 263, 435, -1, 439, 290, 461, -1,
                            434, 449, 274, -1, 463, 469, 270, -1,
                            437, 438, 276, -1, 430, 280, 429, -1,
                            460, 288, 459, -1, 450, 451, 298, -1,
                            449, 437, 275, -1, 471, 445, 518, -1,
                            464, 465, 300, -1, 426, 427, 272, -1,
                            458, 286, 453, -1, 440, 291, 439, -1,
                            429, 279, 428, -1, 453, 285, 452, -1,
                            465, 454, 301, -1, 314, 379, 313, -1,
                            381, 421, 313, -1, 313, 312, 293, -1,
                            313, 293, 314, -1, 293, 320, 292, -1,
                            320, 293, 319, -1, 418, 320, 420, -1,
                            411, 321, 418, -1, 420, 319, 423, -1,
                            319, 294, 318, -1, 312, 311, 294, -1,
                            311, 312, 422, -1, 422, 424, 311, -1,
                            311, 310, 304, -1, 318, 304, 317, -1,
                            423, 318, 425, -1, 425, 317, 441, -1,
                            442, 316, 489, -1, 316, 306, 315, -1,
                            317, 305, 523, -1, 309, 308, 306, -1,
                            310, 473, 305, -1, 473, 310, 249, -1,
                            308, 309, 295, -1, 515, 372, 514, -1,
                            322, 510, 511, -1, 510, 372, 515, -1,
                            371, 517, 475, -1, 517, 322, 511, -1,
                            475, 476, 371, -1, 492, 516, 369, -1,
                            322, 323, 372, -1, 370, 323, 371, -1,
                            371, 483, 370, -1, 363, 362, 366, -1,
                            362, 361, 365, -1, 360, 359, 363, -1,
                            357, 356, 360, -1, 354, 353, 357, -1,
                            351, 350, 354, -1, 348, 347, 351, -1,
                            345, 344, 348, -1, 340, 341, 345, -1,
                            337, 338, 340, -1, 334, 335, 337, -1,
                            367, 333, 334, -1, 330, 331, 367, -1,
                            328, 331, 327, -1, 325, 328, 324, -1,
                            323, 325, 369, -1, 491, 492, 324, -1,
                            485, 491, 327, -1, 484, 485, 330, -1,
                            496, 484, 367, -1, 495, 496, 334, -1,
                            503, 495, 337, -1, 340, 481, 337, -1,
                            345, 482, 340, -1, 348, 502, 345, -1,
                            351, 513, 348, -1, 354, 512, 351, -1,
                            357, 499, 354, -1, 360, 498, 357, -1,
                            363, 494, 360, -1, 366, 493, 363, -1,
                            520, 519, 366, -1, 526, 520, 365, -1,
                            525, 526, 364, -1, 488, 490, 364, -1,
                            488, 364, 509, -1, 509, 361, 508, -1,
                            508, 358, 507, -1, 507, 355, 506, -1,
                            506, 352, 501, -1, 501, 349, 500, -1,
                            500, 346, 505, -1, 505, 343, 504, -1,
                            339, 480, 342, -1, 336, 479, 339, -1,
                            368, 478, 336, -1, 332, 477, 368, -1,
                            329, 487, 332, -1, 326, 486, 329, -1,
                            370, 497, 326, -1, 326, 325, 370, -1,
                            325, 326, 328, -1, 328, 329, 331, -1,
                            331, 332, 333, -1, 336, 335, 368, -1,
                            335, 336, 338, -1, 338, 339, 341, -1,
                            341, 342, 344, -1, 344, 343, 347, -1,
                            347, 346, 350, -1, 350, 349, 353, -1,
                            353, 352, 356, -1, 356, 355, 359, -1,
                            359, 358, 362, -1, 384, 374, 373, -1,
                            388, 415, 417, -1, 521, 376, 375, -1,
                            521, 378, 377, -1, 521, 412, 410, -1,
                            377, 376, 521, -1, 401, 380, 474, -1,
                            474, 406, 401, -1, 417, 389, 388, -1,
                            474, 407, 406, -1, 407, 474, 522, -1,
                            521, 410, 378, -1, 407, 522, 415, -1,
                            385, 373, 398, -1, 397, 393, 392, -1,
                            396, 405, 404, -1, 383, 409, 408, -1,
                            390, 419, 395, -1, 395, 394, 391, -1,
                            419, 390, 383, -1, 416, 382, 387, -1,
                            414, 386, 403, -1, 399, 402, 400, -1,
                            403, 399, 414, -1, 387, 413, 416, -1,
                            405, 396, 397, -1, 373, 385, 384, -1,
                            415, 388, 407, -1, 375, 522, 521, -1,
                            384, 389, 374, -1, 397, 392, 405, -1,
                            383, 408, 419, -1, 395, 391, 390, -1,
                            413, 387, 386, -1, 403, 402, 399, -1,
                            404, 409, 396, -1, 417, 374, 389, -1,
                            415, 522, 375, -1, 383, 382, 409, -1,
                            416, 409, 382, -1, 386, 414, 413, -1,
                            393, 385, 398, -1, 416, 396, 409 ]
                        ccw TRUE
                        solid FALSE
                        convex TRUE
                        creaseAngle 0

                      }

                    }

                }

            }

        },
          
        Group {
          children 
            Transform {
              translation 0 0 -0.038999971
              rotation 0 0 1  0
              scale 1 1 1
              scaleOrientation 0 0 1  0

            }

        },
          
        Group {
          children 
            Transform {
              translation 0.00059999898 0.023800001 -0.0187
              rotation 0.85637516 0.067397654 0.51193583  0.30507866
              scale 1 0.99999994 1.0000001
              scaleOrientation -0.40321386 0.2110289 0.89044118  0.75322115

            }

        } ]

    }

}
