#VRML V2.0 utf8


Group {
  children 
    Group {
      children [ 
        Group {
          children 
            Transform {
              translation 0.0275 -0.059999999 0.034994781
              rotation 0 0 1  0
              scale 1 1 1
              scaleOrientation 0 0 1  0

            }

        },
          
        Group {
          children 
            Transform {
              translation 0.097149998 3.3372499e-011 0
              rotation 0 0 1  0
              scale 1 1 1
              scaleOrientation 0 0 1  0

            }

        },
          
        Group {
          children 
            Transform {
              translation 0.067769997 0.043981131 0.034994781
              rotation 0 0 1  0
              scale 1 1 1
              scaleOrientation 0 0 1  0

            }

        },
          
        Group {
          children 
            Transform {
              translation -0.052000001 0 -0
              rotation 0 0 1  0
              scale 1 1 1
              scaleOrientation 0 0 1  0
              children 
                Transform {
                  translation 7.2759598e-010 3.3372999e-011 0.01250005
                  rotation 0 0 1  0
                  scale 1 1 1
                  scaleOrientation 0 0 1  0
                  children 
                    Shape {
                      appearance 
                      Appearance {
                        material 
                        Material {
                          diffuseColor 0.65864992 0.50308388 0.31538299

                        }

                      }
                      geometry 
                      IndexedFaceSet {
                        coord 
                        Coordinate {
                          point [ 0.0466755 -0.001592993 -0.062287029,
                              0.065494291 -0.0025613899 -0.061966121,
                              0.046313759 -0.02152293 -0.0621497,
                              0.02424567 -0.00075962802 -0.062454522,
                              0.04645633 0.018376701 -0.0621497,
                              0.064383738 0.01504218 -0.061847501,
                              0.064258449 -0.020017439 -0.061847441,
                              0.0241723 -0.02192872 -0.06231099,
                              0.024323581 0.020413389 -0.06231093,
                              0.01825803 -0.0041767349 0.062422272,
                              0.0094675422 -0.0040099621 0.0625,
                              0.020016899 -0.01325559 0.062001701,
                              0.028354039 -0.0043221111 0.062021252,
                              0.020082351 0.005053102 0.062200781,
                              0.0104981 0.0057632318 0.06228482,
                              0.01042884 -0.01360231 0.062078591,
                              0.02786242 -0.01238107 0.061770432,
                              0.027920179 0.0037865629 0.061948061,
                              0.09266936 -0.004175961 -0.05889314,
                              0.094305091 -0.0042171469 -0.05509543,
                              0.089653313 -0.022475541 -0.05890071,
                              0.088277452 -0.0039362311 -0.06072282,
                              0.08978533 0.01448422 -0.05890071,
                              0.091332249 0.01518785 -0.055116829,
                              0.091194861 -0.02325171 -0.055116829,
                              0.085525572 -0.020514959 -0.060687061,
                              0.085645251 0.0129733 -0.060687061,
                              0.095499992 -0.003899157 -0.02552866,
                              0.095139198 -0.0038343661 -0.01145565,
                              0.092346482 -0.02427697 -0.02554762,
                              0.09519726 -0.0040161009 -0.038257241,
                              0.092493407 0.016846411 -0.02554273,
                              0.092145503 0.01722776 -0.01145994,
                              0.091996253 -0.02453744 -0.01147943,
                              0.092055321 -0.023888281 -0.03827589,
                              0.09219861 0.016226759 -0.03827589,
                              0.047964212 0.056160498 -0.025761301,
                              0.047807571 0.054776479 -0.038527358,
                              0.024874739 0.060510632 -0.02583527,
                              0.04778707 0.05694681 -0.0116344,
                              0.067959182 0.047936611 -0.0256713,
                              0.067739777 0.046663761 -0.038424902,
                              0.024790941 0.05909723 -0.03861123,
                              0.024785159 0.061285488 -0.01169681,
                              0.067705981 0.048688229 -0.01155948,
                              0.047094882 0.050227761 -0.05921125,
                              0.04658401 0.045046739 -0.061037771,
                              0.024489461 0.054337021 -0.059316751,
                              0.047352791 0.05241036 -0.055406678,
                              0.066358559 0.042644732 -0.05907207,
                              0.06450706 0.038302179 -0.060844,
                              0.02444285 0.048772808 -0.06116217,
                              0.024551211 0.056660831 -0.055503301,
                              0.067099087 0.04450744 -0.055288609,
                              0.047554068 -0.05861222 -0.025773879,
                              0.04740667 -0.057421021 -0.038527358,
                              0.0676006 -0.052424312 -0.025682621,
                              0.04737138 -0.059394829 -0.01168465,
                              0.02443957 -0.061269101 -0.02584826,
                              0.024365241 -0.060035821 -0.03861123,
                              0.06738954 -0.051359709 -0.038424902,
                              0.067342222 -0.053124361 -0.01160484,
                              0.024344379 -0.06207937 -0.01174873,
                              0.046724789 -0.053351399 -0.05921125,
                              0.046250928 -0.048162568 -0.061037771,
                              0.066035502 -0.047764301 -0.05907207,
                              0.04696732 -0.05545884 -0.055406678,
                              0.02409601 -0.055774029 -0.059316751,
                              0.024088969 -0.050256658 -0.06116223,
                              0.06421566 -0.043249961 -0.060844,
                              0.066762798 -0.049606562 -0.055288609,
                              0.024141431 -0.05800426 -0.055503301,
                              0.084712982 -0.0042483802 0.0281654,
                              0.07774543 -0.0044714208 0.038555019,
                              0.081913471 -0.022961309 0.028082309,
                              0.090723388 -0.0040504332 0.01613831,
                              0.08204817 0.0147345 0.02823507,
                              0.075299263 0.01279866 0.038652949,
                              0.075176649 -0.02151626 0.038448028,
                              0.087725103 -0.02414858 0.01608061,
                              0.087869823 0.01636016 0.016177891,
                              0.059929069 -0.004897356 0.057198759,
                              0.05012089 -0.0047838092 0.060005721,
                              0.057984881 -0.017579669 0.057038721,
                              0.068101518 -0.00490272 0.053048901,
                              0.05807602 0.0079196692 0.057305511,
                              0.048662718 0.005433559 0.060024548,
                              0.04859012 -0.01489216 0.059802938,
                              0.065852277 -0.019584529 0.052907702,
                              0.065957777 0.0099422932 0.053186592,
                              0.0304501 0.031490259 0.057543568,
                              0.034202449 0.037389752 0.053383522,
                              0.015833249 0.03393203 0.05756348,
                              0.0264275 0.02395433 0.060335331,
                              0.042923149 0.026727431 0.057476461,
                              0.048461609 0.031810459 0.053358369,
                              0.017736791 0.040244509 0.053387161,
                              0.01385694 0.02586662 0.060388859,
                              0.036654651 0.02027237 0.06017106,
                              0.042551748 0.050115518 0.02826607,
                              0.045572039 0.054531991 0.01613193,
                              0.022070579 0.053866439 0.02824246,
                              0.039049979 0.044887949 0.038753979,
                              0.06028777 0.04286015 0.02828365,
                              0.064566188 0.04667389 0.01616984,
                              0.023637891 0.058612879 0.016094981,
                              0.02025306 0.048264738 0.038742121,
                              0.05532765 0.038330071 0.038753331,
                              0.042177249 -0.05468541 0.02787148,
                              0.038708922 -0.050552178 0.038224749,
                              0.02167373 -0.057187431 0.02783519,
                              0.045169588 -0.058088299 0.0158807,
                              0.059959821 -0.048926529 0.027927211,
                              0.055028971 -0.045244329 0.038275242,
                              0.01989161 -0.052883741 0.038195841,
                              0.02321147 -0.06072652 0.015835701,
                              0.064213753 -0.051961482 0.015942991,
                              0.030196959 -0.039355509 0.056852221,
                              0.026227349 -0.03205096 0.059754308,
                              0.01556485 -0.041167911 0.05684942,
                              0.033908721 -0.044819169 0.05266308,
                              0.042701419 -0.035328679 0.056852691,
                              0.03647881 -0.02892804 0.059649099,
                              0.01364493 -0.033455718 0.05978816,
                              0.017425289 -0.046912368 0.05264353,
                              0.048204482 -0.040146761 0.052707668,
                              0.077498429 -0.019114129 -0.061370961,
                              0.079696648 -0.0034230349 -0.061456501,
                              0.077611499 0.01253324 -0.061370961,
                              0.039532181 -0.01316565 0.060983472,
                              0.040602259 -0.0045973649 0.061229158,
                              0.039593749 0.0040549631 0.06117278,
                              0.063272707 0.029695921 -0.061478011,
                              0.046233408 0.03503906 -0.06173443,
                              0.02439349 0.038090762 -0.061880171,
                              0.063043289 -0.034516752 -0.061477952,
                              0.04597193 -0.038137849 -0.06173443,
                              0.02411586 -0.039594289 -0.061880171,
                              0.032276738 0.0130757 0.06126558,
                              0.02352136 0.0156356 0.061512999,
                              0.01239454 0.01699811 0.0615949,
                              0.03215247 -0.02170866 0.060887691,
                              0.02338033 -0.02382075 0.061090291,
                              0.01224529 -0.024754761 0.061157279,
                              8.58321e-005 0.02113211 -0.062356289,
                              9.0518897e-006 -0.000351817 -0.0625,
                              -6.76907e-005 -0.02183181 -0.062356349,
                              3.9930699e-005 0.0059899092 0.062284701,
                              5.07806e-006 -0.0039217472 0.062499881,
                              -3.0203701e-005 -0.01363295 0.062078409,
                              0.090741932 0.01714199 0.0028282399,
                              0.093689017 -0.003869056 0.002815485,
                              0.09059298 -0.02453839 0.002779603,
                              0.066676311 0.048430081 0.0027682779,
                              0.04706132 0.056586862 0.002710819,
                              0.02441024 0.06084507 0.0026609299,
                              0.066313557 -0.053092532 0.00265485,
                              0.046647009 -0.059357341 0.002585232,
                              0.02397114 -0.0620405 0.0025312901,
                              0.077698581 0.027843051 -0.060690582,
                              0.081011653 0.03094464 -0.058951069,
                              0.082266681 0.032312982 -0.055181261,
                              0.083004586 0.035713792 -0.01149404,
                              0.083316617 0.035083771 -0.025590179,
                              0.083049469 0.0340501 -0.038331799,
                              0.077476136 -0.034405351 -0.060690582,
                              0.080765776 -0.03785735 -0.058951069,
                              0.082010917 -0.039265029 -0.055181261,
                              0.082727127 -0.041945871 -0.01152968,
                              0.08304327 -0.04141074 -0.025599061,
                              0.082782738 -0.040599581 -0.038331799,
                              0.000188739 0.049906071 -0.061207108,
                              0.000209044 0.055548072 -0.059361041,
                              0.000217742 0.057897922 -0.05554628,
                              0.00023764699 0.0625 -0.011725,
                              0.000233824 0.0617426 -0.02586823,
                              0.000227785 0.060334802 -0.038648479,
                              -0.00017030499 -0.050574239 -0.061207108,
                              -0.000190151 -0.056169271 -0.059361041,
                              -0.00019791099 -0.0584253 -0.05554628,
                              -0.00020901499 -0.0625 -0.0117768,
                              -0.00020723201 -0.061689548 -0.025881231,
                              -0.000203834 -0.060456391 -0.038648479,
                              0.091673911 0.01559758 -0.048515309,
                              0.094656937 -0.0041378732 -0.048494931,
                              0.091534249 -0.02350276 -0.048515309,
                              0.067351751 0.045357879 -0.0486781,
                              0.047532141 0.05334359 -0.04879003,
                              0.02464574 0.05762177 -0.048881639,
                              0.067009978 -0.050298031 -0.0486781,
                              0.047140591 -0.05623275 -0.04879003,
                              0.0242297 -0.058805522 -0.048881639,
                              0.044184379 0.01427924 0.060024548,
                              0.05241197 0.019063881 0.057388298,
                              0.059413608 0.022872681 0.05329746,
                              0.079154193 0.034222119 0.01619106,
                              0.07390964 0.03132486 0.028278761,
                              0.067829542 0.02787297 0.03872472,
                              0.044049621 -0.023428081 0.059617162,
                              0.052242629 -0.02832436 0.056898952,
                              0.059217449 -0.032025151 0.052786231,
                              0.078885131 -0.041072719 0.01601278,
                              0.073659301 -0.038741522 0.02799868,
                              0.067601621 -0.035914298 0.038349088,
                              0.00011293 0.026394419 0.060387898,
                              0.000142319 0.03458881 0.057561569,
                              0.00016528901 0.04100877 0.053383701,
                              0.000229956 0.059733029 0.016076799,
                              0.000213356 0.054888122 0.02822917,
                              0.00019350801 0.049178421 0.038733121,
                              -0.000101905 -0.033714529 0.05978721,
                              -0.000129641 -0.041504379 0.056847628,
                              -0.000150308 -0.04729604 0.052640021,
                              -0.00020200999 -0.061149471 0.015817519,
                              -0.000188634 -0.057601862 0.02782183,
                              -0.00017266499 -0.05328488 0.038186781,
                              0.070792548 0.01132309 0.047088981,
                              0.07309293 -0.0047433372 0.046965651,
                              0.070678413 -0.020618491 0.046836492,
                              0.05201488 0.03502804 0.047233809,
                              0.03671097 0.041094121 0.04724925,
                              0.01903867 0.044206731 0.047246508,
                              0.051736832 -0.04279273 0.04664474,
                              0.036393281 -0.047796842 0.046597,
                              0.018701909 -0.05001938 0.046573341,
                              0.073119096 -0.029818051 -0.061197691,
                              0.073310547 0.023774561 -0.061197691,
                              0.037396841 -0.019060669 0.06061279,
                              0.037501149 0.01012277 0.060931019,
                              0.00014995701 0.03906852 -0.061925352,
                              -0.000131707 -0.03975641 -0.061925352,
                              8.0673897e-005 0.017392689 0.061594479,
                              -7.0536902e-005 -0.02491462 0.061156861,
                              0.081741147 0.035555001 0.0028138161,
                              0.08146435 -0.041926201 0.002724766,
                              0.000237082 0.062024292 0.0026378629,
                              -0.000207751 -0.062461909 0.002508163,
                              0.08257544 0.032998081 -0.048576351,
                              0.082315318 -0.039791401 -0.048576351,
                              0.0002217 0.05885905 -0.048922349,
                              -0.000200251 -0.05922639 -0.048922349,
                              0.063769221 0.025330421 0.047185302,
                              0.063557021 -0.034051832 0.046722591,
                              0.000179371 0.045044061 0.047240671,
                              -0.00016178899 -0.050415989 0.046567488 ]

                        }
                        normal 
                        Normal {
                          vector [  ]

                        }
                        coordIndex [ 0, 4, 5, -1, 1, 5, 128, -1,
                            4, 133, 132, -1, 5, 132, 226, -1,
                            0, 1, 6, -1, 2, 6, 135, -1,
                            1, 127, 126, -1, 6, 126, 225, -1,
                            2, 7, 3, -1, 3, 7, 146, -1,
                            136, 137, 7, -1, 137, 230, 146, -1,
                            3, 8, 4, -1, 8, 134, 133, -1,
                            145, 144, 8, -1, 144, 229, 134, -1,
                            9, 13, 14, -1, 10, 14, 147, -1,
                            13, 139, 140, -1, 14, 140, 231, -1,
                            9, 10, 15, -1, 11, 15, 143, -1,
                            10, 148, 149, -1, 15, 149, 232, -1,
                            11, 16, 12, -1, 12, 16, 129, -1,
                            142, 141, 16, -1, 141, 227, 129, -1,
                            12, 17, 13, -1, 17, 138, 139, -1,
                            12, 130, 131, -1, 17, 131, 228, -1,
                            22, 23, 19, -1, 23, 183, 184, -1,
                            160, 161, 23, -1, 161, 237, 183, -1,
                            19, 24, 20, -1, 24, 167, 166, -1,
                            184, 185, 24, -1, 185, 238, 167, -1,
                            18, 20, 25, -1, 25, 126, 127, -1,
                            20, 166, 165, -1, 165, 225, 126, -1,
                            21, 26, 22, -1, 22, 26, 159, -1,
                            127, 128, 26, -1, 128, 226, 159, -1,
                            31, 32, 28, -1, 32, 150, 151, -1,
                            163, 162, 32, -1, 162, 233, 150, -1,
                            28, 33, 29, -1, 33, 168, 169, -1,
                            151, 152, 33, -1, 152, 234, 168, -1,
                            27, 29, 34, -1, 30, 34, 185, -1,
                            29, 169, 170, -1, 34, 170, 238, -1,
                            27, 30, 35, -1, 31, 35, 164, -1,
                            30, 184, 183, -1, 35, 183, 237, -1,
                            40, 41, 37, -1, 41, 186, 187, -1,
                            163, 164, 41, -1, 164, 237, 186, -1,
                            36, 37, 42, -1, 38, 42, 176, -1,
                            37, 187, 188, -1, 188, 239, 176, -1,
                            38, 43, 39, -1, 43, 155, 154, -1,
                            175, 174, 43, -1, 174, 235, 155, -1,
                            36, 39, 44, -1, 40, 44, 162, -1,
                            39, 154, 153, -1, 44, 153, 233, -1,
                            49, 50, 46, -1, 50, 132, 133, -1,
                            160, 159, 50, -1, 159, 226, 132, -1,
                            45, 46, 51, -1, 47, 51, 171, -1,
                            46, 133, 134, -1, 51, 134, 229, -1,
                            47, 52, 48, -1, 52, 188, 187, -1,
                            172, 173, 52, -1, 52, 173, 239, -1,
                            45, 48, 53, -1, 49, 53, 161, -1,
                            48, 187, 186, -1, 53, 186, 237, -1,
                            58, 59, 55, -1, 59, 191, 190, -1,
                            181, 182, 59, -1, 182, 240, 191, -1,
                            55, 60, 56, -1, 60, 170, 169, -1,
                            55, 190, 189, -1, 189, 238, 170, -1,
                            54, 56, 61, -1, 57, 61, 156, -1,
                            56, 169, 168, -1, 61, 168, 234, -1,
                            57, 62, 58, -1, 62, 180, 181, -1,
                            157, 158, 62, -1, 158, 236, 180, -1,
                            63, 67, 68, -1, 64, 68, 137, -1,
                            67, 178, 177, -1, 68, 177, 230, -1,
                            64, 69, 65, -1, 69, 165, 166, -1,
                            136, 135, 69, -1, 135, 225, 165, -1,
                            63, 65, 70, -1, 70, 189, 190, -1,
                            65, 166, 167, -1, 70, 167, 238, -1,
                            66, 71, 67, -1, 71, 179, 178, -1,
                            66, 190, 191, -1, 71, 191, 240, -1,
                            72, 76, 77, -1, 73, 77, 216, -1,
                            196, 197, 77, -1, 197, 241, 216, -1,
                            73, 78, 74, -1, 78, 203, 202, -1,
                            217, 218, 78, -1, 218, 242, 203, -1,
                            72, 74, 79, -1, 75, 79, 152, -1,
                            74, 202, 201, -1, 79, 201, 234, -1,
                            75, 80, 76, -1, 76, 80, 195, -1,
                            151, 150, 80, -1, 80, 150, 233, -1,
                            85, 86, 82, -1, 86, 131, 130, -1,
                            193, 192, 86, -1, 192, 228, 131, -1,
                            82, 87, 83, -1, 87, 198, 199, -1,
                            130, 129, 87, -1, 129, 227, 198, -1,
                            81, 83, 88, -1, 84, 88, 218, -1,
                            83, 199, 200, -1, 88, 200, 242, -1,
                            81, 84, 89, -1, 85, 89, 194, -1,
                            217, 216, 89, -1, 89, 216, 241, -1,
                            94, 95, 91, -1, 95, 219, 220, -1,
                            193, 194, 95, -1, 194, 241, 219, -1,
                            90, 91, 96, -1, 92, 96, 206, -1,
                            91, 220, 221, -1, 96, 221, 243, -1,
                            92, 97, 93, -1, 97, 140, 139, -1,
                            205, 204, 97, -1, 204, 231, 140, -1,
                            90, 93, 98, -1, 94, 98, 192, -1,
                            93, 139, 138, -1, 98, 138, 228, -1,
                            103, 104, 100, -1, 104, 153, 154, -1,
                            196, 195, 104, -1, 195, 233, 153, -1,
                            99, 100, 105, -1, 101, 105, 207, -1,
                            100, 154, 155, -1, 105, 155, 235, -1,
                            101, 106, 102, -1, 106, 221, 220, -1,
                            208, 209, 106, -1, 209, 243, 221, -1,
                            99, 102, 107, -1, 103, 107, 197, -1,
                            102, 220, 219, -1, 107, 219, 241, -1,
                            108, 112, 113, -1, 109, 113, 222, -1,
                            112, 202, 203, -1, 113, 203, 242, -1,
                            109, 114, 110, -1, 114, 215, 214, -1,
                            223, 224, 114, -1, 224, 244, 215, -1,
                            108, 110, 115, -1, 111, 115, 158, -1,
                            110, 214, 213, -1, 115, 213, 236, -1,
                            111, 116, 112, -1, 116, 201, 202, -1,
                            157, 156, 116, -1, 156, 234, 201, -1,
                            117, 121, 122, -1, 118, 122, 141, -1,
                            121, 199, 198, -1, 122, 198, 227, -1,
                            118, 123, 119, -1, 123, 210, 211, -1,
                            142, 143, 123, -1, 143, 232, 210, -1,
                            117, 119, 124, -1, 120, 124, 224, -1,
                            119, 211, 212, -1, 124, 212, 244, -1,
                            120, 125, 121, -1, 125, 200, 199, -1,
                            223, 222, 125, -1, 222, 242, 200, -1,
                            1, 0, 5, -1, 127, 1, 128, -1,
                            5, 4, 132, -1, 128, 5, 226, -1,
                            2, 0, 6, -1, 136, 2, 135, -1,
                            6, 1, 126, -1, 135, 6, 225, -1,
                            0, 2, 3, -1, 145, 3, 146, -1,
                            2, 136, 7, -1, 7, 137, 146, -1,
                            0, 3, 4, -1, 4, 8, 133, -1,
                            3, 145, 8, -1, 8, 144, 134, -1,
                            10, 9, 14, -1, 148, 10, 147, -1,
                            14, 13, 140, -1, 147, 14, 231, -1,
                            11, 9, 15, -1, 142, 11, 143, -1,
                            15, 10, 149, -1, 143, 15, 232, -1,
                            9, 11, 12, -1, 130, 12, 129, -1,
                            11, 142, 16, -1, 16, 141, 129, -1,
                            9, 12, 13, -1, 13, 17, 139, -1,
                            17, 12, 131, -1, 138, 17, 228, -1,
                            18, 22, 19, -1, 19, 23, 184, -1,
                            22, 160, 23, -1, 23, 161, 183, -1,
                            18, 19, 20, -1, 20, 24, 166, -1,
                            19, 184, 24, -1, 24, 185, 167, -1,
                            21, 18, 25, -1, 21, 25, 127, -1,
                            25, 20, 165, -1, 25, 165, 126, -1,
                            18, 21, 22, -1, 160, 22, 159, -1,
                            21, 127, 26, -1, 26, 128, 159, -1,
                            27, 31, 28, -1, 28, 32, 151, -1,
                            31, 163, 32, -1, 32, 162, 150, -1,
                            27, 28, 29, -1, 29, 33, 169, -1,
                            28, 151, 33, -1, 33, 152, 168, -1,
                            30, 27, 34, -1, 184, 30, 185, -1,
                            34, 29, 170, -1, 185, 34, 238, -1,
                            31, 27, 35, -1, 163, 31, 164, -1,
                            35, 30, 183, -1, 164, 35, 237, -1,
                            36, 40, 37, -1, 37, 41, 187, -1,
                            40, 163, 41, -1, 41, 164, 186, -1,
                            38, 36, 42, -1, 175, 38, 176, -1,
                            42, 37, 188, -1, 42, 188, 176, -1,
                            36, 38, 39, -1, 39, 43, 154, -1,
                            38, 175, 43, -1, 43, 174, 155, -1,
                            40, 36, 44, -1, 163, 40, 162, -1,
                            44, 39, 153, -1, 162, 44, 233, -1,
                            45, 49, 46, -1, 46, 50, 133, -1,
                            49, 160, 50, -1, 50, 159, 132, -1,
                            47, 45, 51, -1, 172, 47, 171, -1,
                            51, 46, 134, -1, 171, 51, 229, -1,
                            45, 47, 48, -1, 48, 52, 187, -1,
                            47, 172, 52, -1, 188, 52, 239, -1,
                            49, 45, 53, -1, 160, 49, 161, -1,
                            53, 48, 186, -1, 161, 53, 237, -1,
                            54, 58, 55, -1, 55, 59, 190, -1,
                            58, 181, 59, -1, 59, 182, 191, -1,
                            54, 55, 56, -1, 56, 60, 169, -1,
                            60, 55, 189, -1, 60, 189, 170, -1,
                            57, 54, 61, -1, 157, 57, 156, -1,
                            61, 56, 168, -1, 156, 61, 234, -1,
                            54, 57, 58, -1, 58, 62, 181, -1,
                            57, 157, 62, -1, 62, 158, 180, -1,
                            64, 63, 68, -1, 136, 64, 137, -1,
                            68, 67, 177, -1, 137, 68, 230, -1,
                            63, 64, 65, -1, 65, 69, 166, -1,
                            64, 136, 69, -1, 69, 135, 165, -1,
                            66, 63, 70, -1, 66, 70, 190, -1,
                            70, 65, 167, -1, 189, 70, 238, -1,
                            63, 66, 67, -1, 67, 71, 178, -1,
                            71, 66, 191, -1, 179, 71, 240, -1,
                            73, 72, 77, -1, 217, 73, 216, -1,
                            76, 196, 77, -1, 77, 197, 216, -1,
                            72, 73, 74, -1, 74, 78, 202, -1,
                            73, 217, 78, -1, 78, 218, 203, -1,
                            75, 72, 79, -1, 151, 75, 152, -1,
                            79, 74, 201, -1, 152, 79, 234, -1,
                            72, 75, 76, -1, 196, 76, 195, -1,
                            75, 151, 80, -1, 195, 80, 233, -1,
                            81, 85, 82, -1, 82, 86, 130, -1,
                            85, 193, 86, -1, 86, 192, 131, -1,
                            81, 82, 83, -1, 83, 87, 199, -1,
                            82, 130, 87, -1, 87, 129, 198, -1,
                            84, 81, 88, -1, 217, 84, 218, -1,
                            88, 83, 200, -1, 218, 88, 242, -1,
                            85, 81, 89, -1, 193, 85, 194, -1,
                            84, 217, 89, -1, 194, 89, 241, -1,
                            90, 94, 91, -1, 91, 95, 220, -1,
                            94, 193, 95, -1, 95, 194, 219, -1,
                            92, 90, 96, -1, 205, 92, 206, -1,
                            96, 91, 221, -1, 206, 96, 243, -1,
                            90, 92, 93, -1, 93, 97, 139, -1,
                            92, 205, 97, -1, 97, 204, 140, -1,
                            94, 90, 98, -1, 193, 94, 192, -1,
                            98, 93, 138, -1, 192, 98, 228, -1,
                            99, 103, 100, -1, 100, 104, 154, -1,
                            103, 196, 104, -1, 104, 195, 153, -1,
                            101, 99, 105, -1, 208, 101, 207, -1,
                            105, 100, 155, -1, 207, 105, 235, -1,
                            99, 101, 102, -1, 102, 106, 220, -1,
                            101, 208, 106, -1, 106, 209, 221, -1,
                            103, 99, 107, -1, 196, 103, 197, -1,
                            107, 102, 219, -1, 197, 107, 241, -1,
                            109, 108, 113, -1, 223, 109, 222, -1,
                            113, 112, 203, -1, 222, 113, 242, -1,
                            108, 109, 110, -1, 110, 114, 214, -1,
                            109, 223, 114, -1, 114, 224, 215, -1,
                            111, 108, 115, -1, 157, 111, 158, -1,
                            115, 110, 213, -1, 158, 115, 236, -1,
                            108, 111, 112, -1, 112, 116, 202, -1,
                            111, 157, 116, -1, 116, 156, 201, -1,
                            118, 117, 122, -1, 142, 118, 141, -1,
                            122, 121, 198, -1, 141, 122, 227, -1,
                            117, 118, 119, -1, 119, 123, 211, -1,
                            118, 142, 123, -1, 123, 143, 210, -1,
                            120, 117, 124, -1, 223, 120, 224, -1,
                            124, 119, 212, -1, 224, 124, 244, -1,
                            117, 120, 121, -1, 121, 125, 199, -1,
                            120, 223, 125, -1, 125, 222, 200 ]
                        ccw TRUE
                        solid FALSE
                        convex TRUE
                        creaseAngle 0

                      }

                    }

                }

            }

        },
          
        Group {
          children 
            Transform {
              translation 0 0 0
              rotation 0 0 1  0
              scale 1 1 1
              scaleOrientation 0 0 1  0

            }

        } ]

    }

}
