#VRML V2.0 utf8


Group {
  children 
    Group {
      children 
        Transform {
          scale 1.74 1.74 1.74
          children 
            Group {
              children 
                Shape {
                  appearance 
                  Appearance {
                    material 
                    Material {
                      diffuseColor 0.65864992 0.50308388 0.31538299
                      ambientIntensity 0.10572245

                    }

                  }
                  geometry 
                  IndexedFaceSet {
                    coord 
                    Coordinate {
                      point [ -0.0040175309 -0.0020654791 0.005107522,
                          -0.0043332572 -0.003874182 0.005604147,
                          -0.004859983 -0.004236876 0.0031713841,
                          0.0024299619 -0.004236876 0.0031713841,
                          0.0024299619 -0.004236876 0.0062756529,
                          0.0043332572 -0.003874182 0.005604147,
                          0.0041829939 0.0020424719 0.002215981,
                          0.0035310381 0.0020078421 0.0040911431,
                          0.0031389589 0.0034540291 0.003645479,
                          -0.001766502 0.0040590758 0.002031445,
                          -0.001678884 0.0036628239 0.003801465,
                          -0.0031172631 0.0034540291 0.003645479,
                          0.002101063 -0.0020631549 0.0055536618,
                          0.004017829 -0.0020654791 0.005107522,
                          -0.001823663 -0.0020675061 -0.005943655,
                          -0.0035133359 -0.002079665 -0.0054823752,
                          -0.0032290809 -0.0038602939 -0.0056598182,
                          -0.00435853 -0.0020713799 -0.003208637,
                          -0.004664659 -0.0020625589 -0.000225226,
                          -0.004859983 -0.004236876 -0.000232726,
                          0.0024299619 -0.004236876 -0.00023272001,
                          0.004859983 -0.004236876 -0.000232726,
                          0.004274427 -0.004236876 -0.0035886159,
                          0.0043014879 0.0019954441 -0.000188926,
                          0.0035099981 0.0035340779 -0.000157706,
                          0.0034077161 0.002821624 -0.002162396,
                          -0.001777529 0.0031588669 -0.0021495221,
                          -0.001826047 0.003948688 -0.000153626,
                          -0.003509938 0.0035340779 -0.00015769999,
                          -0.0024299619 -0.004236876 0.006275713,
                          0 -0.004236876 0.0062756529,
                          0 -0.004236876 0.0031713841,
                          0.001695156 0.003662765 0.003801465,
                          5.3681001e-006 0.0037955639 0.003891527,
                          3.2647199e-006 0.004236876 0.0020678041,
                          -0.0021009441 -0.0020631549 0.0055536618,
                          0 -0.0020608299 0.0056636329,
                          0 -0.002055346 -0.0060650702,
                          0 -0.0040706391 -0.006275713,
                          0.001633286 -0.00402528 -0.0061981082,
                          -0.0021371839 -0.004236876 -0.0035886159,
                          -0.0024299619 -0.004236876 -0.000232726,
                          0 -0.004236876 -0.000232726,
                          0.001826047 0.003948688 -0.000153626,
                          0 0.00411731 -0.00015217401,
                          -3.22811e-006 0.0033017991 -0.002178788,
                          -0.003516793 0.0020078421 0.0040911431,
                          -0.0037839999 5.7753899e-005 0.0045585032,
                          -0.0044776201 6.7770801e-005 0.00248295,
                          0.0046393871 -0.0020641079 0.0027741781,
                          0.0037875171 5.7755598e-005 0.0045585032,
                          0.001981735 7.8939702e-005 0.0049973722,
                          -0.0018398759 0.001181483 -0.0046585789,
                          -0.003522455 0.001197397 -0.004258811,
                          -0.0036852951 -0.000128949 -0.0049489141,
                          -0.0041792388 0.001585364 -0.0024885531,
                          -0.0043014879 0.0019954441 -0.000188914,
                          -0.0045577278 6.8188798e-005 -0.000219945,
                          0.004664659 -0.0020625589 -0.000225232,
                          0.0045577278 6.8191999e-005 -0.000219933,
                          0.0044144392 -3.3646698e-005 -0.0028871291,
                          -0.001833915 0.002082109 0.004512012,
                          3.1657401e-006 0.0021507139 0.004649817,
                          4.6046799e-007 9.9200297e-005 0.005130827,
                          0.001829564 0.001181483 -0.0046585789,
                          -3.1629299e-006 0.0012159341 -0.0047912002,
                          -4.6569801e-007 -0.000111803 -0.005523324,
                          -0.004274427 -0.004236876 -0.0035886159,
                          0.0021371839 -0.004236876 -0.0035886159,
                          0.0032290809 -0.003710448 -0.0056598182,
                          0.00416994 0.001585364 -0.0024885531,
                          0.003117918 0.0021234751 -0.003627538,
                          -0.0034218431 0.002821624 -0.002162396,
                          -0.003139555 0.0021234751 -0.0036274791,
                          -0.001633286 -0.004153728 -0.0061981082,
                          0 -0.004236876 -0.0035886159,
                          0.0016791821 0.002222657 -0.0037543769,
                          0.001767218 0.0031588669 -0.0021495221,
                          -0.004416584 -3.36515e-005 -0.0028871889,
                          0.0043584099 -0.0020713799 -0.0032085769,
                          0.0036817191 -0.000128944 -0.0049489141,
                          -0.0046392079 -0.0020641079 0.0027741781,
                          0.004859983 -0.004236876 0.0031713841,
                          0.0034207101 0.003628551 0.002017617,
                          -0.003406524 0.003628551 0.002017617,
                          -0.0024299619 -0.004236876 0.0031713841,
                          0.0017768739 0.0040590758 0.002031445,
                          -0.004173636 0.0020424719 0.002215981,
                          0.0044798851 6.7774803e-005 0.00248295,
                          0.001844227 0.002082109 0.004512012,
                          -5.3676999e-006 0.002307653 -0.003835558,
                          0.0035082691 0.001197397 -0.004258811,
                          -0.001926243 -0.000123638 -0.0053893318,
                          -0.0019795289 7.8946301e-005 0.0049973722,
                          0.001823484 -0.002051472 -0.0059437151,
                          0.0035130379 -0.0020475381 -0.0054824352,
                          -0.001695454 0.002222657 -0.0037543769,
                          0.001924037 -0.000123629 -0.0053893318 ]

                    }
                    normal 
                    Normal {
                      vector [ 0.96046203 -0.21591775 -0.17576231,
                          -0.1871926 0.98232329 0,
                          -0.88716966 -0.33749712 -0.31468368,
                          0.16369523 -0.96092403 -0.22322384,
                          -0.21705173 -0.29348162 -0.93099791,
                          0.26333961 -0.053945214 0.96319383,
                          0.99077076 -0.089354813 0.10192757,
                          0 1 0,
                          -0.86873257 -0.45103726 0.20461966,
                          0.22190244 -0.90480232 0.36344489,
                          -0.08856719 -0.96815175 -0.23417525,
                          0.050623234 -0.27040133 -0.96141583,
                          -0.044326432 -0.10385369 0.99360436,
                          -0.08505626 -0.92429793 0.37207365,
                          0.92862481 -0.20185119 -0.31130728,
                          -0.95239073 -0.16893411 -0.25379792,
                          -0.231157 -0.25539538 -0.93879694,
                          0.19963282 -0.47145069 0.85900003,
                          0.98823512 -0.13261829 0.076183692,
                          -0.99719751 -0.0501821 0.055488057,
                          0.081289366 -0.22762135 -0.97035086,
                          -0.07225278 -0.48171517 0.87334424,
                          0.93701971 -0.02474172 0.34839919,
                          0 0.96918517 0.24633336,
                          -0.72524309 -0.55473745 0.4077853,
                          0.17594276 -0.87506646 0.45089138,
                          -0 0.99949282 0.031847514,
                          -0.077729449 -0.8592934 0.50554228,
                          0.89627445 -0.22543231 0.38193238,
                          -0.94152492 -0.027091941 0.33585271,
                          0.99487734 -0.10108957 0,
                          -0.89897907 -0.43652949 -0.035757981,
                          0.25335476 -0.96646482 0.0419208,
                          -0.098514758 -0.99368763 0.05366398,
                          0.98733097 -0.15594842 -0.029286377,
                          -0.99709094 -0.075752795 -0.0084402356,
                          -0.92976695 -0.19684428 -0.31110412,
                          -0.98791718 -0.13263938 0.080165699,
                          0.8848995 -0.34193337 -0.31628257,
                          -0.24149325 -0.34498087 -0.90701127,
                          0.17888612 -0.60362434 0.77694106,
                          0.86985314 -0.45152667 0.19869426,
                          0.081291713 -0.41736564 -0.9050954,
                          -0.069328181 -0.65715057 0.75056428,
                          -0.89408523 -0.22968581 0.38452062,
                          0.72871011 -0.55301195 0.40392989,
                          -0.98791176 -0.15237999 -0.02847527,
                          0.89881688 -0.43768224 -0.023721183,
                          0.95214343 -0.17034669 -0.25378135,
                          -0.21880755 -0.26645586 -0.93868232,
                          0.23663883 -0.23682791 0.94229221,
                          0.99724174 -0.050181944 0.054687552,
                          0.067734137 -0.23895144 -0.96866626,
                          -0.063408718 -0.26797938 0.96133572,
                          -0.96048963 -0.21577191 -0.17579006,
                          -0.99076653 -0.089354299 0.1019693,
                          0.94176972 -0.026054131 0.3352477,
                          -0.93711567 -0.024754172 0.34814006,
                          0.99701566 -0.076730847 -0.0084997173,
                          -0.99488556 -0.10100831 -0,
                          0.088829011 -0.96808231 -0.23436306,
                          0.066753432 -0.11479667 0.99114364,
                          0.085065052 -0.92439103 0.37184015,
                          0.18719259 0.98232323 0,
                          0.25482839 -0.33934906 -0.90548599,
                          0.063478224 -0.49075443 0.86898249,
                          0.24538246 -0.24509533 -0.93793166,
                          0.077568389 -0.85943437 0.50532758,
                          -0 0.98386991 0.1788854,
                          0.098733991 -0.99368149 0.053373575,
                          0.066435814 -0.65948564 0.74877572,
                          0.15766934 -0.41768768 -0.89480579,
                          0.068480484 -0.27024531 0.96035308,
                          0.23124412 -0.25680122 -0.93839186,
                          -0 -0.31521282 -0.94902104,
                          -0.16302088 -0.96115327 -0.22273034,
                          -0.30167031 -0.09322197 0.9488439,
                          -0.22179855 -0.90442753 0.36443987,
                          -0.0676888 -0.23932877 -0.96857625,
                          -0.21340157 -0.48900864 0.84577203,
                          0 0.99672866 0.080821775,
                          -0.1762554 -0.87462437 0.45162627,
                          -0.25278187 -0.96656102 0.04314116,
                          -0.083279803 -0.41510457 -0.90595406,
                          -0.11099604 -0.66073591 0.74236643,
                          -0.050839208 -0.25368384 -0.96595025,
                          -0.25411737 -0.2550292 0.932944,
                          0.9562341 -0.14375345 -0.25485563,
                          0 0.98906839 -0.14745753,
                          -0.87337345 -0.44461802 -0.19883108,
                          0.25229883 -0.95636266 -0.1473629,
                          -0.25481284 -0.33931363 -0.90550363,
                          0.30382124 -0.087981261 0.94865799,
                          0.98508406 0.0080981543 0.17188345,
                          -0.82475454 -0.54667389 0.14466467,
                          0.18668772 -0.92308027 0.33625963,
                          -0.10176378 -0.96976072 -0.22182947,
                          -2.3448853e-005 -0.31523326 -0.94901431,
                          -0.065657146 -0.12132537 0.99043894,
                          -0.080853075 -0.92597997 0.36881432,
                          0.92606562 -0.18687999 -0.32783902,
                          -0.942316 -0.11351729 -0.31488803,
                          -0.24486379 -0.244158 -0.93831158,
                          0.2133777 -0.48800591 0.84635699,
                          0.98558944 -0.15882066 0.058218967,
                          -0.99471295 0.011248118 0.10207694,
                          0.067730062 -0.23959014 -0.96850884,
                          -0.063507788 -0.49105722 0.86880928,
                          0.88169819 0.09469153 0.46221405,
                          -0.23186719 0.96493745 0.12301793,
                          -0.71935654 -0.57194114 0.39422026,
                          0.10323624 -0.85684627 0.50513047,
                          -0.04778662 0.99695164 0.061676271,
                          -0.067904823 -0.85545582 0.51340461,
                          0.89965767 -0.28329968 0.33220115,
                          -0.93726981 -0.014452522 0.34830537,
                          0.995956 -0.089439727 -0.0084972885,
                          -0.88925672 -0.45710546 -0.016648453,
                          0.23889734 -0.97055644 0.030793738,
                          -0.091806665 -0.99461061 0.048180796,
                          0.99013799 -0.13083832 -0.050080381,
                          -0.99833357 -0.050029594 -0.028759615,
                          -0.92744666 -0.18349181 -0.32584301,
                          -0.98480517 -0.1632825 0.059140705,
                          0.87136346 -0.44679293 -0.20273618,
                          -0.15702635 -0.41720098 -0.89514589,
                          0.11062227 -0.66037554 0.74274284,
                          0.8271805 -0.54396564 0.14097498,
                          0.083459757 -0.41536057 -0.90582013,
                          -0.066569552 -0.65970618 0.74856949,
                          -0.89738578 -0.29026768 0.33233064,
                          0.72389406 -0.56712949 0.39286333,
                          -0.99031371 -0.1309244 -0.046234284,
                          0.8888911 -0.4565123 -0.038329177,
                          0.94203836 -0.11448397 -0.31536824,
                          -0.23109539 -0.25659281 -0.93848556,
                          0.2565178 -0.25251406 0.9329713,
                          0.99470592 0.01224353 0.10203096,
                          0.050841514 -0.25372952 -0.96593821,
                          -0.068495117 -0.27241614 0.95973843,
                          -0.956258 -0.14366923 -0.25481328,
                          -0.98508453 0.0080387369 0.17188352,
                          0.93724585 -0.012667541 0.34843925,
                          -0.8778255 0.099927947 0.4684411,
                          0.99830931 -0.050026629 -0.029595373,
                          -0.99595648 -0.08944001 -0.0084377406,
                          0.10198168 -0.96966982 -0.22212683,
                          0.05247315 -0.10381266 0.99321175,
                          0.080684192 -0.92613775 0.36845493,
                          0.2170686 -0.29351625 -0.93098313,
                          0.072101489 -0.48149556 0.87347776,
                          0.23125477 -0.25659597 -0.93844545,
                          0.067681089 -0.85554612 0.51328373,
                          0.20331301 0.97658128 0.070377596,
                          0.091808923 -0.99463135 0.047746006,
                          0.069100857 -0.65700275 0.75071472,
                          0.241965 -0.34617618 -0.90642989,
                          0.065780513 -0.26790944 0.96119583,
                          0.21880792 -0.26676509 -0.93859446,
                          -0.050620385 -0.27040139 -0.96141601,
                          -0.25178739 -0.95668429 -0.14614493,
                          -0.26281253 -0.057857588 0.96311063,
                          -0.18701199 -0.9225896 0.33742395,
                          -0.081110805 -0.22742167 -0.97041249,
                          -0.19990364 -0.47269586 0.85825241,
                          -0.030638184 0.99762326 0.061717827,
                          -0.10361078 -0.85663539 0.50541145,
                          -0.23887396 -0.97051173 0.032344025,
                          -0.081032 -0.41719523 -0.90519726,
                          -0.17910288 -0.60457003 0.77615553,
                          -0.067691378 -0.23892494 -0.96867585,
                          -0.23657838 -0.24094592 0.94126296 ]

                    }
                    coordIndex [ 0, 1, 2, -1, 3, 4, 5, -1,
                        6, 7, 8, -1, 9, 10, 11, -1,
                        12, 13, 5, -1, 14, 15, 16, -1,
                        17, 18, 19, -1, 20, 21, 22, -1,
                        23, 24, 25, -1, 26, 27, 28, -1,
                        29, 30, 31, -1, 32, 33, 34, -1,
                        35, 36, 30, -1, 37, 38, 39, -1,
                        40, 41, 42, -1, 43, 44, 45, -1,
                        46, 47, 48, -1, 49, 13, 50, -1,
                        7, 50, 51, -1, 52, 53, 54, -1,
                        55, 56, 57, -1, 58, 59, 60, -1,
                        61, 62, 63, -1, 64, 65, 66, -1,
                        15, 17, 67, -1, 68, 22, 69, -1,
                        70, 25, 71, -1, 26, 72, 73, -1,
                        74, 40, 75, -1, 76, 77, 45, -1,
                        53, 55, 78, -1, 79, 60, 80, -1,
                        81, 2, 19, -1, 20, 3, 82, -1,
                        23, 6, 83, -1, 27, 9, 84, -1,
                        85, 31, 42, -1, 86, 34, 44, -1,
                        87, 48, 57, -1, 58, 49, 88, -1,
                        88, 50, 7, -1, 59, 23, 70, -1,
                        11, 46, 87, -1, 8, 7, 89, -1,
                        73, 53, 52, -1, 72, 28, 56, -1,
                        10, 33, 62, -1, 76, 90, 65, -1,
                        60, 70, 91, -1, 73, 72, 55, -1,
                        59, 88, 6, -1, 28, 84, 87, -1,
                        47, 0, 81, -1, 50, 13, 12, -1,
                        92, 54, 15, -1, 78, 57, 18, -1,
                        93, 63, 36, -1, 66, 37, 94, -1,
                        82, 5, 13, -1, 21, 58, 79, -1,
                        54, 78, 17, -1, 22, 79, 95, -1,
                        48, 81, 18, -1, 21, 82, 49, -1,
                        34, 33, 10, -1, 37, 14, 74, -1,
                        45, 44, 27, -1, 1, 29, 85, -1,
                        35, 29, 1, -1, 67, 19, 41, -1,
                        52, 92, 66, -1, 46, 61, 93, -1,
                        45, 26, 96, -1, 16, 67, 40, -1,
                        44, 34, 9, -1, 2, 85, 41, -1,
                        96, 52, 65, -1, 11, 10, 61, -1,
                        66, 92, 14, -1, 47, 93, 35, -1,
                        30, 4, 3, -1, 12, 4, 30, -1,
                        42, 20, 68, -1, 8, 32, 86, -1,
                        94, 39, 69, -1, 24, 43, 77, -1,
                        89, 51, 63, -1, 64, 97, 80, -1,
                        75, 68, 39, -1, 71, 25, 77, -1,
                        31, 3, 20, -1, 83, 86, 43, -1,
                        32, 89, 62, -1, 71, 76, 64, -1,
                        51, 12, 36, -1, 97, 94, 95, -1,
                        81, 0, 2, -1, 82, 3, 5, -1,
                        83, 6, 8, -1, 84, 9, 11, -1,
                        4, 12, 5, -1, 74, 14, 16, -1,
                        67, 17, 19, -1, 68, 20, 22, -1,
                        70, 23, 25, -1, 72, 26, 28, -1,
                        85, 29, 31, -1, 86, 32, 34, -1,
                        29, 35, 30, -1, 94, 37, 39, -1,
                        75, 40, 42, -1, 77, 43, 45, -1,
                        87, 46, 48, -1, 88, 49, 50, -1,
                        89, 7, 51, -1, 92, 52, 54, -1,
                        78, 55, 57, -1, 79, 58, 60, -1,
                        93, 61, 63, -1, 97, 64, 66, -1,
                        16, 15, 67, -1, 39, 68, 69, -1,
                        91, 70, 71, -1, 96, 26, 73, -1,
                        38, 74, 75, -1, 90, 76, 45, -1,
                        54, 53, 78, -1, 95, 79, 80, -1,
                        18, 81, 19, -1, 21, 20, 82, -1,
                        24, 23, 83, -1, 28, 27, 84, -1,
                        41, 85, 42, -1, 43, 86, 44, -1,
                        56, 87, 57, -1, 59, 58, 88, -1,
                        6, 88, 7, -1, 60, 59, 70, -1,
                        84, 11, 87, -1, 32, 8, 89, -1,
                        96, 73, 52, -1, 55, 72, 56, -1,
                        61, 10, 62, -1, 64, 76, 65, -1,
                        80, 60, 91, -1, 53, 73, 55, -1,
                        23, 59, 6, -1, 56, 28, 87, -1,
                        48, 47, 81, -1, 51, 50, 12, -1,
                        14, 92, 15, -1, 17, 78, 18, -1,
                        35, 93, 36, -1, 97, 66, 94, -1,
                        49, 82, 13, -1, 22, 21, 79, -1,
                        15, 54, 17, -1, 69, 22, 95, -1,
                        57, 48, 18, -1, 58, 21, 49, -1,
                        9, 34, 10, -1, 38, 37, 74, -1,
                        26, 45, 27, -1, 2, 1, 85, -1,
                        0, 35, 1, -1, 40, 67, 41, -1,
                        65, 52, 66, -1, 47, 46, 93, -1,
                        90, 45, 96, -1, 74, 16, 40, -1,
                        27, 44, 9, -1, 19, 2, 41, -1,
                        90, 96, 65, -1, 46, 11, 61, -1,
                        37, 66, 14, -1, 0, 47, 35, -1,
                        31, 30, 3, -1, 36, 12, 30, -1,
                        75, 42, 68, -1, 83, 8, 86, -1,
                        95, 94, 69, -1, 25, 24, 77, -1,
                        62, 89, 63, -1, 91, 64, 80, -1,
                        38, 75, 39, -1, 76, 71, 77, -1,
                        42, 31, 20, -1, 24, 83, 43, -1,
                        33, 32, 62, -1, 91, 71, 64, -1,
                        63, 51, 36, -1, 80, 97, 95, -1 ]
                    normalIndex [ 0, 0, 0, -1, 1, 1, 1, -1,
                        2, 2, 2, -1, 3, 3, 3, -1,
                        4, 4, 4, -1, 5, 5, 5, -1,
                        6, 6, 6, -1, 7, 7, 7, -1,
                        8, 8, 8, -1, 9, 9, 9, -1,
                        7, 7, 7, -1, 10, 10, 10, -1,
                        11, 11, 11, -1, 12, 12, 12, -1,
                        7, 7, 7, -1, 13, 13, 13, -1,
                        14, 14, 14, -1, 15, 15, 15, -1,
                        16, 16, 16, -1, 17, 17, 17, -1,
                        18, 18, 18, -1, 19, 19, 19, -1,
                        20, 20, 20, -1, 21, 21, 21, -1,
                        22, 22, 22, -1, 23, 23, 23, -1,
                        24, 24, 24, -1, 25, 25, 25, -1,
                        26, 26, 26, -1, 27, 27, 27, -1,
                        28, 28, 28, -1, 29, 29, 29, -1,
                        30, 30, 30, -1, 7, 7, 7, -1,
                        31, 31, 31, -1, 32, 32, 32, -1,
                        7, 7, 7, -1, 33, 33, 33, -1,
                        34, 34, 34, -1, 35, 35, 35, -1,
                        36, 36, 36, -1, 37, 37, 37, -1,
                        38, 38, 38, -1, 39, 39, 39, -1,
                        40, 40, 40, -1, 41, 41, 41, -1,
                        42, 42, 42, -1, 43, 43, 43, -1,
                        44, 44, 44, -1, 45, 45, 45, -1,
                        46, 46, 46, -1, 47, 47, 47, -1,
                        48, 48, 48, -1, 49, 49, 49, -1,
                        50, 50, 50, -1, 51, 51, 51, -1,
                        52, 52, 52, -1, 53, 53, 53, -1,
                        54, 54, 54, -1, 55, 55, 55, -1,
                        56, 56, 56, -1, 57, 57, 57, -1,
                        58, 58, 58, -1, 59, 59, 59, -1,
                        60, 60, 60, -1, 61, 61, 61, -1,
                        62, 62, 62, -1, 63, 63, 63, -1,
                        64, 64, 64, -1, 7, 7, 7, -1,
                        65, 65, 65, -1, 66, 66, 66, -1,
                        67, 67, 67, -1, 68, 68, 68, -1,
                        69, 69, 69, -1, 7, 7, 7, -1,
                        70, 70, 70, -1, 71, 71, 71, -1,
                        72, 72, 72, -1, 73, 73, 73, -1,
                        7, 7, 7, -1, 74, 74, 74, -1,
                        7, 7, 7, -1, 75, 75, 75, -1,
                        76, 76, 76, -1, 77, 77, 77, -1,
                        78, 78, 78, -1, 79, 79, 79, -1,
                        80, 80, 80, -1, 81, 81, 81, -1,
                        7, 7, 7, -1, 82, 82, 82, -1,
                        83, 83, 83, -1, 84, 84, 84, -1,
                        85, 85, 85, -1, 86, 86, 86, -1,
                        87, 87, 87, -1, 88, 88, 88, -1,
                        89, 89, 89, -1, 90, 90, 90, -1,
                        91, 91, 91, -1, 92, 92, 92, -1,
                        93, 93, 93, -1, 7, 7, 7, -1,
                        94, 94, 94, -1, 95, 95, 95, -1,
                        7, 7, 7, -1, 96, 96, 96, -1,
                        97, 97, 97, -1, 98, 98, 98, -1,
                        7, 7, 7, -1, 99, 99, 99, -1,
                        100, 100, 100, -1, 101, 101, 101, -1,
                        102, 102, 102, -1, 103, 103, 103, -1,
                        104, 104, 104, -1, 105, 105, 105, -1,
                        106, 106, 106, -1, 107, 107, 107, -1,
                        108, 108, 108, -1, 109, 109, 109, -1,
                        110, 110, 110, -1, 111, 111, 111, -1,
                        112, 112, 112, -1, 113, 113, 113, -1,
                        114, 114, 114, -1, 115, 115, 115, -1,
                        116, 116, 116, -1, 7, 7, 7, -1,
                        117, 117, 117, -1, 118, 118, 118, -1,
                        7, 7, 7, -1, 119, 119, 119, -1,
                        120, 120, 120, -1, 121, 121, 121, -1,
                        122, 122, 122, -1, 123, 123, 123, -1,
                        124, 124, 124, -1, 125, 125, 125, -1,
                        126, 126, 126, -1, 127, 127, 127, -1,
                        128, 128, 128, -1, 129, 129, 129, -1,
                        130, 130, 130, -1, 131, 131, 131, -1,
                        132, 132, 132, -1, 133, 133, 133, -1,
                        134, 134, 134, -1, 135, 135, 135, -1,
                        136, 136, 136, -1, 137, 137, 137, -1,
                        138, 138, 138, -1, 139, 139, 139, -1,
                        140, 140, 140, -1, 141, 141, 141, -1,
                        142, 142, 142, -1, 143, 143, 143, -1,
                        144, 144, 144, -1, 145, 145, 145, -1,
                        146, 146, 146, -1, 147, 147, 147, -1,
                        148, 148, 148, -1, 88, 88, 88, -1,
                        149, 149, 149, -1, 7, 7, 7, -1,
                        150, 150, 150, -1, 73, 151, 151, -1,
                        152, 152, 152, -1, 153, 153, 153, -1,
                        154, 154, 154, -1, 7, 7, 7, -1,
                        155, 155, 155, -1, 156, 156, 156, -1,
                        157, 157, 157, -1, 158, 158, 158, -1,
                        7, 7, 7, -1, 159, 159, 159, -1,
                        7, 7, 7, -1, 160, 160, 160, -1,
                        161, 161, 161, -1, 162, 162, 162, -1,
                        163, 163, 163, -1, 164, 164, 164, -1,
                        165, 165, 165, -1, 166, 166, 166, -1,
                        7, 7, 7, -1, 167, 167, 167, -1,
                        168, 168, 168, -1, 169, 169, 169, -1,
                        170, 170, 170, -1, 171, 171, 171, -1 ]
                    ccw TRUE
                    solid FALSE
                    convex TRUE
                    creaseAngle 0

                  }

                }

            }

        }

    }

}
