#VRML V2.0 utf8


Group {
  children 
    Group {
      children 
        Transform {
          scale 1.74 1.74 1.74
          children 
            Group {
              children 
                Shape {
                  appearance 
                  Appearance {
                    material 
                    Material {
                      diffuseColor 0.65864992 0.50308388 0.31538299
                      ambientIntensity 0.10572245

                    }

                  }
                  geometry 
                  IndexedFaceSet {
                    coord 
                    Coordinate {
                      point [ 0.1470243 1.5023741 -0.84552968,
                          0.14693759 1.502642 -0.85464013,
                          0.017018549 1.521946 -0.85464013,
                          0.15467329 1.500912 -0.84499371,
                          0.23007169 1.4865021 -0.83971012,
                          0.3488791 1.464438 -0.85464013,
                          0.38542721 1.4545881 -0.8061794,
                          0.3491123 1.4632699 -0.8140173,
                          0.53961492 1.419976 -0.85464013,
                          0.4553988 1.437863 -0.79107732,
                          0.53982192 1.417303 -0.7589705,
                          0.63211989 1.390417 -0.72386903,
                          0.71933532 1.369506 -0.85464013,
                          0.6630609 1.3814059 -0.71210188,
                          0.7191236 1.364765 -0.67936599,
                          0.88822961 1.3132761 -0.85464013,
                          0.88316661 1.3032579 -0.57279778,
                          0.88711911 1.306671 -0.6010083,
                          0.85062671 1.318823 -0.6010083,
                          1.044625 1.245211 -0.6010083,
                          1.046489 1.2515351 -0.85464013,
                          1.191733 1.178514 -0.6010083,
                          1.019848 1.227041 -0.44251341,
                          1.194303 1.184532 -0.85464013,
                          1.328638 1.106827 -0.60100842,
                          1.133672 1.142015 -0.26237389,
                          1.2419339 1.059906 -0.1337048,
                          1.362721 0.98715121 -0.1337048,
                          1.331863 1.112516 -0.85464013,
                          1.186178 1.049459 -0.078867428,
                          1.178586 1.093076 -0.13370471,
                          1.455524 1.030398 -0.60100842,
                          1.47516 0.91001892 -0.13370471,
                          1.459359 1.035735 -0.85464013,
                          1.188138 1.036913 -0.064712279,
                          1.573631 0.9493711 -0.60100842,
                          1.578377 0.9543004 -0.85464013,
                          1.185831 0.91951108 0.078356683,
                          1.192897 0.96016341 0.02730453,
                          1.585109 0.82882762 -0.13370471,
                          1.177371 0.87085921 0.13946021,
                          1.689137 0.86407298 -0.6010083,
                          1.173806 0.84906387 0.16521651,
                          1.135761 0.7925272 0.25445011,
                          1.692101 0.74754047 -0.13370471,
                          1.127957 0.78092909 0.27275661,
                          1.694351 0.86883688 -0.85464013,
                          1.801533 0.77868128 -0.60100818,
                          1.794818 0.66629672 -0.1337048,
                          1.183318 0.70701152 0.3055225,
                          1.2718461 0.63699287 0.30552229,
                          1.9094369 0.69333631 -0.6010077,
                          1.892007 0.58446002 -0.13370501,
                          1.915588 0.69723612 -0.85464019,
                          1.807227 0.78301311 -0.85464019,
                          1.355613 0.56646132 0.3055225,
                          1.113987 0.75968361 0.3055225,
                          1.105454 0.72044921 0.32553729,
                          1.098824 0.70532918 0.3343617,
                          1.982428 0.50138623 -0.13370501,
                          2.0115399 0.60736418 -0.60100788,
                          1.433544 0.49486661 0.30552199,
                          1.069716 0.63630491 0.37310919,
                          1.095093 0.69648051 0.33932891,
                          1.043594 0.57038432 0.40788141,
                          1.061775 0.61626512 0.3836796,
                          2.106524 0.52009958 -0.60100812,
                          1.504562 0.4216547 0.30552229,
                          2.0181179 0.61083078 -0.85464013,
                          1.0204411 0.50652772 0.4387002,
                          1.032842 0.54072982 0.42219341,
                          2.064826 0.41643891 -0.1337048,
                          1.008173 0.4683814 0.45503181,
                          2.1930859 0.43086171 -0.6010083,
                          2.200418 0.43343529 -0.85464019,
                          2.1135011 0.52312231 -0.85464019,
                          1.000244 0.44373059 0.46558571,
                          1.567589 0.34627721 0.3055222,
                          2.137953 0.328978 -0.1337049,
                          2.269908 0.3389844 -0.60100842,
                          0.99445653 0.42268491 0.4732897,
                          0.98158288 0.39756471 0.48445049,
                          2.2005639 0.2383627 -0.13370501,
                          1.621554 0.26818171 0.3055222,
                          0.97338992 0.3815769 0.49155381,
                          2.335681 0.24379431 -0.60100842,
                          2.2514091 0.14395531 -0.1337049,
                          2.3435819 0.2454264 -0.85464019,
                          2.2775509 0.34109491 -0.85464019,
                          1.6653759 0.18681701 0.3055222,
                          0.95070338 0.32722449 0.51122212,
                          2.3890951 0.14462 -0.60100842,
                          2.289237 0.045115352 -0.13370501,
                          2.3971951 0.14575429 -0.85464019,
                          1.697981 0.1016323 0.3055222,
                          0.94726539 0.31898671 0.51420319,
                          2.4288361 0.040788881 -0.60100847,
                          2.4370689 0.04140377 -0.85464019,
                          0.92672747 0.25463071 0.53200871,
                          0.92739421 0.25672001 0.53143072,
                          2.3128049 -0.058797002 -0.13370501,
                          1.7182961 0.01207613 0.30552229,
                          2.453594 -0.068369739 -0.60100847,
                          0.9349339 0.1848204 0.53789222,
                          0.95200127 0.1095759 0.53789222,
                          2.320606 -0.17064039 -0.13370501,
                          1.725024 -0.08428251 0.30552229,
                          0.91487533 0.1877062 0.54228431,
                          0.91994119 0.2239912 0.53789222,
                          2.461792 -0.18583789 -0.60100847,
                          2.4699881 -0.18711071 -0.85464013,
                          2.4618909 -0.068300001 -0.85464013,
                          0.95765281 0.028607599 0.5378924,
                          0.90918177 0.1166661 0.54721999,
                          0.91473842 0.1859943 0.54240322,
                          2.309927 -0.29947469 -0.13370501,
                          1.7158231 -0.1953873 0.30552211,
                          2.450577 -0.32122511 -0.60100859,
                          0.94992143 -0.064725041 0.53789222,
                          0.9090879 0.1127098 0.54730171,
                          0.90731412 0.038142439 0.54883981,
                          2.4189861 -0.44878069 -0.60100859,
                          2.4270239 -0.44978121 -0.85464013,
                          0.90987182 -0.056004278 0.54662198,
                          0.90746188 0.032706968 0.54871172,
                          2.2798541 -0.42090201 -0.1337052,
                          2.232101 -0.5311234 -0.1337049,
                          2.3688149 -0.56457001 -0.60100847,
                          1.689903 -0.3000361 0.3055222,
                          0.91706443 -0.1487014 0.54038632,
                          0.92814517 -0.15264951 0.5378924,
                          2.376708 -0.56615663 -0.85464013,
                          1.6487401 -0.3950319 0.3055222,
                          0.9171617 -0.14995199 0.54030228,
                          2.1687641 -0.63102269 -0.13370501,
                          2.302278 -0.6695118 -0.60100847,
                          0.91994119 -0.1715838 0.5378924,
                          2.309947 -0.67163372 -0.85464013,
                          0.93445522 -0.24126799 0.52530921,
                          1.5941499 -0.48112801 0.3055222,
                          2.091954 -0.72147202 -0.13370501,
                          2.2215869 -0.76452732 -0.60100847,
                          2.2289629 -0.76713729 -0.85464013,
                          0.96041417 -0.33142889 0.50280303,
                          0.93628621 -0.24762949 0.52372128,
                          1.527946 -0.5590806 0.30552229,
                          2.003772 -0.80334741 -0.13370501,
                          2.1289501 -0.85053641 -0.60100842,
                          2.1359789 -0.8535924 -0.85464019,
                          0.9931953 -0.4218944 0.47438279,
                          0.96691489 -0.3493669 0.49716759,
                          1.451943 -0.62964368 0.30552211,
                          1.906327 -0.87752533 -0.1337049,
                          2.0265801 -0.92846012 -0.6010083,
                          0.99445653 -0.42482531 0.47328991,
                          1.001266 -0.45251599 0.46422601,
                          2.033215 -0.93192238 -0.85464019,
                          1.367954 -0.693573 0.3055222,
                          1.801722 -0.94488239 -0.1337049,
                          1.91669 -0.99921697 -0.60100842,
                          1.027624 -0.55313522 0.42913961,
                          1.0128469 -0.49423099 0.448809,
                          1.922895 -1.0030529 -0.85464013,
                          1.277796 -0.75162321 0.3055222,
                          1.692062 -1.006294 -0.1337048,
                          1.801489 -1.06373 -0.60100842,
                          1.058861 -0.65689421 0.3875576,
                          1.0472651 -0.61653829 0.40299419,
                          1.807241 -1.067909 -0.85464013,
                          1.089268 -0.74709147 0.347083,
                          1.183279 -0.80454952 0.30552211,
                          1.579452 -1.062637 -0.13370471,
                          1.6831909 -1.1229171 -0.6010083,
                          1.094808 -0.76446438 0.3397069,
                          1.688473 -1.127414 -0.85464013,
                          1.098838 -0.77626801 0.33434439,
                          1.140994 -0.89084578 0.2421778,
                          1.4659981 -1.114786 -0.1337048,
                          1.5640039 -1.177698 -0.6010083,
                          1.105454 -0.79450887 0.32553729,
                          1.113987 -0.83921701 0.3055222,
                          1.568813 -1.182493 -0.85464013,
                          1.173806 -0.95220089 0.16521659,
                          1.178594 -0.98435003 0.130631,
                          1.440762 -1.2308969 -0.60100818,
                          1.188084 -1.046258 0.0620743,
                          1.348636 -1.165445 -0.1337046,
                          1.204838 -1.2232749 -0.1337048,
                          1.289644 -1.291675 -0.6010083,
                          1.443312 -1.236605 -0.85464019,
                          1.184345 -1.192476 -0.092108659,
                          1.196887 -1.102398 -0.001511275,
                          1.182806 -1.203733 -0.1032233,
                          1.099064 -1.304405 -0.3370668,
                          1.105455 -1.3003041 -0.32856011,
                          1.293551 -1.2966959 -0.85464019,
                          1.178586 -1.232726 -0.1337048,
                          1.005668 -1.387256 -0.6010083,
                          1.142983 -1.3444721 -0.6010083,
                          0.99445653 -1.365355 -0.47631261,
                          1.1461281 -1.349787 -0.85464013,
                          0.87333369 -1.417964 -0.58132178,
                          0.87606978 -1.421108 -0.60100818,
                          1.008094 -1.392819 -0.85464019,
                          0.85062671 -1.426463 -0.60100818,
                          0.87781447 -1.426875 -0.85464031,
                          0.84507817 -1.427747 -0.60581881,
                          0.75365227 -1.453042 -0.85464031,
                          0.77511102 -1.443463 -0.64667392,
                          0.68113399 -1.461062 -0.7015487,
                          0.75281221 -1.4484791 -0.65969461,
                          0.6339705 -1.472401 -0.85464013,
                          0.6630609 -1.464241 -0.7121017,
                          0.63373113 -1.469256 -0.72325611,
                          0.565512 -1.477846 -0.7492004,
                          0.5171321 -1.486039 -0.85464013,
                          0.51718497 -1.483918 -0.76757932,
                          0.40149999 -1.4950401 -0.85464013,
                          0.4553988 -1.4892991 -0.79107708,
                          0.4016574 -1.493757 -0.80267632,
                          0.42779851 -1.491593 -0.7970342,
                          0.2991865 -1.499109 -0.8247928,
                          0.28543779 -1.500487 -0.85464013,
                          0.28558421 -1.499815 -0.82772851,
                          0.16730849 -1.5034651 -0.85464013,
                          0.23007169 -1.5015121 -0.83970988,
                          0.16739149 -1.5032001 -0.84410232,
                          0.1724402 -1.503065 -0.84374851,
                          0.046483271 -1.504994 -0.85257518,
                          0.04547476 -1.505059 -0.85464013,
                          0.045495741 -1.5050091 -0.85264432,
                          0.01701569 -1.504836 -0.85464013,
                          0.017020941 -1.469897 -0.85463983,
                          0.017017599 0.45004871 -0.85464013,
                          0.017021891 -1.471934 -0.85463971,
                          0.017018549 1.5168411 -0.85464013,
                          0.017026659 -1.484933 -0.85463941,
                          0.017018549 1.520299 -0.85464013,
                          0.01701569 -1.498983 -0.85464013,
                          0.01701569 -1.503734 -0.85464013,
                          0.99445653 1.242885 -0.47631279,
                          1.105455 1.167087 -0.3285602,
                          1.173806 -1.241758 -0.16823921,
                          1.173806 1.102402 -0.1682394,
                          1.196887 0.98089772 -0.001511454,
                          0.84507817 1.320803 -0.60581893,
                          2.4586749 -0.32158259 -0.85464013,
                          0.98758668 -1.368709 -0.4822683,
                          0.017018549 1.502811 -0.85464013 ]

                    }
                    normal 
                    Normal {
                      vector [ 0.14691436 0.98876172 0.027685996,
                          0.18583086 0.982207 0.027136423,
                          0.22698463 0.97353262 0.026688561,
                          0.27034047 0.96240544 0.02630486,
                          0.31577611 0.94847649 0.026036572,
                          0.31202063 0.93700004 0.15708038,
                          0.36339131 0.93127674 0.02589103,
                          0.35874173 0.91936105 0.16149229,
                          0.40715823 0.89803463 0.16660139,
                          0.41279194 0.91046041 0.025785718,
                          0.45693406 0.87263381 0.17239937,
                          0.50765264 0.84280145 0.1788144,
                          0.46365535 0.88564247 0.025712246,
                          0.39063323 0.74602866 0.53930223,
                          0.5558784 0.81032807 0.18538544,
                          0.51572347 0.8563661 0.025818016,
                          0.42512047 0.70578212 0.56669593,
                          0.5644902 0.82501125 0.026596751,
                          0.45586234 0.66445303 0.59219229,
                          0.58327949 0.78987527 0.18942599,
                          0.4558315 0.66448575 0.59217942,
                          0.59383708 0.80414087 0.026740275,
                          -0.47228846 -0.63954777 -0.60656607,
                          0.59380352 0.78157794 0.19113739,
                          0.47228372 0.63956505 0.60655141,
                          0.60472506 0.79596347 0.027381867,
                          0.60859543 0.76945126 0.19379514,
                          0.48795778 0.61694723 0.61747336,
                          0.47833601 0.62962079 0.61218661,
                          0.63131803 0.74976075 0.19823341,
                          0.62043583 0.78378898 0.027098188,
                          0.50079149 0.59476787 0.62885541,
                          -0.29139882 -0.38365319 -0.87629724,
                          0.6622265 0.7207948 0.20472181,
                          0.51703727 0.56279188 0.64493245,
                          0.64385349 0.76465905 0.027371975,
                          0.29335979 0.37090665 0.88111764,
                          0.29582179 0.35133874 0.88828522,
                          0.66222042 0.7208001 0.20472264,
                          0.53584832 0.51979333 0.66534311,
                          0.6762917 0.73611665 0.027600799,
                          0.29848439 0.32489222 0.89741421,
                          0.70125079 0.68020684 0.21346186,
                          0.30092469 0.29190925 0.90787303,
                          0.71783197 0.69566077 0.027810164,
                          0.30092406 0.29191002 0.90787297,
                          0.55588716 0.46480522 0.68916291,
                          0.74759269 0.62507027 0.22448245,
                          0.7668469 0.64118922 0.028674386,
                          -0.30270153 -0.25311634 -0.91886014,
                          0.79917562 0.55219209 0.23749147,
                          0.57532185 0.39755467 0.71481127,
                          0.30271229 0.25311232 0.91885775,
                          0.85208374 0.45890844 0.25170723,
                          0.82264799 0.56779659 0.029280245,
                          0.59201694 0.31885231 0.74016833,
                          0.30345988 0.20968643 0.92948574,
                          0.90034586 0.34459201 0.26577011,
                          0.88027656 0.47349688 0.030230254,
                          0.60382795 0.23111945 0.76287323,
                          0.30345935 0.20969425 0.92948419,
                          0.93367219 0.35676962 0.031171734,
                          0.30288383 0.16312914 0.93896234,
                          0.93681908 0.21247619 0.2778919,
                          0.60918689 0.13818961 0.78089374,
                          0.97472614 0.22107403 0.032175362,
                          0.30226874 0.068562269 0.95075387,
                          0.30084985 0.11515174 0.94669396,
                          0.95573497 0.066662341 0.28657797,
                          0.60765475 0.042427551 0.79306728,
                          0.22490388 0.086082466 0.9705711,
                          0.99717855 0.067959577 0.031882815,
                          0.29753941 0.020770164 0.95448369,
                          0.22048004 0.050010502 0.97410864,
                          0.95355409 -0.079039589 0.290667,
                          0.58823997 -0.048715267 0.80721778,
                          0.99605691 -0.082509667 0.032601677,
                          0.2915971 -0.024156805 0.95623624,
                          0.2152039 0.015062246 0.97645301,
                          0.92887735 -0.23004958 0.29028305,
                          0.58823991 -0.048758898 0.80721527,
                          0.970186 -0.24028026 0.031693902,
                          0.2865352 -0.023730405 0.95777577,
                          0.20933431 -0.017342459 0.97769034,
                          0.57230622 -0.14173976 0.80769765,
                          0.87963349 -0.38109788 0.28462148,
                          0.27882606 -0.069060467 0.95785534,
                          0.20227732 -0.050096042 0.97804624,
                          0.54830617 -0.23754989 0.80182934,
                          0.91712618 -0.39738774 0.03102711,
                          0.28459096 -0.070482723 0.95605451,
                          0.20231459 -0.049989972 0.97804397,
                          0.55945551 -0.24241966 0.79261738,
                          0.81213289 -0.51489818 0.27444485,
                          0.19383158 -0.083984703 0.97743332,
                          0.84417039 -0.53523469 0.03000275,
                          0.26907939 -0.11659044 0.95603502,
                          0.52753174 -0.33448681 0.7809155,
                          0.73568469 -0.62474787 0.26164517,
                          0.2578221 -0.16347471 0.95226246,
                          0.76190817 -0.64704382 0.028815664,
                          0.25782257 -0.16347289 0.95226264,
                          0.49139696 -0.41733509 0.7644347,
                          0.65911174 -0.70989132 0.24824613,
                          0.24546869 -0.20847175 0.94672316,
                          0.68014449 -0.73255551 0.027675137,
                          0.24546926 -0.20847087 0.94672316,
                          0.45372409 -0.48870465 0.74518609,
                          0.58862925 -0.77326185 0.23575778,
                          0.23252192 -0.25041854 0.93980002,
                          0.60547078 -0.79541969 0.026697015,
                          0.21683945 -0.2848779 0.93371582,
                          0.41699061 -0.54783273 0.72525734,
                          0.52750325 -0.81920815 0.22502996,
                          0.2358734 -0.25404254 0.93799055,
                          0.54118806 -0.84050107 0.025951779,
                          0.20489337 -0.31822053 0.9256103,
                          0.38316417 -0.59509355 0.70643389,
                          0.47703743 -0.8518244 0.2164035,
                          0.22223493 -0.29197308 0.93024909,
                          0.4884479 -0.87222201 0.025448525,
                          0.19399808 -0.34644774 0.91779023,
                          0.35362351 -0.63151014 0.6900329,
                          0.4374859 -0.8743819 0.20991093,
                          0.20917796 -0.32489315 0.92232811,
                          0.44730192 -0.89402896 0.025166623,
                          0.195713 -0.34945709 0.91628397,
                          0.32474846 -0.65789664 0.67949277,
                          0.40873438 -0.88923103 0.20543753,
                          -0.18598424 0.37168783 -0.90953732,
                          0.41749066 -0.90833491 0.025088126,
                          -0.31005052 0.67455524 -0.66995817,
                          0.38810992 -0.89910418 0.2024412,
                          0.29693142 -0.68790102 0.66228688,
                          0.36562347 -0.9091472 0.19942659,
                          0.39619538 -0.91783553 0.02463962,
                          0.28138798 -0.69968414 0.65670609,
                          0.29819638 -0.69096375 0.65851963,
                          0.33216584 -0.92277288 0.19533598,
                          0.37303239 -0.92750508 0.024107402,
                          0.25834027 -0.71758902 0.64678156,
                          0.29200274 -0.93718106 0.1908567,
                          0.33861756 -0.94062036 0.023909982,
                          0.24830206 -0.95059407 0.18632504,
                          0.29738674 -0.95446092 0.023779025,
                          0.20252448 -0.9622494 0.1818241,
                          0.25265649 -0.96726501 0.023731269,
                          0.20589562 -0.97828799 0.023660246,
                          0.15936343 -0.98693341 0.023787277,
                          0.11590501 -0.99297088 0.023975341,
                          0.11558952 -0.9930042 0.024122691,
                          0.077584289 -0.99669135 0.024232702,
                          0.077248551 -0.99671388 0.024376065,
                          0.046865396 -0.99860036 0.024514295,
                          0.04650088 -0.9986133 0.024682365,
                          0.025194628 -0.99937451 0.024814643,
                          0.013077744 -0.99960035 0.025063183,
                          0.013462325 -0.99959993 0.024875345,
                          -0.0078345304 -0.99965423 0.025100585,
                          0 0 -1,
                          -0.069905028 3.051003e-008 0.99755371,
                          -0.21097331 3.3395064e-008 0.97749192,
                          -0.35546738 4.0921111e-009 0.93468869,
                          -0.41645905 0.00072745618 0.90915418,
                          -0.50424665 1.6417605e-008 0.86355972,
                          -0.51191133 -0.00012338396 0.85903829,
                          -0.6550597 5.1800338e-008 0.75557715,
                          -0.79952145 2.1764357e-008 0.60063756,
                          -0.91988724 3.2408948e-008 0.39218301,
                          -0.99055338 1.1331869e-008 0.13712774,
                          -0.99055225 5.7597111e-007 -0.13713606,
                          -0.91988486 -1.946654e-008 -0.39218861,
                          -0.79838914 0 -0.60214186,
                          -0.79952413 -1.3031766e-006 -0.6006341,
                          -0.91987664 -1.6648315e-005 -0.39220798,
                          -0.99055821 -4.8332004e-005 0.13709317,
                          -0.79953331 7.9960864e-006 -0.60062182,
                          -0.65504652 4.4231283e-006 -0.75558853,
                          0.79952377 1.3031776e-006 0.60063452,
                          -0.91988039 1.2493649e-005 -0.39219901,
                          0.18581891 0.98220849 0.027162282,
                          0.22694008 0.97354227 0.026717909,
                          0.27027252 0.96242309 0.026356936,
                          0.31583762 0.9484548 0.026082324,
                          0.36332521 0.93130392 0.0258436,
                          0.35872936 0.91936857 0.16147639,
                          0.40715653 0.89803523 0.16660245,
                          0.41272029 0.91049421 0.025735358,
                          0.45693165 0.87263459 0.17240199,
                          0.50765538 0.8427999 0.17881382,
                          0.46372545 0.88560444 0.025760902,
                          0.55590904 0.81030852 0.18537912,
                          0.5158 0.85632157 0.02576622,
                          0.42511997 0.70578539 0.56669223,
                          0.56552476 0.82432461 0.025896806,
                          0.58329439 0.7898649 0.18942294,
                          0.45584112 0.66447669 0.59218222,
                          0.59301847 0.80472571 0.027305806,
                          0.47230798 0.63953483 0.6065644,
                          0.59379828 0.78158158 0.19113833,
                          0.47225901 0.63959455 0.60653955,
                          0.60502958 0.79573929 0.027173473,
                          0.6085887 0.76945633 0.19379625,
                          0.47718719 0.62808472 0.61465609,
                          0.47833401 0.62962002 0.61218882,
                          0.62011844 0.78403276 0.027312277,
                          0.48474804 0.61286962 0.62402737,
                          0.29145318 0.38363308 0.87628806,
                          0.49603057 0.58908236 0.63791507,
                          0.64417905 0.76439273 0.027154423,
                          0.29335576 0.37091222 0.88111663,
                          0.29582292 0.35133189 0.88828754,
                          0.51048678 0.55563504 0.65625679,
                          0.6766187 0.73582435 0.02738227,
                          0.29848483 0.32489079 0.89741445,
                          0.70124298 0.68021464 0.21346289,
                          0.71750492 0.69598925 0.028032232,
                          0.30092603 0.29190069 0.9078753,
                          0.52724373 0.51142287 0.67857254,
                          0.74758285 0.62508154 0.22448376,
                          0.76716363 0.64082026 0.028450223,
                          0.3027122 0.25311118 0.91885811,
                          0.79917073 0.55219889 0.23749223,
                          0.54498768 0.45566946 0.70381385,
                          0.3027111 0.25311983 0.91885602,
                          0.85207766 0.45891896 0.25170842,
                          0.82235068 0.56821543 0.02950906,
                          0.56198603 0.38830483 0.73033631,
                          0.90034139 0.34460273 0.26577142,
                          0.88001591 0.47396615 0.030463543,
                          0.57628107 0.31036946 0.75602317,
                          0.3034575 0.20971175 0.92948091,
                          0.93346834 0.35728207 0.031409252,
                          0.30288583 0.16310047 0.93896675,
                          0.93681902 0.21247646 0.27789193,
                          0.58602691 0.22428304 0.77863312,
                          0.97484714 0.2205727 0.031950492,
                          0.29658124 0.11351857 0.94823694,
                          0.30085301 0.11515217 0.94669288,
                          0.95573032 0.066699773 0.28658482,
                          0.58949542 0.13370092 0.79662997,
                          0.99704218 0.069582894 0.032635037,
                          0.29283747 0.066428639 0.953852,
                          0.22049019 0.050017606 0.97410595,
                          0.95355451 -0.078989148 0.2906794,
                          0.59691811 0.04163488 0.80122125,
                          0.9959721 -0.083791733 0.031917259,
                          0.28757247 0.020078829 0.95754844,
                          0.21520123 0.015022172 0.9764542,
                          0.92887777 -0.23004805 0.29028264,
                          0.97037244 -0.23957571 0.031319488,
                          0.20933731 -0.017344216 0.97768968,
                          0.57230252 -0.14175063 0.80769843,
                          0.87961537 -0.38113418 0.28462914,
                          0.20227952 -0.050096929 0.97804564,
                          0.91745102 -0.39666742 0.030639596,
                          0.26429486 -0.11452259 0.95761836,
                          0.50894707 -0.32267693 0.7980305,
                          0.81212157 -0.51491457 0.27444795,
                          0.84459716 -0.53458208 0.029628217,
                          0.2690829 -0.11659011 0.95603406,
                          0.47611111 -0.40431643 0.78092664,
                          0.7356714 -0.62476242 0.26164779,
                          0.25781512 -0.16349307 0.95226127,
                          0.76239401 -0.64648688 0.028460862,
                          0.44160917 -0.4756248 0.76076436,
                          0.65910637 -0.70989597 0.248247,
                          0.24547116 -0.2084652 0.94672388,
                          0.68067396 -0.73207659 0.027328284,
                          0.40770802 -0.53559124 0.73953789,
                          0.58861327 -0.77327329 0.23576006,
                          0.23251462 -0.25044209 0.93979561,
                          0.60599732 -0.79502952 0.026373068,
                          0.21683502 -0.28488415 0.93371499,
                          0.37626112 -0.58433032 0.71901715,
                          0.52748477 -0.81921935 0.22503249,
                          0.54171377 -0.84017199 0.02564005,
                          0.20489338 -0.31822047 0.92561036,
                          0.3486701 -0.62260342 0.70056707,
                          0.47702792 -0.85182941 0.21640478,
                          0.48896426 -0.87194121 0.025149658,
                          0.19399844 -0.34644437 0.91779143,
                          0.32593718 -0.65143436 0.68512648,
                          0.43747476 -0.87438703 0.20991239,
                          0.44780344 -0.89378577 0.024882071,
                          0.31004828 -0.67455351 0.66996098,
                          0.32933527 -0.65826106 0.67692739,
                          0.40871406 -0.88923967 0.20544033,
                          0.18596315 -0.37169376 0.90953922,
                          0.41799855 -0.90810895 0.024806,
                          0.38809782 -0.89910901 0.20244306,
                          0.29693303 -0.68789893 0.66228843,
                          0.36564571 -0.90913939 0.19942167,
                          0.39581099 -0.91799545 0.0248597,
                          0.33220273 -0.92275602 0.19535287,
                          0.37227371 -0.9277963 0.024623282,
                          0.29200137 -0.93718183 0.19085492,
                          0.33872941 -0.9405818 0.023837864,
                          0.24829894 -0.95060116 0.18629308,
                          0.29753855 -0.95441586 0.023689682,
                          0.25283793 -0.96722001 0.023632782,
                          0.20592302 -0.97828203 0.023663875,
                          0.15963279 -0.98688674 0.023917815,
                          0.11591243 -0.99296993 0.023980208,
                          0.077587239 -0.99669099 0.024235593,
                          0.046865508 -0.99860036 0.024514683,
                          0.02519534 -0.99937451 0.02481729,
                          0.013077267 -0.99960107 0.025034735,
                          -0.069905855 6.6034502e-008 0.99755371,
                          -0.2109741 7.7995672e-008 0.97749168,
                          -0.35546955 7.6130718e-008 0.93468785,
                          -0.50424612 8.2166896e-009 0.86355996,
                          -0.51448119 3.7235527e-008 0.8575018,
                          -0.65505952 3.2809638e-008 0.75557739,
                          -0.79952168 4.117808e-008 0.60063732,
                          -0.91988719 1.4210927e-008 0.39218324,
                          -0.99055338 1.1951743e-008 0.13712776,
                          -0.99055427 -1.1784763e-008 -0.13712144,
                          -0.91988498 0 -0.39218846,
                          -0.79992831 0.0004178813 -0.60009545,
                          -0.79961151 -6.9582464e-005 -0.60051781,
                          -0.92952704 -0.13060622 -0.34485024,
                          -0.79970479 -0.00017126792 -0.60039341,
                          -0.79702914 0.002253758 -0.60393679,
                          -0.79938245 0.00012498705 -0.60082269,
                          -0.839935 -0.036764603 -0.54144025,
                          -0.7995348 -1.0433503e-005 -0.60061979,
                          -0.91992116 9.0971524e-005 -0.39210355,
                          -0.79764593 -0.0022397686 -0.603122,
                          -0.79958892 7.5161217e-005 -0.60054779,
                          -0.79927176 -0.00024374983 -0.60096991,
                          -0.79949468 -3.0628184e-005 -0.60067332,
                          -0.65505487 -3.0809065e-006 -0.75558138,
                          -0.65530276 0.00013658687 -0.75536638,
                          -0.65494275 -4.6185676e-005 -0.75567859,
                          -0.6543504 -9.2455179e-005 -0.75619161,
                          -0.65505898 -4.0126665e-006 -0.75557786,
                          -0.65549791 -0.00015961322 -0.75519705,
                          -0.657098 -0.00045354845 -0.75380504,
                          -0.65507865 -3.3079518e-006 -0.75556082,
                          0.79970479 0.00017126792 0.60039341,
                          0.79938245 -0.00012498705 0.60082269,
                          0.79702914 -0.002253758 0.60393679,
                          0.79982835 0.00021629306 0.60022873,
                          0.79961151 6.9582464e-005 0.60051781 ]

                    }
                    coordIndex [ 0, 1, 2, -1, 3, 1, 0, -1,
                        1, 4, 5, -1, 6, 5, 7, -1,
                        8, 9, 10, -1, 11, 8, 10, -1,
                        12, 13, 14, -1, 15, 12, 14, -1,
                        16, 17, 18, -1, 17, 19, 20, -1,
                        19, 17, 16, -1, 21, 19, 22, -1,
                        19, 21, 23, -1, 24, 21, 25, -1,
                        24, 26, 27, -1, 28, 23, 21, -1,
                        29, 26, 30, -1, 31, 27, 32, -1,
                        31, 33, 28, -1, 27, 26, 34, -1,
                        34, 26, 29, -1, 35, 36, 33, -1,
                        37, 27, 38, -1, 35, 32, 39, -1,
                        40, 32, 27, -1, 36, 35, 41, -1,
                        40, 42, 43, -1, 41, 39, 44, -1,
                        45, 39, 32, -1, 46, 41, 47, -1,
                        47, 44, 48, -1, 39, 49, 50, -1,
                        49, 39, 45, -1, 51, 48, 52, -1,
                        51, 53, 54, -1, 44, 50, 55, -1,
                        56, 57, 58, -1, 52, 59, 60, -1,
                        48, 55, 61, -1, 53, 51, 60, -1,
                        62, 50, 49, -1, 63, 49, 58, -1,
                        64, 55, 50, -1, 65, 50, 62, -1,
                        66, 60, 59, -1, 52, 61, 67, -1,
                        68, 60, 66, -1, 69, 61, 55, -1,
                        70, 55, 64, -1, 66, 59, 71, -1,
                        72, 61, 69, -1, 73, 74, 75, -1,
                        76, 67, 61, -1, 59, 67, 77, -1,
                        73, 71, 78, -1, 74, 73, 79, -1,
                        76, 80, 81, -1, 79, 78, 82, -1,
                        71, 77, 83, -1, 84, 77, 67, -1,
                        85, 82, 86, -1, 85, 87, 88, -1,
                        78, 83, 89, -1, 90, 77, 84, -1,
                        91, 86, 92, -1, 91, 93, 87, -1,
                        82, 89, 94, -1, 95, 83, 77, -1,
                        96, 97, 93, -1, 98, 89, 83, -1,
                        99, 83, 95, -1, 96, 92, 100, -1,
                        86, 94, 101, -1, 97, 96, 102, -1,
                        89, 103, 104, -1, 103, 89, 98, -1,
                        102, 100, 105, -1, 92, 101, 106, -1,
                        107, 103, 108, -1, 109, 110, 111, -1,
                        94, 104, 112, -1, 113, 104, 103, -1,
                        114, 103, 107, -1, 109, 105, 115, -1,
                        106, 116, 105, -1, 110, 109, 117, -1,
                        101, 112, 118, -1, 119, 104, 113, -1,
                        120, 112, 104, -1, 121, 117, 115, -1,
                        115, 105, 116, -1, 117, 121, 122, -1,
                        116, 106, 118, -1, 123, 118, 112, -1,
                        124, 112, 120, -1, 125, 115, 116, -1,
                        125, 126, 127, -1, 128, 116, 118, -1,
                        129, 130, 118, -1, 126, 125, 128, -1,
                        121, 127, 131, -1, 118, 130, 132, -1,
                        133, 130, 129, -1, 128, 132, 134, -1,
                        126, 134, 135, -1, 136, 130, 133, -1,
                        127, 135, 137, -1, 138, 132, 130, -1,
                        132, 139, 140, -1, 134, 140, 141, -1,
                        139, 132, 138, -1, 135, 141, 142, -1,
                        143, 139, 144, -1, 139, 145, 146, -1,
                        140, 146, 147, -1, 145, 139, 143, -1,
                        141, 147, 148, -1, 149, 145, 150, -1,
                        145, 151, 152, -1, 146, 152, 153, -1,
                        145, 154, 155, -1, 147, 153, 156, -1,
                        157, 151, 155, -1, 151, 157, 158, -1,
                        152, 158, 159, -1, 160, 157, 161, -1,
                        153, 159, 162, -1, 163, 157, 160, -1,
                        157, 163, 164, -1, 158, 164, 165, -1,
                        166, 163, 167, -1, 159, 165, 168, -1,
                        169, 170, 163, -1, 163, 170, 171, -1,
                        164, 171, 172, -1, 173, 170, 169, -1,
                        165, 172, 174, -1, 175, 170, 173, -1,
                        171, 170, 176, -1, 171, 177, 178, -1,
                        175, 179, 180, -1, 172, 178, 181, -1,
                        176, 182, 183, -1, 184, 178, 177, -1,
                        185, 186, 177, -1, 186, 187, 188, -1,
                        178, 184, 189, -1, 190, 186, 191, -1,
                        192, 187, 190, -1, 193, 188, 194, -1,
                        184, 188, 195, -1, 196, 187, 192, -1,
                        197, 198, 199, -1, 188, 198, 200, -1,
                        201, 202, 197, -1, 198, 197, 203, -1,
                        204, 202, 201, -1, 197, 202, 205, -1,
                        205, 202, 206, -1, 207, 205, 208, -1,
                        209, 207, 210, -1, 211, 212, 213, -1,
                        214, 215, 211, -1, 216, 215, 214, -1,
                        217, 215, 218, -1, 219, 217, 220, -1,
                        221, 222, 217, -1, 223, 222, 221, -1,
                        224, 222, 225, -1, 226, 224, 227, -1,
                        228, 229, 224, -1, 230, 229, 228, -1,
                        231, 229, 230, -1, 148, 156, 74, -1,
                        224, 232, 233, -1, 46, 15, 36, -1,
                        224, 234, 232, -1, 235, 5, 8, -1,
                        224, 236, 234, -1, 1, 5, 237, -1,
                        224, 238, 236, -1, 224, 239, 238, -1,
                        229, 231, 239, -1, 231, 226, 0, -1,
                        4, 0, 226, -1, 225, 219, 6, -1,
                        219, 218, 9, -1, 218, 214, 10, -1,
                        214, 213, 11, -1, 213, 209, 13, -1,
                        209, 210, 14, -1, 18, 14, 210, -1,
                        204, 199, 240, -1, 199, 194, 241, -1,
                        194, 242, 243, -1, 243, 242, 191, -1,
                        191, 185, 37, -1, 37, 185, 183, -1,
                        40, 183, 182, -1, 42, 182, 179, -1,
                        57, 179, 149, -1, 161, 169, 167, -1,
                        57, 56, 45, -1, 30, 243, 244, -1,
                        80, 70, 65, -1, 150, 144, 123, -1,
                        169, 161, 167, -1, 180, 179, 182, -1,
                        4, 7, 5, -1, 4, 1, 3, -1,
                        9, 8, 5, -1, 5, 6, 9, -1,
                        11, 12, 8, -1, 12, 11, 13, -1,
                        245, 17, 15, -1, 15, 14, 245, -1,
                        245, 18, 17, -1, 15, 17, 20, -1,
                        240, 22, 19, -1, 19, 16, 240, -1,
                        241, 25, 21, -1, 21, 22, 241, -1,
                        20, 19, 23, -1, 25, 26, 24, -1,
                        26, 25, 243, -1, 243, 30, 26, -1,
                        31, 24, 27, -1, 24, 28, 21, -1,
                        35, 31, 32, -1, 24, 31, 28, -1,
                        27, 34, 244, -1, 244, 38, 27, -1,
                        31, 35, 33, -1, 41, 35, 39, -1,
                        37, 40, 27, -1, 46, 36, 41, -1,
                        32, 40, 43, -1, 47, 41, 44, -1,
                        43, 45, 32, -1, 54, 46, 47, -1,
                        51, 47, 48, -1, 44, 39, 50, -1,
                        56, 49, 45, -1, 47, 51, 54, -1,
                        48, 44, 55, -1, 49, 56, 58, -1,
                        51, 52, 60, -1, 52, 48, 61, -1,
                        68, 53, 60, -1, 63, 62, 49, -1,
                        65, 64, 50, -1, 59, 52, 67, -1,
                        75, 68, 66, -1, 70, 69, 55, -1,
                        73, 66, 71, -1, 66, 73, 75, -1,
                        72, 76, 61, -1, 71, 59, 77, -1,
                        79, 73, 78, -1, 88, 74, 79, -1,
                        67, 76, 81, -1, 85, 79, 82, -1,
                        78, 71, 83, -1, 81, 84, 67, -1,
                        91, 85, 86, -1, 79, 85, 88, -1,
                        82, 78, 89, -1, 96, 91, 92, -1,
                        85, 91, 87, -1, 86, 82, 94, -1,
                        90, 95, 77, -1, 91, 96, 93, -1,
                        99, 98, 83, -1, 102, 96, 100, -1,
                        92, 86, 101, -1, 111, 97, 102, -1,
                        94, 89, 104, -1, 108, 103, 98, -1,
                        109, 102, 105, -1, 100, 92, 106, -1,
                        102, 109, 111, -1, 101, 94, 112, -1,
                        114, 113, 103, -1, 117, 109, 115, -1,
                        100, 106, 105, -1, 246, 110, 117, -1,
                        106, 101, 118, -1, 119, 120, 104, -1,
                        125, 121, 115, -1, 246, 117, 122, -1,
                        124, 123, 112, -1, 128, 125, 116, -1,
                        121, 125, 127, -1, 123, 129, 118, -1,
                        122, 121, 131, -1, 128, 118, 132, -1,
                        126, 128, 134, -1, 127, 126, 135, -1,
                        131, 127, 137, -1, 136, 138, 130, -1,
                        134, 132, 140, -1, 135, 134, 141, -1,
                        144, 139, 138, -1, 137, 135, 142, -1,
                        140, 139, 146, -1, 141, 140, 147, -1,
                        150, 145, 143, -1, 142, 141, 148, -1,
                        146, 145, 152, -1, 147, 146, 153, -1,
                        155, 151, 145, -1, 145, 149, 154, -1,
                        148, 147, 156, -1, 161, 157, 155, -1,
                        152, 151, 158, -1, 153, 152, 159, -1,
                        156, 153, 162, -1, 167, 163, 160, -1,
                        158, 157, 164, -1, 159, 158, 165, -1,
                        162, 159, 168, -1, 166, 169, 163, -1,
                        164, 163, 171, -1, 165, 164, 172, -1,
                        168, 165, 174, -1, 176, 177, 171, -1,
                        170, 180, 176, -1, 172, 171, 178, -1,
                        170, 175, 180, -1, 174, 172, 181, -1,
                        177, 176, 183, -1, 186, 184, 177, -1,
                        183, 185, 177, -1, 184, 186, 188, -1,
                        181, 178, 189, -1, 186, 190, 187, -1,
                        186, 185, 191, -1, 187, 196, 242, -1,
                        188, 193, 198, -1, 188, 242, 194, -1,
                        242, 188, 187, -1, 189, 184, 195, -1,
                        198, 193, 199, -1, 199, 247, 197, -1,
                        195, 188, 200, -1, 247, 201, 197, -1,
                        200, 198, 203, -1, 203, 197, 205, -1,
                        206, 208, 205, -1, 202, 204, 206, -1,
                        210, 207, 208, -1, 212, 211, 207, -1,
                        207, 209, 212, -1, 213, 214, 211, -1,
                        215, 216, 218, -1, 218, 220, 217, -1,
                        219, 221, 217, -1, 222, 223, 225, -1,
                        225, 227, 224, -1, 226, 228, 224, -1,
                        131, 246, 122, -1, 97, 111, 110, -1,
                        110, 93, 97, -1, 142, 88, 87, -1,
                        156, 75, 74, -1, 168, 53, 68, -1,
                        233, 46, 54, -1, 46, 233, 248, -1,
                        233, 222, 224, -1, 233, 215, 217, -1,
                        233, 207, 211, -1, 233, 203, 205, -1,
                        233, 195, 200, -1, 233, 181, 189, -1,
                        53, 168, 174, -1, 75, 156, 162, -1,
                        88, 142, 148, -1, 246, 131, 137, -1,
                        93, 110, 246, -1, 246, 137, 93, -1,
                        162, 68, 75, -1, 181, 233, 54, -1,
                        233, 217, 222, -1, 233, 205, 207, -1,
                        233, 189, 195, -1, 68, 162, 168, -1,
                        87, 137, 142, -1, 137, 87, 93, -1,
                        174, 54, 53, -1, 233, 211, 215, -1,
                        54, 174, 181, -1, 74, 88, 148, -1,
                        200, 203, 233, -1, 248, 235, 12, -1,
                        12, 46, 248, -1, 28, 33, 36, -1,
                        36, 23, 28, -1, 36, 15, 20, -1,
                        15, 46, 12, -1, 20, 23, 36, -1,
                        5, 235, 237, -1, 235, 8, 12, -1,
                        2, 1, 237, -1, 224, 229, 239, -1,
                        2, 231, 0, -1, 225, 4, 226, -1,
                        4, 225, 6, -1, 6, 219, 9, -1,
                        9, 218, 10, -1, 10, 214, 11, -1,
                        11, 213, 13, -1, 13, 209, 14, -1,
                        204, 18, 210, -1, 18, 204, 240, -1,
                        240, 199, 241, -1, 241, 194, 243, -1,
                        244, 243, 191, -1, 244, 191, 37, -1,
                        40, 37, 183, -1, 42, 40, 182, -1,
                        57, 42, 179, -1, 80, 57, 149, -1,
                        167, 160, 161, -1, 161, 155, 149, -1,
                        169, 179, 175, -1, 175, 173, 169, -1,
                        169, 166, 167, -1, 179, 161, 149, -1,
                        161, 179, 169, -1, 57, 45, 43, -1,
                        43, 42, 57, -1, 63, 58, 57, -1,
                        65, 62, 63, -1, 70, 64, 65, -1,
                        72, 69, 70, -1, 80, 76, 72, -1,
                        63, 57, 80, -1, 80, 65, 63, -1,
                        80, 72, 70, -1, 124, 119, 80, -1,
                        81, 90, 84, -1, 90, 99, 95, -1,
                        99, 108, 98, -1, 119, 113, 114, -1,
                        114, 107, 108, -1, 114, 99, 90, -1,
                        150, 80, 149, -1, 150, 143, 144, -1,
                        123, 80, 150, -1, 114, 108, 99, -1,
                        90, 119, 114, -1, 80, 123, 124, -1,
                        81, 80, 119, -1, 124, 120, 119, -1,
                        136, 144, 138, -1, 129, 136, 133, -1,
                        144, 129, 123, -1, 81, 119, 90, -1,
                        129, 144, 136, -1, 169, 175, 179, -1,
                        167, 166, 169, -1, 169, 173, 175, -1,
                        161, 154, 155, -1, 161, 160, 167, -1,
                        179, 154, 161, -1, 161, 169, 179, -1 ]
                    normalIndex [ 0, 0, 0, -1, 1, 1, 1, -1,
                        1, 1, 1, -1, 2, 2, 2, -1,
                        2, 2, 2, -1, 3, 3, 3, -1,
                        3, 3, 3, -1, 4, 4, 4, -1,
                        5, 5, 5, -1, 6, 6, 6, -1,
                        7, 7, 7, -1, 8, 8, 8, -1,
                        9, 9, 9, -1, 10, 10, 10, -1,
                        11, 11, 11, -1, 12, 12, 12, -1,
                        13, 13, 13, -1, 14, 14, 14, -1,
                        15, 15, 15, -1, 16, 16, 16, -1,
                        16, 16, 16, -1, 17, 17, 17, -1,
                        18, 18, 18, -1, 19, 19, 19, -1,
                        20, 20, 20, -1, 21, 21, 21, -1,
                        22, 22, 22, -1, 23, 23, 23, -1,
                        24, 24, 24, -1, 25, 25, 25, -1,
                        26, 26, 26, -1, 27, 27, 27, -1,
                        28, 28, 28, -1, 29, 29, 29, -1,
                        30, 30, 30, -1, 31, 31, 31, -1,
                        32, 32, 32, -1, 33, 33, 33, -1,
                        34, 34, 34, -1, 35, 35, 35, -1,
                        36, 36, 36, -1, 36, 36, 36, -1,
                        37, 37, 37, -1, 37, 37, 37, -1,
                        38, 38, 38, -1, 39, 39, 39, -1,
                        40, 40, 40, -1, 41, 41, 41, -1,
                        41, 41, 41, -1, 42, 42, 42, -1,
                        43, 43, 43, -1, 44, 44, 44, -1,
                        45, 45, 45, -1, 46, 46, 46, -1,
                        47, 47, 47, -1, 48, 48, 48, -1,
                        49, 49, 49, -1, 50, 50, 50, -1,
                        51, 51, 51, -1, 52, 52, 52, -1,
                        53, 53, 53, -1, 54, 54, 54, -1,
                        55, 55, 55, -1, 56, 56, 56, -1,
                        57, 57, 57, -1, 58, 58, 58, -1,
                        59, 59, 59, -1, 60, 60, 60, -1,
                        61, 61, 61, -1, 62, 62, 62, -1,
                        62, 62, 62, -1, 63, 63, 63, -1,
                        64, 64, 64, -1, 65, 65, 65, -1,
                        66, 66, 66, -1, 67, 67, 67, -1,
                        68, 68, 68, -1, 69, 69, 69, -1,
                        70, 70, 70, -1, 71, 71, 71, -1,
                        72, 72, 72, -1, 73, 73, 73, -1,
                        73, 73, 73, -1, 74, 74, 74, -1,
                        75, 75, 75, -1, 76, 76, 76, -1,
                        77, 77, 77, -1, 78, 78, 78, -1,
                        78, 78, 78, -1, 79, 79, 79, -1,
                        80, 80, 80, -1, 81, 81, 81, -1,
                        82, 82, 82, -1, 83, 83, 83, -1,
                        83, 83, 83, -1, 84, 84, 84, -1,
                        85, 85, 85, -1, 86, 86, 86, -1,
                        87, 87, 87, -1, 88, 88, 88, -1,
                        89, 89, 89, -1, 90, 90, 90, -1,
                        91, 91, 87, -1, 92, 92, 92, -1,
                        93, 93, 93, -1, 94, 94, 94, -1,
                        95, 95, 95, -1, 96, 96, 96, -1,
                        97, 97, 97, -1, 98, 98, 98, -1,
                        99, 99, 99, -1, 100, 100, 100, -1,
                        101, 99, 101, -1, 102, 102, 102, -1,
                        103, 103, 103, -1, 104, 104, 104, -1,
                        105, 105, 105, -1, 106, 104, 106, -1,
                        107, 107, 107, -1, 108, 108, 108, -1,
                        109, 109, 109, -1, 110, 110, 110, -1,
                        111, 111, 111, -1, 112, 112, 112, -1,
                        113, 113, 113, -1, 114, 114, 114, -1,
                        115, 115, 115, -1, 116, 116, 116, -1,
                        117, 117, 117, -1, 118, 118, 118, -1,
                        119, 119, 119, -1, 120, 120, 120, -1,
                        121, 121, 121, -1, 122, 122, 122, -1,
                        123, 123, 123, -1, 124, 124, 124, -1,
                        125, 125, 125, -1, 126, 126, 126, -1,
                        127, 127, 127, -1, 128, 128, 128, -1,
                        129, 129, 129, -1, 130, 130, 130, -1,
                        131, 131, 131, -1, 132, 132, 132, -1,
                        133, 133, 133, -1, 134, 134, 134, -1,
                        135, 135, 135, -1, 136, 136, 136, -1,
                        137, 137, 137, -1, 138, 138, 138, -1,
                        139, 139, 139, -1, 140, 140, 140, -1,
                        141, 141, 141, -1, 142, 142, 142, -1,
                        143, 143, 143, -1, 144, 144, 144, -1,
                        145, 145, 145, -1, 146, 146, 146, -1,
                        147, 147, 147, -1, 147, 147, 147, -1,
                        148, 148, 148, -1, 148, 148, 148, -1,
                        149, 149, 149, -1, 150, 150, 149, -1,
                        151, 151, 151, -1, 152, 152, 152, -1,
                        153, 153, 153, -1, 154, 154, 154, -1,
                        155, 155, 155, -1, 155, 155, 155, -1,
                        156, 156, 156, -1, 157, 157, 157, -1,
                        158, 158, 158, -1, 159, 159, 159, -1,
                        159, 159, 159, -1, 159, 159, 159, -1,
                        159, 159, 159, -1, 159, 159, 159, -1,
                        159, 159, 159, -1, 159, 159, 159, -1,
                        159, 159, 159, -1, 159, 159, 159, -1,
                        159, 159, 159, -1, 160, 160, 160, -1,
                        160, 160, 160, -1, 161, 161, 161, -1,
                        161, 161, 161, -1, 162, 162, 162, -1,
                        162, 162, 162, -1, 163, 163, 163, -1,
                        164, 164, 164, -1, 165, 165, 165, -1,
                        166, 166, 166, -1, 167, 167, 167, -1,
                        168, 168, 168, -1, 169, 169, 169, -1,
                        170, 170, 170, -1, 170, 170, 170, -1,
                        170, 170, 170, -1, 171, 171, 171, -1,
                        172, 172, 172, -1, 173, 173, 173, -1,
                        174, 174, 174, -1, 175, 169, 175, -1,
                        176, 176, 176, -1, 177, 177, 177, -1,
                        178, 178, 178, -1, 179, 179, 179, -1,
                        180, 180, 180, -1, 180, 180, 1, -1,
                        181, 181, 181, -1, 181, 2, 181, -1,
                        3, 182, 182, -1, 182, 3, 182, -1,
                        183, 183, 4, -1, 4, 183, 183, -1,
                        183, 183, 183, -1, 184, 6, 184, -1,
                        185, 185, 7, -1, 7, 185, 185, -1,
                        186, 186, 8, -1, 8, 186, 186, -1,
                        187, 9, 187, -1, 188, 188, 10, -1,
                        188, 188, 188, -1, 188, 188, 188, -1,
                        189, 11, 189, -1, 190, 12, 190, -1,
                        191, 14, 191, -1, 192, 15, 192, -1,
                        16, 193, 193, -1, 193, 193, 16, -1,
                        194, 194, 194, -1, 195, 19, 195, -1,
                        18, 20, 196, -1, 197, 197, 197, -1,
                        198, 198, 198, -1, 199, 23, 199, -1,
                        200, 24, 198, -1, 201, 201, 201, -1,
                        202, 26, 202, -1, 203, 203, 203, -1,
                        204, 28, 204, -1, 205, 205, 205, -1,
                        206, 206, 206, -1, 207, 207, 207, -1,
                        29, 29, 29, -1, 208, 208, 208, -1,
                        209, 209, 209, -1, 210, 36, 210, -1,
                        211, 37, 211, -1, 212, 212, 212, -1,
                        213, 213, 213, -1, 214, 41, 214, -1,
                        215, 42, 215, -1, 216, 216, 216, -1,
                        43, 45, 217, -1, 218, 218, 218, -1,
                        219, 47, 219, -1, 220, 220, 220, -1,
                        221, 221, 221, -1, 222, 50, 222, -1,
                        223, 223, 223, -1, 224, 52, 221, -1,
                        225, 53, 225, -1, 226, 226, 226, -1,
                        227, 227, 227, -1, 228, 57, 228, -1,
                        229, 229, 229, -1, 230, 230, 230, -1,
                        56, 60, 231, -1, 232, 232, 232, -1,
                        233, 62, 233, -1, 234, 63, 234, -1,
                        235, 235, 235, -1, 236, 236, 236, -1,
                        237, 237, 237, -1, 238, 67, 238, -1,
                        239, 68, 239, -1, 240, 240, 240, -1,
                        241, 241, 241, -1, 242, 242, 242, -1,
                        243, 73, 243, -1, 244, 74, 244, -1,
                        245, 245, 245, -1, 246, 246, 246, -1,
                        247, 247, 247, -1, 78, 248, 248, -1,
                        249, 79, 249, -1, 250, 250, 250, -1,
                        251, 83, 251, -1, 252, 84, 252, -1,
                        253, 85, 253, -1, 254, 87, 254, -1,
                        255, 255, 255, -1, 256, 256, 256, -1,
                        257, 257, 257, -1, 258, 93, 258, -1,
                        259, 259, 259, -1, 260, 96, 260, -1,
                        261, 261, 261, -1, 262, 98, 262, -1,
                        263, 99, 263, -1, 264, 264, 264, -1,
                        265, 265, 265, -1, 266, 103, 266, -1,
                        267, 104, 267, -1, 268, 268, 268, -1,
                        269, 269, 269, -1, 270, 108, 270, -1,
                        271, 271, 109, -1, 109, 271, 271, -1,
                        272, 272, 272, -1, 273, 111, 273, -1,
                        274, 274, 274, -1, 275, 113, 275, -1,
                        276, 276, 276, -1, 277, 116, 277, -1,
                        278, 278, 278, -1, 279, 118, 279, -1,
                        280, 280, 280, -1, 281, 121, 281, -1,
                        282, 282, 282, -1, 283, 123, 283, -1,
                        284, 284, 284, -1, 285, 285, 285, -1,
                        286, 286, 286, -1, 287, 128, 287, -1,
                        288, 288, 288, -1, 289, 289, 289, -1,
                        285, 285, 285, -1, 290, 132, 290, -1,
                        291, 133, 291, -1, 292, 134, 292, -1,
                        293, 293, 293, -1, 136, 136, 136, -1,
                        136, 136, 136, -1, 294, 294, 294, -1,
                        294, 138, 294, -1, 294, 294, 294, -1,
                        294, 294, 294, -1, 295, 295, 295, -1,
                        296, 296, 296, -1, 296, 296, 141, -1,
                        297, 142, 297, -1, 298, 143, 298, -1,
                        299, 144, 299, -1, 300, 146, 300, -1,
                        301, 301, 147, -1, 301, 301, 301, -1,
                        301, 301, 301, -1, 302, 302, 302, -1,
                        302, 148, 302, -1, 303, 149, 303, -1,
                        304, 304, 304, -1, 304, 304, 151, -1,
                        305, 153, 305, -1, 306, 306, 306, -1,
                        306, 306, 155, -1, 307, 156, 307, -1,
                        159, 159, 159, -1, 159, 159, 159, -1,
                        159, 159, 159, -1, 159, 159, 159, -1,
                        159, 159, 159, -1, 159, 159, 159, -1,
                        159, 159, 159, -1, 159, 159, 159, -1,
                        159, 159, 159, -1, 159, 159, 159, -1,
                        159, 159, 159, -1, 159, 159, 159, -1,
                        159, 159, 159, -1, 159, 159, 159, -1,
                        159, 159, 159, -1, 159, 159, 159, -1,
                        159, 159, 159, -1, 159, 159, 159, -1,
                        159, 159, 159, -1, 159, 159, 159, -1,
                        159, 159, 159, -1, 159, 159, 159, -1,
                        159, 159, 159, -1, 159, 159, 159, -1,
                        159, 159, 159, -1, 159, 159, 159, -1,
                        159, 159, 159, -1, 159, 159, 159, -1,
                        159, 159, 159, -1, 159, 159, 159, -1,
                        159, 159, 159, -1, 159, 159, 159, -1,
                        159, 159, 159, -1, 159, 159, 159, -1,
                        159, 159, 159, -1, 159, 159, 159, -1,
                        159, 159, 159, -1, 159, 159, 159, -1,
                        159, 159, 159, -1, 159, 159, 159, -1,
                        159, 159, 159, -1, 159, 159, 159, -1,
                        159, 159, 159, -1, 159, 159, 159, -1,
                        308, 160, 308, -1, 308, 308, 308, -1,
                        309, 161, 309, -1, 309, 309, 309, -1,
                        310, 162, 310, -1, 310, 310, 310, -1,
                        310, 310, 310, -1, 311, 164, 311, -1,
                        312, 312, 312, -1, 313, 166, 313, -1,
                        314, 167, 314, -1, 315, 168, 315, -1,
                        316, 169, 316, -1, 317, 170, 317, -1,
                        317, 317, 317, -1, 317, 317, 317, -1,
                        174, 171, 318, -1, 319, 319, 319, -1,
                        320, 320, 173, -1, 321, 321, 321, -1,
                        322, 322, 322, -1, 323, 323, 323, -1,
                        324, 324, 324, -1, 325, 325, 325, -1,
                        173, 326, 322, -1, 174, 327, 327, -1,
                        327, 171, 174, -1, 328, 328, 328, -1,
                        329, 329, 329, -1, 329, 329, 329, -1,
                        330, 330, 330, -1, 176, 330, 330, -1,
                        331, 331, 176, -1, 176, 329, 331, -1,
                        176, 331, 331, -1, 332, 332, 332, -1,
                        332, 332, 332, -1, 333, 333, 333, -1,
                        334, 334, 334, -1, 335, 335, 335, -1,
                        335, 335, 335, -1, 336, 334, 336, -1,
                        177, 336, 336, -1, 177, 336, 336, -1,
                        336, 336, 177, -1, 336, 336, 334, -1,
                        333, 336, 336, -1, 336, 336, 332, -1,
                        336, 336, 336, -1, 332, 336, 336, -1,
                        337, 337, 337, -1, 338, 338, 338, -1,
                        339, 339, 339, -1, 339, 339, 333, -1,
                        339, 339, 339, -1, 340, 340, 340, -1,
                        341, 341, 178, -1, 342, 342, 342, -1,
                        343, 343, 343, -1, 344, 344, 344, -1,
                        344, 344, 344, -1, 344, 178, 344, -1 ]
                    ccw TRUE
                    solid FALSE
                    convex TRUE
                    creaseAngle 0

                  }

                }

            }

        }

    }

}
