#VRML V2.0 utf8


Group {
  children 
    Group {
      children 
        Transform {
          scale 1.74 1.74 1.74
          children 
            Group {
              children 
                Shape {
                  appearance 
                  Appearance {
                    material 
                    Material {
                      diffuseColor 0.65864992 0.50308388 0.31538299
                      ambientIntensity 0.10572245

                    }

                  }
                  geometry 
                  IndexedFaceSet {
                    coord 
                    Coordinate {
                      point [ 0.0466755 -0.001592993 -0.062287029,
                          0.04645633 0.018376701 -0.0621497,
                          0.064383738 0.01504218 -0.061847501,
                          0.065494291 -0.0025613899 -0.061966121,
                          0.077611499 0.01253324 -0.061370961,
                          0.046233408 0.03503906 -0.06173443,
                          0.063272707 0.029695921 -0.061478011,
                          0.073310547 0.023774561 -0.061197691,
                          0.064258449 -0.020017439 -0.061847441,
                          0.046313759 -0.02152293 -0.0621497,
                          0.063043289 -0.034516752 -0.061477952,
                          0.079696648 -0.0034230349 -0.061456501,
                          0.077498429 -0.019114129 -0.061370961,
                          0.073119096 -0.029818051 -0.061197691,
                          0.0241723 -0.02192872 -0.06231099,
                          0.02424567 -0.00075962802 -0.062454522,
                          -6.76907e-005 -0.02183181 -0.062356349,
                          0.04597193 -0.038137849 -0.06173443,
                          0.02411586 -0.039594289 -0.061880171,
                          -0.000131707 -0.03975641 -0.061925352,
                          0.024323581 0.020413389 -0.06231093,
                          0.02439349 0.038090762 -0.061880171,
                          9.0518897e-006 -0.000351817 -0.0625,
                          8.58321e-005 0.02113211 -0.062356289,
                          0.00014995701 0.03906852 -0.061925352,
                          0.01825803 -0.0041767349 0.062422272,
                          0.020082351 0.005053102 0.062200781,
                          0.0104981 0.0057632318 0.06228482,
                          0.0094675422 -0.0040099621 0.0625,
                          3.9930699e-005 0.0059899092 0.062284701,
                          0.02352136 0.0156356 0.061512999,
                          0.01239454 0.01699811 0.0615949,
                          8.0673897e-005 0.017392689 0.061594479,
                          0.01042884 -0.01360231 0.062078591,
                          0.020016899 -0.01325559 0.062001701,
                          0.01224529 -0.024754761 0.061157279,
                          5.07806e-006 -0.0039217472 0.062499881,
                          -3.0203701e-005 -0.01363295 0.062078409,
                          -7.0536902e-005 -0.02491462 0.061156861,
                          0.02786242 -0.01238107 0.061770432,
                          0.028354039 -0.0043221111 0.062021252,
                          0.039532181 -0.01316565 0.060983472,
                          0.02338033 -0.02382075 0.061090291,
                          0.03215247 -0.02170866 0.060887691,
                          0.037396841 -0.019060669 0.06061279,
                          0.027920179 0.0037865629 0.061948061,
                          0.032276738 0.0130757 0.06126558,
                          0.040602259 -0.0045973649 0.061229158,
                          0.039593749 0.0040549631 0.06117278,
                          0.037501149 0.01012277 0.060931019,
                          0.08978533 0.01448422 -0.05890071,
                          0.091332249 0.01518785 -0.055116829,
                          0.094305091 -0.0042171469 -0.05509543,
                          0.091673911 0.01559758 -0.048515309,
                          0.094656937 -0.0041378732 -0.048494931,
                          0.081011653 0.03094464 -0.058951069,
                          0.082266681 0.032312982 -0.055181261,
                          0.08257544 0.032998081 -0.048576351,
                          0.091194861 -0.02325171 -0.055116829,
                          0.089653313 -0.022475541 -0.05890071,
                          0.082010917 -0.039265029 -0.055181261,
                          0.080765776 -0.03785735 -0.058951069,
                          0.091534249 -0.02350276 -0.048515309,
                          0.082315318 -0.039791401 -0.048576351,
                          0.09266936 -0.004175961 -0.05889314,
                          0.085525572 -0.020514959 -0.060687061,
                          0.077476136 -0.034405351 -0.060690582,
                          0.088277452 -0.0039362311 -0.06072282,
                          0.085645251 0.0129733 -0.060687061,
                          0.077698581 0.027843051 -0.060690582,
                          0.092493407 0.016846411 -0.02554273,
                          0.092145503 0.01722776 -0.01145994,
                          0.095139198 -0.0038343661 -0.01145565,
                          0.090741932 0.01714199 0.0028282399,
                          0.093689017 -0.003869056 0.002815485,
                          0.083316617 0.035083771 -0.025590179,
                          0.083004586 0.035713792 -0.01149404,
                          0.081741147 0.035555001 0.0028138161,
                          0.091996253 -0.02453744 -0.01147943,
                          0.092346482 -0.02427697 -0.02554762,
                          0.082727127 -0.041945871 -0.01152968,
                          0.08304327 -0.04141074 -0.025599061,
                          0.09059298 -0.02453839 0.002779603,
                          0.08146435 -0.041926201 0.002724766,
                          0.095499992 -0.003899157 -0.02552866,
                          0.092055321 -0.023888281 -0.03827589,
                          0.09519726 -0.0040161009 -0.038257241,
                          0.082782738 -0.040599581 -0.038331799,
                          0.09219861 0.016226759 -0.03827589,
                          0.083049469 0.0340501 -0.038331799,
                          0.067959182 0.047936611 -0.0256713,
                          0.067739777 0.046663761 -0.038424902,
                          0.047807571 0.054776479 -0.038527358,
                          0.067351751 0.045357879 -0.0486781,
                          0.047532141 0.05334359 -0.04879003,
                          0.047964212 0.056160498 -0.025761301,
                          0.024790941 0.05909723 -0.03861123,
                          0.024874739 0.060510632 -0.02583527,
                          0.000227785 0.060334802 -0.038648479,
                          0.02464574 0.05762177 -0.048881639,
                          0.0002217 0.05885905 -0.048922349,
                          0.024785159 0.061285488 -0.01169681,
                          0.04778707 0.05694681 -0.0116344,
                          0.02441024 0.06084507 0.0026609299,
                          0.04706132 0.056586862 0.002710819,
                          0.000233824 0.0617426 -0.02586823,
                          0.00023764699 0.0625 -0.011725,
                          0.000237082 0.062024292 0.0026378629,
                          0.067705981 0.048688229 -0.01155948,
                          0.066676311 0.048430081 0.0027682779,
                          0.066358559 0.042644732 -0.05907207,
                          0.06450706 0.038302179 -0.060844,
                          0.04658401 0.045046739 -0.061037771,
                          0.047094882 0.050227761 -0.05921125,
                          0.02444285 0.048772808 -0.06116217,
                          0.024489461 0.054337021 -0.059316751,
                          0.000188739 0.049906071 -0.061207108,
                          0.024551211 0.056660831 -0.055503301,
                          0.047352791 0.05241036 -0.055406678,
                          0.000209044 0.055548072 -0.059361041,
                          0.000217742 0.057897922 -0.05554628,
                          0.067099087 0.04450744 -0.055288609,
                          0.02443957 -0.061269101 -0.02584826,
                          0.024365241 -0.060035821 -0.03861123,
                          0.04740667 -0.057421021 -0.038527358,
                          0.0242297 -0.058805522 -0.048881639,
                          0.047140591 -0.05623275 -0.04879003,
                          -0.00020723201 -0.061689548 -0.025881231,
                          -0.000203834 -0.060456391 -0.038648479,
                          -0.000200251 -0.05922639 -0.048922349,
                          0.06738954 -0.051359709 -0.038424902,
                          0.0676006 -0.052424312 -0.025682621,
                          0.067009978 -0.050298031 -0.0486781,
                          0.047554068 -0.05861222 -0.025773879,
                          0.067342222 -0.053124361 -0.01160484,
                          0.04737138 -0.059394829 -0.01168465,
                          0.066313557 -0.053092532 0.00265485,
                          0.024344379 -0.06207937 -0.01174873,
                          -0.00020901499 -0.0625 -0.0117768,
                          0.046647009 -0.059357341 0.002585232,
                          0.02397114 -0.0620405 0.0025312901,
                          -0.000207751 -0.062461909 0.002508163,
                          0.046724789 -0.053351399 -0.05921125,
                          0.02409601 -0.055774029 -0.059316751,
                          0.024088969 -0.050256658 -0.06116223,
                          0.046250928 -0.048162568 -0.061037771,
                          -0.000190151 -0.056169271 -0.059361041,
                          -0.00017030499 -0.050574239 -0.061207108,
                          0.06421566 -0.043249961 -0.060844,
                          0.066035502 -0.047764301 -0.05907207,
                          0.066762798 -0.049606562 -0.055288609,
                          0.04696732 -0.05545884 -0.055406678,
                          0.024141431 -0.05800426 -0.055503301,
                          -0.00019791099 -0.0584253 -0.05554628,
                          0.084712982 -0.0042483802 0.0281654,
                          0.08204817 0.0147345 0.02823507,
                          0.075299263 0.01279866 0.038652949,
                          0.07774543 -0.0044714208 0.038555019,
                          0.070792548 0.01132309 0.047088981,
                          0.07390964 0.03132486 0.028278761,
                          0.067829542 0.02787297 0.03872472,
                          0.063769221 0.025330421 0.047185302,
                          0.075176649 -0.02151626 0.038448028,
                          0.081913471 -0.022961309 0.028082309,
                          0.067601621 -0.035914298 0.038349088,
                          0.073659301 -0.038741522 0.02799868,
                          0.07309293 -0.0047433372 0.046965651,
                          0.070678413 -0.020618491 0.046836492,
                          0.063557021 -0.034051832 0.046722591,
                          0.087725103 -0.02414858 0.01608061,
                          0.090723388 -0.0040504332 0.01613831,
                          0.078885131 -0.041072719 0.01601278,
                          0.087869823 0.01636016 0.016177891,
                          0.079154193 0.034222119 0.01619106,
                          0.05807602 0.0079196692 0.057305511,
                          0.048662718 0.005433559 0.060024548,
                          0.05012089 -0.0047838092 0.060005721,
                          0.05241197 0.019063881 0.057388298,
                          0.044184379 0.01427924 0.060024548,
                          0.04859012 -0.01489216 0.059802938,
                          0.057984881 -0.017579669 0.057038721,
                          0.044049621 -0.023428081 0.059617162,
                          0.052242629 -0.02832436 0.056898952,
                          0.059929069 -0.004897356 0.057198759,
                          0.065852277 -0.019584529 0.052907702,
                          0.068101518 -0.00490272 0.053048901,
                          0.059217449 -0.032025151 0.052786231,
                          0.065957777 0.0099422932 0.053186592,
                          0.059413608 0.022872681 0.05329746,
                          0.042923149 0.026727431 0.057476461,
                          0.048461609 0.031810459 0.053358369,
                          0.034202449 0.037389752 0.053383522,
                          0.05201488 0.03502804 0.047233809,
                          0.03671097 0.041094121 0.04724925,
                          0.0304501 0.031490259 0.057543568,
                          0.017736791 0.040244509 0.053387161,
                          0.015833249 0.03393203 0.05756348,
                          0.00016528901 0.04100877 0.053383701,
                          0.01903867 0.044206731 0.047246508,
                          0.000179371 0.045044061 0.047240671,
                          0.01385694 0.02586662 0.060388859,
                          0.0264275 0.02395433 0.060335331,
                          0.000142319 0.03458881 0.057561569,
                          0.00011293 0.026394419 0.060387898,
                          0.036654651 0.02027237 0.06017106,
                          0.06028777 0.04286015 0.02828365,
                          0.064566188 0.04667389 0.01616984,
                          0.045572039 0.054531991 0.01613193,
                          0.042551748 0.050115518 0.02826607,
                          0.023637891 0.058612879 0.016094981,
                          0.022070579 0.053866439 0.02824246,
                          0.000229956 0.059733029 0.016076799,
                          0.02025306 0.048264738 0.038742121,
                          0.039049979 0.044887949 0.038753979,
                          0.000213356 0.054888122 0.02822917,
                          0.00019350801 0.049178421 0.038733121,
                          0.05532765 0.038330071 0.038753331,
                          0.042177249 -0.05468541 0.02787148,
                          0.059959821 -0.048926529 0.027927211,
                          0.055028971 -0.045244329 0.038275242,
                          0.038708922 -0.050552178 0.038224749,
                          0.051736832 -0.04279273 0.04664474,
                          0.01989161 -0.052883741 0.038195841,
                          0.02167373 -0.057187431 0.02783519,
                          -0.00017266499 -0.05328488 0.038186781,
                          -0.000188634 -0.057601862 0.02782183,
                          0.036393281 -0.047796842 0.046597,
                          0.018701909 -0.05001938 0.046573341,
                          -0.00016178899 -0.050415989 0.046567488,
                          0.02321147 -0.06072652 0.015835701,
                          0.045169588 -0.058088299 0.0158807,
                          -0.00020200999 -0.061149471 0.015817519,
                          0.064213753 -0.051961482 0.015942991,
                          0.030196959 -0.039355509 0.056852221,
                          0.042701419 -0.035328679 0.056852691,
                          0.03647881 -0.02892804 0.059649099,
                          0.026227349 -0.03205096 0.059754308,
                          0.01364493 -0.033455718 0.05978816,
                          0.01556485 -0.041167911 0.05684942,
                          -0.000101905 -0.033714529 0.05978721,
                          -0.000129641 -0.041504379 0.056847628,
                          0.017425289 -0.046912368 0.05264353,
                          0.033908721 -0.044819169 0.05266308,
                          -0.000150308 -0.04729604 0.052640021,
                          0.048204482 -0.040146761 0.052707668 ]

                    }
                    normal 
                    Normal {
                      vector [ 0.01816958 0.0070749819 -0.99980992,
                          0.03772711 0.0091134524 -0.9992466,
                          0.022946836 0.025215114 -0.99941874,
                          0.044741374 0.028571358 -0.99858999,
                          0.01663919 -0.0079756612 -0.99982977,
                          0.019105777 -0.027070453 -0.99945098,
                          0.035228614 -0.010383127 -0.99932534,
                          0.038110476 -0.031759933 -0.99876881,
                          0.0074088913 -0.0068055843 -0.99994946,
                          0.0018440741 -0.0067864726 -0.99997526,
                          0.0082923444 -0.024405869 -0.99966782,
                          0.0020235186 -0.024045255 -0.99970883,
                          0.0079056732 0.0067523499 -0.99994594,
                          0.010069011 0.024319559 -0.99965358,
                          0.0020695101 0.0066816513 -0.99997556,
                          0.0028313471 0.024008729 -0.99970782,
                          0.010391184 0.021936333 0.99970543,
                          0.00046464667 0.02196308 0.99975866,
                          0.014704645 0.060089309 0.99808466,
                          0.0019195809 0.060970388 0.99813777,
                          0.0080163814 -0.043086171 0.99903923,
                          0.010906028 -0.080561042 0.99669009,
                          -0.00041679846 -0.043358251 0.99905956,
                          0.00022111618 -0.081414983 0.99668026,
                          0.033136297 -0.033110373 0.99890226,
                          0.06489934 -0.03499746 0.99727803,
                          0.041155066 -0.075359628 0.99630678,
                          0.10196017 -0.099173911 0.9898327,
                          0.03397451 0.010838322 0.99936396,
                          0.043639515 0.052831423 0.99764949,
                          0.064843558 0.01405977 0.99779648,
                          0.064720534 0.062002856 0.99597543,
                          0.90741229 0.13857789 -0.39673579,
                          0.98697662 0.14911984 -0.060336184,
                          0.80241972 0.42319566 -0.42074707,
                          0.88277066 0.46127537 -0.089113005,
                          0.90504062 -0.14743429 -0.39895466,
                          0.78520018 -0.44860968 -0.4268609,
                          0.98566693 -0.15888418 -0.056716047,
                          0.86768109 -0.49078763 -0.079101764,
                          0.37192288 -0.060915343 -0.9262628,
                          0.081948169 -0.01691279 -0.99649316,
                          0.30961618 -0.17583545 -0.93446237,
                          0.069200352 -0.04444493 -0.99661231,
                          0.37671894 0.060596205 -0.92434353,
                          0.33421245 0.17839022 -0.92546159,
                          0.083923355 0.016308296 -0.99633878,
                          0.074476309 0.043850847 -0.99625826,
                          0.98983759 0.14069618 0.020643279,
                          0.98558164 0.13818191 0.097646073,
                          0.89639884 0.4432486 3.175635e-005,
                          0.89521205 0.43766999 0.083908051,
                          0.988433 -0.15007964 0.021828465,
                          0.88267237 -0.46998495 0.0019579728,
                          0.98429251 -0.14760423 0.096857205,
                          0.88254029 -0.46358374 0.078822404,
                          0.98787326 -0.15285017 -0.02726542,
                          0.98618573 -0.15587072 -0.056054406,
                          0.87784433 -0.47650263 -0.048318442,
                          0.87186384 -0.48350951 -0.077923246,
                          0.98890305 0.14646697 -0.02486538,
                          0.8888759 0.45614684 -0.042777304,
                          0.98734063 0.1491815 -0.053884186,
                          0.88386571 0.46190214 -0.073674425,
                          0.37558877 0.92154425 -0.098434404,
                          0.37113422 0.91927433 -0.13112722,
                          0.63432693 0.76934844 -0.075713485,
                          0.62703556 0.77143508 -0.10823278,
                          0.18379839 0.97699362 -0.10817505,
                          0.05017985 0.99264795 -0.11014554,
                          0.18246318 0.97308469 -0.14076036,
                          0.050316669 0.98858261 -0.14203106,
                          0.18523517 0.98128521 -0.052605581,
                          0.18456784 0.9821983 0.034948152,
                          0.049406148 0.99734896 -0.053423509,
                          0.048666235 0.99826771 0.033065263,
                          0.38273016 0.92268634 -0.046558119,
                          0.64659798 0.76227969 -0.028998699,
                          0.38351423 0.92255431 0.042551294,
                          0.64840949 0.75890219 0.060271595,
                          0.13259949 0.32547379 -0.93620741,
                          0.036398258 0.068227574 -0.99700564,
                          0.23046574 0.27699065 -0.93282467,
                          0.061782926 0.057562392 -0.99642837,
                          0.060260341 0.32658967 -0.94324332,
                          0.016459398 0.31462994 -0.94907171,
                          0.016279314 0.068867616 -0.99749303,
                          0.0045632687 0.067042686 -0.99773967,
                          0.15912716 0.84191394 -0.51561564,
                          0.18239565 0.97265929 -0.1437566,
                          0.044166867 0.85055286 -0.5240317,
                          0.050501127 0.98836946 -0.14344202,
                          0.32707295 0.80995375 -0.48682469,
                          0.56104714 0.69386238 -0.45142123,
                          0.370745 0.91819012 -0.1395534,
                          0.62601203 0.77005291 -0.12299412,
                          0.11258137 -0.98897284 -0.096219629,
                          0.11126407 -0.98656189 -0.11964932,
                          0.017143875 -0.99521506 -0.096193776,
                          0.017300908 -0.99276167 -0.11884872,
                          0.28962553 -0.95340699 -0.0844533,
                          0.57201421 -0.81775862 -0.063800946,
                          0.28481719 -0.95134866 -0.11753699,
                          0.56403828 -0.8207761 -0.090484858,
                          0.29485929 -0.9546147 -0.042058606,
                          0.29939151 -0.95383531 0.023726525,
                          0.58061892 -0.81397837 -0.017913086,
                          0.58681035 -0.80798155 0.053099435,
                          0.1157693 -0.99168456 -0.056208357,
                          0.017166078 -0.99820626 -0.057355557,
                          0.11749137 -0.99305719 0.0057739508,
                          0.017423525 -0.99984467 0.0026645609,
                          0.038349051 -0.31693339 -0.94767219,
                          0.011953183 -0.067207247 -0.99766749,
                          0.0068313135 -0.31334719 -0.94961417,
                          0.0027132737 -0.066257946 -0.99779886,
                          0.099929258 -0.32838041 -0.93924463,
                          0.19943629 -0.2827346 -0.9382357,
                          0.029497057 -0.068429284 -0.99721986,
                          0.054828197 -0.05811676 -0.99680305,
                          0.24951936 -0.85089898 -0.46228889,
                          0.28501841 -0.95215982 -0.11025485,
                          0.50278133 -0.74215364 -0.44319186,
                          0.55939001 -0.82384598 -0.091436312,
                          0.097872645 -0.85856229 -0.50328118,
                          0.015786871 -0.8606503 -0.50895172,
                          0.11127655 -0.9867202 -0.11832487,
                          0.0173003 -0.9925822 -0.12033912,
                          0.8240723 0.11364623 0.55496794,
                          0.86677313 0.12002661 0.48404357,
                          0.74607801 0.36705643 0.55555123,
                          0.78013402 0.38778618 0.49093077,
                          0.82340717 -0.12756418 0.55292684,
                          0.74216753 -0.39419049 0.54203445,
                          0.86700231 -0.13576674 0.47945225,
                          0.77874315 -0.41680908 0.46885964,
                          0.88655311 -0.13459638 0.4426142,
                          0.96635461 -0.14477323 0.212602,
                          0.79901642 -0.42022163 0.43010065,
                          0.86853701 -0.4544549 0.19777349,
                          0.88706535 0.12315606 0.44491306,
                          0.80618292 0.39304581 0.442249,
                          0.96695262 0.13549712 0.21597038,
                          0.87754089 0.42913368 0.21393092,
                          0.26840332 0.036531366 0.9626137,
                          0.12247739 0.020741427 0.99225456,
                          0.23852617 0.12075961 0.96359867,
                          0.090670638 0.070847951 0.99335772,
                          0.26603776 -0.059588712 0.96211916,
                          0.23262314 -0.14467041 0.96174693,
                          0.1209507 -0.043541372 0.99170321,
                          0.086837552 -0.093819462 0.99179494,
                          0.44738543 -0.079824485 0.89077181,
                          0.76646245 -0.12348327 0.63030738,
                          0.40263441 -0.22671488 0.8868404,
                          0.69036311 -0.37422958 0.61915356,
                          0.45205206 0.057023514 0.890167,
                          0.41262951 0.20121767 0.88839644,
                          0.76752543 0.10503975 0.6323539,
                          0.69601023 0.34465051 0.6299094,
                          0.19086275 0.48394316 0.85403198,
                          0.30203411 0.76052862 0.57477963,
                          0.30877474 0.37239611 0.87520248,
                          0.50709218 0.61160129 0.60729021,
                          0.09272372 0.53373992 0.84054989,
                          0.023611527 0.54665387 0.83702582,
                          0.14431261 0.81984401 0.55410266,
                          0.036952559 0.83610362 0.54732555,
                          0.05250746 0.31866923 0.9464106,
                          0.023328768 0.13093634 0.99111629,
                          0.012452808 0.32599536 0.94528943,
                          0.0042225989 0.13283458 0.99112922,
                          0.11908856 0.28839734 0.95007634,
                          0.19002208 0.21532558 0.95787615,
                          0.06262631 0.118414 0.99098742,
                          0.11054584 0.083374321 0.99036783,
                          0.35106587 0.85046613 0.39173993,
                          0.37735611 0.90870333 0.17849596,
                          0.58858174 0.69027627 0.42082089,
                          0.63656878 0.74553269 0.19738607,
                          0.16903129 0.91190344 0.37397957,
                          0.044149052 0.92857051 0.36852092,
                          0.18175492 0.96879989 0.16849887,
                          0.047886617 0.98489451 0.16640231,
                          0.15425898 0.86038923 0.48573098,
                          0.15540841 0.88274455 0.44340762,
                          0.039771184 0.87786168 0.47726005,
                          0.039765205 0.89868259 0.43679321,
                          0.32227245 0.79988009 0.50629282,
                          0.54210967 0.64664614 0.53662455,
                          0.32777178 0.82575595 0.45901269,
                          0.55902672 0.67518073 0.4812693,
                          0.27599278 -0.85644662 0.43626526,
                          0.28613934 -0.88332492 0.37129691,
                          0.51720399 -0.6991362 0.4936685,
                          0.53857654 -0.72909951 0.42231429,
                          0.11222659 -0.91067529 0.39758754,
                          0.018279459 -0.92298794 0.3843945,
                          0.11695329 -0.93452471 0.33613315,
                          0.019787604 -0.94592416 0.32378384,
                          0.11524229 -0.94865817 0.29456243,
                          0.11842878 -0.98747087 0.10428755,
                          0.01800313 -0.95884866 0.28334647,
                          0.017898172 -0.99501461 0.098110884,
                          0.28813025 -0.89895809 0.32993236,
                          0.54914844 -0.74237549 0.383816,
                          0.30061755 -0.94512326 0.12795019,
                          0.58471215 -0.79438418 0.16451624,
                          0.10111955 -0.31411514 0.94398439,
                          0.052293003 -0.1383407 0.98900318,
                          0.17257364 -0.24138513 0.9549616,
                          0.079918869 -0.10425359 0.99133456,
                          0.04123845 -0.34679213 0.93703502,
                          0.0065826103 -0.35307181 0.9355731,
                          0.018733913 -0.15247138 0.98813033,
                          0.0019628354 -0.1537987 0.98810029,
                          0.070966519 -0.5741964 0.8156361,
                          0.11056691 -0.87508786 0.47116485,
                          0.012508038 -0.58774287 0.80895108,
                          0.019322421 -0.8893193 0.45687848,
                          0.1689247 -0.52480572 0.83429223,
                          0.29398546 -0.40701225 0.86482,
                          0.26504695 -0.81756103 0.51121831,
                          0.4862994 -0.66268802 0.56952393,
                          0.017452743 0.0078382511 -0.99981701,
                          0.036471207 0.010123084 -0.99928343,
                          0.0218419 0.026855586 -0.99940073,
                          0.041939192 0.031438563 -0.99862546,
                          0.017445475 -0.007206013 -0.9998219,
                          0.020403733 -0.025400268 -0.99946916,
                          0.036602553 -0.0093853166 -0.99928582,
                          0.041261144 -0.028908879 -0.99873012,
                          0.0072061713 -0.0070210421 -0.99994946,
                          0.0017637546 -0.0066938023 -0.99997604,
                          0.0077428361 -0.025144408 -0.99965394,
                          0.0017732002 -0.024385853 -0.99970108,
                          0.00772565 0.006961294 -0.99994594,
                          0.0095864795 0.025041895 -0.99964046,
                          0.0019903707 0.0067743137 -0.99997509,
                          0.0025929203 0.024350259 -0.99970013,
                          0.0092390925 0.02103734 0.99973607,
                          0.00018974311 0.021704031 0.99976444,
                          0.013129788 0.059079904 0.99816698,
                          0.0012981137 0.060415749 0.99817252,
                          0.009617121 -0.044413161 0.99896693,
                          0.012862901 -0.081873998 0.99655968,
                          0.00011110535 -0.043878302 0.99903691,
                          0.0010327125 -0.082163222 0.99661839,
                          0.039103583 -0.038678408 0.99848634,
                          0.063674212 -0.036548734 0.99730128,
                          0.037623722 -0.073990434 0.99654907,
                          0.062762581 -0.065381698 0.9958846,
                          0.039915472 0.016085552 0.99907362,
                          0.040525526 0.051682416 0.997841,
                          0.065975241 0.012535909 0.99774253,
                          0.083107419 0.034196582 0.99595368,
                          0.9098773 0.14046803 -0.3903743,
                          0.98701125 0.15114988 -0.054428905,
                          0.80578172 0.42824364 -0.40905192,
                          0.8814581 0.46633884 -0.07456357,
                          0.90753162 -0.14941257 -0.39250773,
                          0.78858036 -0.45428112 -0.41445091,
                          0.98565632 -0.16099843 -0.050607763,
                          0.86582655 -0.49631295 -0.063387051,
                          0.38071316 -0.065183572 -0.9223929,
                          0.084223002 -0.016129034 -0.99631637,
                          0.31601721 -0.18289499 -0.93095785,
                          0.077106722 -0.044430658 -0.99603236,
                          0.38664666 0.059384961 -0.92031407,
                          0.32725182 0.17158781 -0.92922765,
                          0.086102337 0.015509632 -0.99616557,
                          0.082359195 0.043778565 -0.99564075,
                          0.98935634 0.14340082 0.024704257,
                          0.98504007 0.14003055 0.10043659,
                          0.89323175 0.44948778 0.0098949121,
                          0.89266717 0.44156995 0.090340018,
                          0.98789823 -0.15290362 0.026031027,
                          0.87871879 -0.47716165 0.013041242,
                          0.98373908 -0.1494564 0.099600703,
                          0.87926447 -0.4684144 0.086499706,
                          0.98749363 -0.15610939 -0.022051936,
                          0.9860127 -0.15894684 -0.050149061,
                          0.87393188 -0.48480135 -0.034795947,
                          0.86866897 -0.49140817 -0.062707327,
                          0.98922181 0.1433443 -0.029878162,
                          0.89198619 0.4486919 -0.0551023,
                          0.98745596 0.14622064 -0.059585098,
                          0.88631928 0.45469353 -0.087703869,
                          0.37870577 0.91961616 -0.1043461,
                          0.37398309 0.91709852 -0.13808346,
                          0.63962793 0.7637198 -0.08722543,
                          0.63161236 0.76571625 -0.12142719,
                          0.18437546 0.97676313 -0.10926838,
                          0.049780827 0.99275285 -0.10937943,
                          0.18312284 0.97273189 -0.1423329,
                          0.050020196 0.98849899 -0.14271626,
                          0.18505441 0.98133552 -0.052301284,
                          0.18515767 0.98212016 0.034010705,
                          0.049933221 0.99727333 -0.054339081,
                          0.049353797 0.99827147 0.031910401,
                          0.38020188 0.92393172 -0.04238832,
                          0.64173639 0.76666307 -0.02006029,
                          0.38248158 0.92290938 0.04411554,
                          0.64524925 0.76116556 0.06542556,
                          0.13195381 0.31797883 -0.93887049,
                          0.036416221 0.068128653 -0.99701172,
                          0.23207903 0.28102323 -0.93121713,
                          0.06263385 0.064387515 -0.99595755,
                          0.061454054 0.31373805 -0.94751889,
                          0.017239168 0.31087515 -0.95029438,
                          0.016876405 0.066977195 -0.99761182,
                          0.0049376986 0.066110127 -0.99780011,
                          0.15720525 0.85197878 -0.49941832,
                          0.18197535 0.97297204 -0.14216319,
                          0.043485984 0.85282111 -0.52038962,
                          0.050304756 0.98827821 -0.14413752,
                          0.32659304 0.82107347 -0.46816182,
                          0.56221002 0.69954532 -0.44108531,
                          0.36897779 0.9199518 -0.13245425,
                          0.62329108 0.77429247 -0.10945108,
                          0.11398766 -0.98905396 -0.093696892,
                          0.11240323 -0.98673111 -0.11716364,
                          0.017105948 -0.99520868 -0.096266165,
                          0.017174035 -0.99272823 -0.11914625,
                          0.29407108 -0.95132095 -0.092253886,
                          0.57918376 -0.81151479 -0.077394553,
                          0.28904346 -0.95106989 -0.10917959,
                          0.57015532 -0.81473881 -0.1054695,
                          0.29938006 -0.95287257 -0.04904693,
                          0.30341733 -0.95268959 0.017904907,
                          0.58764899 -0.80858088 -0.029422985,
                          0.59256613 -0.80428946 0.044541735,
                          0.11419846 -0.99200988 -0.05362203,
                          0.017105013 -0.99821335 -0.057249669,
                          0.11577059 -0.99323982 0.0084860614,
                          0.017125016 -0.99984837 0.0031691487,
                          0.036373835 -0.32886219 -0.94367719,
                          0.011250619 -0.069010913 -0.99755245,
                          0.0059068725 -0.31719846 -0.94834089,
                          0.0023082995 -0.067187652 -0.99773777,
                          0.10001587 -0.32223505 -0.94136149,
                          0.20059685 -0.28681871 -0.93674761,
                          0.02948265 -0.068480171 -0.99721676,
                          0.054857887 -0.064963713 -0.99637866,
                          0.25116035 -0.83984756 -0.481222,
                          0.2821528 -0.95199335 -0.11873779,
                          0.5021072 -0.73561418 -0.45470893,
                          0.56319839 -0.81939489 -0.10676914,
                          0.095219992 -0.86820275 -0.48698786,
                          0.014966246 -0.86304063 -0.50491279,
                          0.11052066 -0.98649967 -0.12084576,
                          0.017382983 -0.99261695 -0.12003975,
                          0.82402647 0.11356923 0.55505186,
                          0.86701971 0.12042791 0.48350179,
                          0.74862969 0.36578992 0.55294782,
                          0.78386211 0.3861092 0.48629197,
                          0.82516962 -0.12589303 0.55067784,
                          0.74517196 -0.39263445 0.53903329,
                          0.86898434 -0.13395241 0.47636443,
                          0.78260511 -0.41492948 0.4640722,
                          0.88737369 -0.13364711 0.44125557,
                          0.96619701 -0.14509553 0.21309783,
                          0.80000001 -0.4195824 0.42889455,
                          0.86718726 -0.4559066 0.20033853,
                          0.88693219 0.12287314 0.44525689,
                          0.80505377 0.39375702 0.44367105,
                          0.96681666 0.13474783 0.21704556,
                          0.87825072 0.42838013 0.21252319,
                          0.27534136 0.031805471 0.96082026,
                          0.12778115 0.016408935 0.99166667,
                          0.2466213 0.11819988 0.96187669,
                          0.11655579 0.059009172 0.99142969,
                          0.2741572 -0.054144349 0.96015948,
                          0.2418793 -0.14175333 0.95989603,
                          0.12663215 -0.039060649 0.99118048,
                          0.1134402 -0.081892088 0.99016422,
                          0.45134985 -0.077695824 0.88895822,
                          0.76885819 -0.12204544 0.62766391,
                          0.40716237 -0.22578892 0.88500744,
                          0.69422382 -0.37324569 0.61541939,
                          0.45070598 0.057742354 0.89080298,
                          0.40996063 0.20175478 0.88950956,
                          0.76745141 0.10496006 0.63245708,
                          0.69307417 0.34534472 0.63276011,
                          0.18895584 0.48279539 0.8551048,
                          0.29777563 0.75841993 0.57976633,
                          0.30891255 0.37242022 0.87514365,
                          0.50197929 0.61093354 0.61219043,
                          0.089780748 0.53056926 0.84287357,
                          0.02272019 0.54523957 0.83797228,
                          0.14190771 0.81778377 0.55775625,
                          0.036219157 0.83521634 0.54872763,
                          0.054905288 0.32096204 0.94549924,
                          0.024271637 0.13181177 0.99097764,
                          0.01359779 0.3276096 0.94471538,
                          0.0050738114 0.13392776 0.99097818,
                          0.11435841 0.28608102 0.95135683,
                          0.18246055 0.21488059 0.95944494,
                          0.057605635 0.11576723 0.99160451,
                          0.084092751 0.081374869 0.99312967,
                          0.34735453 0.85008037 0.39586398,
                          0.37567559 0.90893382 0.18085146,
                          0.58528668 0.69097739 0.42425206,
                          0.6362142 0.74570084 0.1978936,
                          0.1664 0.91097051 0.37741727,
                          0.043153603 0.92801338 0.37003937,
                          0.17993057 0.96865016 0.17129463,
                          0.046990011 0.98468214 0.16790763,
                          0.15728834 0.86187696 0.48210841,
                          0.1586252 0.88452864 0.43868822,
                          0.040779758 0.87860471 0.47580567,
                          0.040775374 0.89949232 0.43503004,
                          0.32713494 0.80090904 0.50152534,
                          0.54729187 0.64606416 0.5320459,
                          0.33329573 0.82724714 0.45230085,
                          0.56551152 0.67479479 0.47418219,
                          0.27728876 -0.85671717 0.43490988,
                          0.28699973 -0.88352656 0.37015146,
                          0.51601893 -0.69927514 0.49471077,
                          0.53649527 -0.7292769 0.42465049,
                          0.11031148 -0.90978301 0.40015772,
                          0.017247582 -0.9223038 0.38608068,
                          0.11516498 -0.93366539 0.33912542,
                          0.018750688 -0.94523579 0.32584944,
                          0.11329482 -0.94803303 0.29731742,
                          0.11657827 -0.98737937 0.10719906,
                          0.017092012 -0.95841604 0.28486234,
                          0.017245205 -0.99491358 0.099245131,
                          0.29016641 -0.89916092 0.3275868,
                          0.5498203 -0.74223155 0.3831318,
                          0.30353019 -0.94473141 0.12390282,
                          0.58776593 -0.79297614 0.16037531,
                          0.1061719 -0.31677169 0.94254082,
                          0.056733601 -0.14081956 0.98840851,
                          0.17972669 -0.24186079 0.95352072,
                          0.10554018 -0.10638086 0.9887085,
                          0.04300167 -0.34861356 0.93627959,
                          0.0074918764 -0.35443681 0.93505001,
                          0.019797815 -0.15352158 0.98794699,
                          0.0028497588 -0.15499209 0.98791158,
                          0.072123036 -0.57555926 0.81457353,
                          0.10915374 -0.87390476 0.47368342,
                          0.012675022 -0.5880273 0.80874175,
                          0.018536936 -0.8884294 0.45863885,
                          0.16898546 -0.52484548 0.83425486,
                          0.29470044 -0.40714765 0.86451292,
                          0.26572946 -0.81789911 0.51032245,
                          0.48445824 -0.6624561 0.57135993 ]

                    }
                    coordIndex [ 0, 1, 2, -1, 3, 2, 4, -1,
                        1, 5, 6, -1, 2, 6, 7, -1,
                        0, 3, 8, -1, 9, 8, 10, -1,
                        3, 11, 12, -1, 8, 12, 13, -1,
                        9, 14, 15, -1, 15, 14, 16, -1,
                        17, 18, 14, -1, 18, 19, 16, -1,
                        15, 20, 1, -1, 20, 21, 5, -1,
                        22, 23, 20, -1, 23, 24, 21, -1,
                        25, 26, 27, -1, 28, 27, 29, -1,
                        26, 30, 31, -1, 27, 31, 32, -1,
                        25, 28, 33, -1, 34, 33, 35, -1,
                        28, 36, 37, -1, 33, 37, 38, -1,
                        34, 39, 40, -1, 40, 39, 41, -1,
                        42, 43, 39, -1, 43, 44, 41, -1,
                        40, 45, 26, -1, 45, 46, 30, -1,
                        40, 47, 48, -1, 45, 48, 49, -1,
                        50, 51, 52, -1, 51, 53, 54, -1,
                        55, 56, 51, -1, 56, 57, 53, -1,
                        52, 58, 59, -1, 58, 60, 61, -1,
                        54, 62, 58, -1, 62, 63, 60, -1,
                        64, 59, 65, -1, 65, 12, 11, -1,
                        59, 61, 66, -1, 66, 13, 12, -1,
                        67, 68, 50, -1, 50, 68, 69, -1,
                        11, 4, 68, -1, 4, 7, 69, -1,
                        70, 71, 72, -1, 71, 73, 74, -1,
                        75, 76, 71, -1, 76, 77, 73, -1,
                        72, 78, 79, -1, 78, 80, 81, -1,
                        74, 82, 78, -1, 82, 83, 80, -1,
                        84, 79, 85, -1, 86, 85, 62, -1,
                        79, 81, 87, -1, 85, 87, 63, -1,
                        84, 86, 88, -1, 70, 88, 89, -1,
                        86, 54, 53, -1, 88, 53, 57, -1,
                        90, 91, 92, -1, 91, 93, 94, -1,
                        75, 89, 91, -1, 89, 57, 93, -1,
                        95, 92, 96, -1, 97, 96, 98, -1,
                        92, 94, 99, -1, 99, 100, 98, -1,
                        97, 101, 102, -1, 101, 103, 104, -1,
                        105, 106, 101, -1, 106, 107, 103, -1,
                        95, 102, 108, -1, 90, 108, 76, -1,
                        102, 104, 109, -1, 108, 109, 77, -1,
                        110, 111, 112, -1, 111, 6, 5, -1,
                        55, 69, 111, -1, 69, 7, 6, -1,
                        113, 112, 114, -1, 115, 114, 116, -1,
                        112, 5, 21, -1, 114, 21, 24, -1,
                        115, 117, 118, -1, 117, 99, 94, -1,
                        119, 120, 117, -1, 117, 120, 100, -1,
                        113, 118, 121, -1, 110, 121, 56, -1,
                        118, 94, 93, -1, 121, 93, 57, -1,
                        122, 123, 124, -1, 123, 125, 126, -1,
                        127, 128, 123, -1, 128, 129, 125, -1,
                        124, 130, 131, -1, 130, 87, 81, -1,
                        124, 126, 132, -1, 132, 63, 87, -1,
                        133, 131, 134, -1, 135, 134, 136, -1,
                        131, 81, 80, -1, 134, 80, 83, -1,
                        135, 137, 122, -1, 137, 138, 127, -1,
                        139, 140, 137, -1, 140, 141, 138, -1,
                        142, 143, 144, -1, 145, 144, 18, -1,
                        143, 146, 147, -1, 144, 147, 19, -1,
                        145, 148, 149, -1, 148, 66, 61, -1,
                        17, 10, 148, -1, 10, 13, 66, -1,
                        142, 149, 150, -1, 150, 132, 126, -1,
                        149, 61, 60, -1, 150, 60, 63, -1,
                        151, 152, 143, -1, 152, 153, 146, -1,
                        151, 126, 125, -1, 152, 125, 129, -1,
                        154, 155, 156, -1, 157, 156, 158, -1,
                        159, 160, 156, -1, 160, 161, 158, -1,
                        157, 162, 163, -1, 162, 164, 165, -1,
                        166, 167, 162, -1, 167, 168, 164, -1,
                        154, 163, 169, -1, 170, 169, 82, -1,
                        163, 165, 171, -1, 169, 171, 83, -1,
                        170, 172, 155, -1, 155, 172, 173, -1,
                        74, 73, 172, -1, 172, 73, 77, -1,
                        174, 175, 176, -1, 175, 48, 47, -1,
                        177, 178, 175, -1, 178, 49, 48, -1,
                        176, 179, 180, -1, 179, 181, 182, -1,
                        47, 41, 179, -1, 41, 44, 181, -1,
                        183, 180, 184, -1, 185, 184, 167, -1,
                        180, 182, 186, -1, 184, 186, 168, -1,
                        183, 185, 187, -1, 174, 187, 188, -1,
                        166, 158, 187, -1, 187, 158, 161, -1,
                        189, 190, 191, -1, 190, 192, 193, -1,
                        177, 188, 190, -1, 188, 161, 192, -1,
                        194, 191, 195, -1, 196, 195, 197, -1,
                        191, 193, 198, -1, 195, 198, 199, -1,
                        196, 200, 201, -1, 200, 31, 30, -1,
                        202, 203, 200, -1, 203, 32, 31, -1,
                        194, 201, 204, -1, 189, 204, 178, -1,
                        201, 30, 46, -1, 204, 46, 49, -1,
                        205, 206, 207, -1, 206, 109, 104, -1,
                        159, 173, 206, -1, 173, 77, 109, -1,
                        208, 207, 209, -1, 210, 209, 211, -1,
                        207, 104, 103, -1, 209, 103, 107, -1,
                        210, 212, 213, -1, 212, 198, 193, -1,
                        214, 215, 212, -1, 215, 199, 198, -1,
                        208, 213, 216, -1, 205, 216, 160, -1,
                        213, 193, 192, -1, 216, 192, 161, -1,
                        217, 218, 219, -1, 220, 219, 221, -1,
                        218, 165, 164, -1, 219, 164, 168, -1,
                        220, 222, 223, -1, 222, 224, 225, -1,
                        226, 227, 222, -1, 227, 228, 224, -1,
                        217, 223, 229, -1, 230, 229, 140, -1,
                        223, 225, 231, -1, 229, 231, 141, -1,
                        230, 232, 218, -1, 232, 171, 165, -1,
                        139, 136, 232, -1, 136, 83, 171, -1,
                        233, 234, 235, -1, 236, 235, 43, -1,
                        234, 182, 181, -1, 235, 181, 44, -1,
                        236, 237, 238, -1, 237, 239, 240, -1,
                        42, 35, 237, -1, 35, 38, 239, -1,
                        233, 238, 241, -1, 242, 241, 227, -1,
                        238, 240, 243, -1, 241, 243, 228, -1,
                        242, 244, 234, -1, 244, 186, 182, -1,
                        226, 221, 244, -1, 221, 168, 186, -1,
                        3, 0, 2, -1, 11, 3, 4, -1,
                        2, 1, 6, -1, 4, 2, 7, -1,
                        9, 0, 8, -1, 17, 9, 10, -1,
                        8, 3, 12, -1, 10, 8, 13, -1,
                        0, 9, 15, -1, 22, 15, 16, -1,
                        9, 17, 14, -1, 14, 18, 16, -1,
                        0, 15, 1, -1, 1, 20, 5, -1,
                        15, 22, 20, -1, 20, 23, 21, -1,
                        28, 25, 27, -1, 36, 28, 29, -1,
                        27, 26, 31, -1, 29, 27, 32, -1,
                        34, 25, 33, -1, 42, 34, 35, -1,
                        33, 28, 37, -1, 35, 33, 38, -1,
                        25, 34, 40, -1, 47, 40, 41, -1,
                        34, 42, 39, -1, 39, 43, 41, -1,
                        25, 40, 26, -1, 26, 45, 30, -1,
                        45, 40, 48, -1, 46, 45, 49, -1,
                        64, 50, 52, -1, 52, 51, 54, -1,
                        50, 55, 51, -1, 51, 56, 53, -1,
                        64, 52, 59, -1, 59, 58, 61, -1,
                        52, 54, 58, -1, 58, 62, 60, -1,
                        67, 64, 65, -1, 67, 65, 11, -1,
                        65, 59, 66, -1, 65, 66, 12, -1,
                        64, 67, 50, -1, 55, 50, 69, -1,
                        67, 11, 68, -1, 68, 4, 69, -1,
                        84, 70, 72, -1, 72, 71, 74, -1,
                        70, 75, 71, -1, 71, 76, 73, -1,
                        84, 72, 79, -1, 79, 78, 81, -1,
                        72, 74, 78, -1, 78, 82, 80, -1,
                        86, 84, 85, -1, 54, 86, 62, -1,
                        85, 79, 87, -1, 62, 85, 63, -1,
                        70, 84, 88, -1, 75, 70, 89, -1,
                        88, 86, 53, -1, 89, 88, 57, -1,
                        95, 90, 92, -1, 92, 91, 94, -1,
                        90, 75, 91, -1, 91, 89, 93, -1,
                        97, 95, 96, -1, 105, 97, 98, -1,
                        96, 92, 99, -1, 96, 99, 98, -1,
                        95, 97, 102, -1, 102, 101, 104, -1,
                        97, 105, 101, -1, 101, 106, 103, -1,
                        90, 95, 108, -1, 75, 90, 76, -1,
                        108, 102, 109, -1, 76, 108, 77, -1,
                        113, 110, 112, -1, 112, 111, 5, -1,
                        110, 55, 111, -1, 111, 69, 6, -1,
                        115, 113, 114, -1, 119, 115, 116, -1,
                        114, 112, 21, -1, 116, 114, 24, -1,
                        113, 115, 118, -1, 118, 117, 94, -1,
                        115, 119, 117, -1, 99, 117, 100, -1,
                        110, 113, 121, -1, 55, 110, 56, -1,
                        121, 118, 93, -1, 56, 121, 57, -1,
                        133, 122, 124, -1, 124, 123, 126, -1,
                        122, 127, 123, -1, 123, 128, 125, -1,
                        133, 124, 131, -1, 131, 130, 81, -1,
                        130, 124, 132, -1, 130, 132, 87, -1,
                        135, 133, 134, -1, 139, 135, 136, -1,
                        134, 131, 80, -1, 136, 134, 83, -1,
                        133, 135, 122, -1, 122, 137, 127, -1,
                        135, 139, 137, -1, 137, 140, 138, -1,
                        145, 142, 144, -1, 17, 145, 18, -1,
                        144, 143, 147, -1, 18, 144, 19, -1,
                        142, 145, 149, -1, 149, 148, 61, -1,
                        145, 17, 148, -1, 148, 10, 66, -1,
                        151, 142, 150, -1, 151, 150, 126, -1,
                        150, 149, 60, -1, 132, 150, 63, -1,
                        142, 151, 143, -1, 143, 152, 146, -1,
                        152, 151, 125, -1, 153, 152, 129, -1,
                        157, 154, 156, -1, 166, 157, 158, -1,
                        155, 159, 156, -1, 156, 160, 158, -1,
                        154, 157, 163, -1, 163, 162, 165, -1,
                        157, 166, 162, -1, 162, 167, 164, -1,
                        170, 154, 169, -1, 74, 170, 82, -1,
                        169, 163, 171, -1, 82, 169, 83, -1,
                        154, 170, 155, -1, 159, 155, 173, -1,
                        170, 74, 172, -1, 173, 172, 77, -1,
                        183, 174, 176, -1, 176, 175, 47, -1,
                        174, 177, 175, -1, 175, 178, 48, -1,
                        183, 176, 180, -1, 180, 179, 182, -1,
                        176, 47, 179, -1, 179, 41, 181, -1,
                        185, 183, 184, -1, 166, 185, 167, -1,
                        184, 180, 186, -1, 167, 184, 168, -1,
                        174, 183, 187, -1, 177, 174, 188, -1,
                        185, 166, 187, -1, 188, 187, 161, -1,
                        194, 189, 191, -1, 191, 190, 193, -1,
                        189, 177, 190, -1, 190, 188, 192, -1,
                        196, 194, 195, -1, 202, 196, 197, -1,
                        195, 191, 198, -1, 197, 195, 199, -1,
                        194, 196, 201, -1, 201, 200, 30, -1,
                        196, 202, 200, -1, 200, 203, 31, -1,
                        189, 194, 204, -1, 177, 189, 178, -1,
                        204, 201, 46, -1, 178, 204, 49, -1,
                        208, 205, 207, -1, 207, 206, 104, -1,
                        205, 159, 206, -1, 206, 173, 109, -1,
                        210, 208, 209, -1, 214, 210, 211, -1,
                        209, 207, 103, -1, 211, 209, 107, -1,
                        208, 210, 213, -1, 213, 212, 193, -1,
                        210, 214, 212, -1, 212, 215, 198, -1,
                        205, 208, 216, -1, 159, 205, 160, -1,
                        216, 213, 192, -1, 160, 216, 161, -1,
                        220, 217, 219, -1, 226, 220, 221, -1,
                        219, 218, 164, -1, 221, 219, 168, -1,
                        217, 220, 223, -1, 223, 222, 225, -1,
                        220, 226, 222, -1, 222, 227, 224, -1,
                        230, 217, 229, -1, 139, 230, 140, -1,
                        229, 223, 231, -1, 140, 229, 141, -1,
                        217, 230, 218, -1, 218, 232, 165, -1,
                        230, 139, 232, -1, 232, 136, 171, -1,
                        236, 233, 235, -1, 42, 236, 43, -1,
                        235, 234, 181, -1, 43, 235, 44, -1,
                        233, 236, 238, -1, 238, 237, 240, -1,
                        236, 42, 237, -1, 237, 35, 239, -1,
                        242, 233, 241, -1, 226, 242, 227, -1,
                        241, 238, 243, -1, 227, 241, 228, -1,
                        233, 242, 234, -1, 234, 244, 182, -1,
                        242, 226, 244, -1, 244, 221, 186, -1 ]
                    normalIndex [ 0, 0, 0, -1, 1, 1, 1, -1,
                        2, 2, 2, -1, 3, 3, 3, -1,
                        4, 4, 4, -1, 5, 5, 5, -1,
                        6, 6, 6, -1, 7, 7, 7, -1,
                        8, 8, 8, -1, 9, 9, 9, -1,
                        10, 10, 10, -1, 11, 11, 11, -1,
                        12, 12, 12, -1, 13, 13, 13, -1,
                        14, 14, 14, -1, 15, 15, 15, -1,
                        16, 16, 16, -1, 17, 17, 17, -1,
                        18, 18, 18, -1, 19, 19, 19, -1,
                        20, 20, 20, -1, 21, 21, 21, -1,
                        22, 22, 22, -1, 23, 23, 23, -1,
                        24, 24, 24, -1, 25, 25, 25, -1,
                        26, 26, 26, -1, 27, 27, 27, -1,
                        28, 28, 28, -1, 29, 29, 29, -1,
                        30, 30, 30, -1, 31, 31, 31, -1,
                        32, 32, 32, -1, 33, 33, 33, -1,
                        34, 34, 34, -1, 35, 35, 35, -1,
                        36, 36, 36, -1, 37, 37, 37, -1,
                        38, 38, 38, -1, 39, 39, 39, -1,
                        40, 40, 40, -1, 41, 41, 41, -1,
                        42, 42, 42, -1, 43, 43, 43, -1,
                        44, 44, 44, -1, 45, 45, 45, -1,
                        46, 46, 46, -1, 47, 47, 47, -1,
                        48, 48, 48, -1, 49, 49, 49, -1,
                        50, 50, 50, -1, 51, 51, 51, -1,
                        52, 52, 52, -1, 53, 53, 53, -1,
                        54, 54, 54, -1, 55, 55, 55, -1,
                        56, 56, 56, -1, 57, 57, 57, -1,
                        58, 58, 58, -1, 59, 59, 59, -1,
                        60, 60, 60, -1, 61, 61, 61, -1,
                        62, 62, 62, -1, 63, 63, 63, -1,
                        64, 64, 64, -1, 65, 65, 65, -1,
                        66, 66, 66, -1, 67, 67, 67, -1,
                        68, 68, 68, -1, 69, 69, 69, -1,
                        70, 70, 70, -1, 71, 71, 71, -1,
                        72, 72, 72, -1, 73, 73, 73, -1,
                        74, 74, 74, -1, 75, 75, 75, -1,
                        76, 76, 76, -1, 77, 77, 77, -1,
                        78, 78, 78, -1, 79, 79, 79, -1,
                        80, 80, 80, -1, 81, 81, 81, -1,
                        82, 82, 82, -1, 83, 83, 83, -1,
                        84, 84, 84, -1, 85, 85, 85, -1,
                        86, 86, 86, -1, 87, 87, 87, -1,
                        88, 88, 88, -1, 89, 89, 89, -1,
                        90, 90, 90, -1, 91, 91, 91, -1,
                        92, 92, 92, -1, 93, 93, 93, -1,
                        94, 94, 94, -1, 95, 95, 95, -1,
                        96, 96, 96, -1, 97, 97, 97, -1,
                        98, 98, 98, -1, 99, 99, 99, -1,
                        100, 100, 100, -1, 101, 101, 101, -1,
                        102, 102, 102, -1, 103, 103, 103, -1,
                        104, 104, 104, -1, 105, 105, 105, -1,
                        106, 106, 106, -1, 107, 107, 107, -1,
                        108, 108, 108, -1, 109, 109, 109, -1,
                        110, 110, 110, -1, 111, 111, 111, -1,
                        112, 112, 112, -1, 113, 113, 113, -1,
                        114, 114, 114, -1, 115, 115, 115, -1,
                        116, 116, 116, -1, 117, 117, 117, -1,
                        118, 118, 118, -1, 119, 119, 119, -1,
                        120, 120, 120, -1, 121, 121, 121, -1,
                        122, 122, 122, -1, 123, 123, 123, -1,
                        124, 124, 124, -1, 125, 125, 125, -1,
                        126, 126, 126, -1, 127, 127, 127, -1,
                        128, 128, 128, -1, 129, 129, 129, -1,
                        130, 130, 130, -1, 131, 131, 131, -1,
                        132, 132, 132, -1, 133, 133, 133, -1,
                        134, 134, 134, -1, 135, 135, 135, -1,
                        136, 136, 136, -1, 137, 137, 137, -1,
                        138, 138, 138, -1, 139, 139, 139, -1,
                        140, 140, 140, -1, 141, 141, 141, -1,
                        142, 142, 142, -1, 143, 143, 143, -1,
                        144, 144, 144, -1, 145, 145, 145, -1,
                        146, 146, 146, -1, 147, 147, 147, -1,
                        148, 148, 148, -1, 149, 149, 149, -1,
                        150, 150, 150, -1, 151, 151, 151, -1,
                        152, 152, 152, -1, 153, 153, 153, -1,
                        154, 154, 154, -1, 155, 155, 155, -1,
                        156, 156, 156, -1, 157, 157, 157, -1,
                        158, 158, 158, -1, 159, 159, 159, -1,
                        160, 160, 160, -1, 161, 161, 161, -1,
                        162, 162, 162, -1, 163, 163, 163, -1,
                        164, 164, 164, -1, 165, 165, 165, -1,
                        166, 166, 166, -1, 167, 167, 167, -1,
                        168, 168, 168, -1, 169, 169, 169, -1,
                        170, 170, 170, -1, 171, 171, 171, -1,
                        172, 172, 172, -1, 173, 173, 173, -1,
                        174, 174, 174, -1, 175, 175, 175, -1,
                        176, 176, 176, -1, 177, 177, 177, -1,
                        178, 178, 178, -1, 179, 179, 179, -1,
                        180, 180, 180, -1, 181, 181, 181, -1,
                        182, 182, 182, -1, 183, 183, 183, -1,
                        184, 184, 184, -1, 185, 185, 185, -1,
                        186, 186, 186, -1, 187, 187, 187, -1,
                        188, 188, 188, -1, 189, 189, 189, -1,
                        190, 190, 190, -1, 191, 191, 191, -1,
                        192, 192, 192, -1, 193, 193, 193, -1,
                        194, 194, 194, -1, 195, 195, 195, -1,
                        196, 196, 196, -1, 197, 197, 197, -1,
                        198, 198, 198, -1, 199, 199, 199, -1,
                        200, 200, 200, -1, 201, 201, 201, -1,
                        202, 202, 202, -1, 203, 203, 203, -1,
                        204, 204, 204, -1, 205, 205, 205, -1,
                        206, 206, 206, -1, 207, 207, 207, -1,
                        208, 208, 208, -1, 209, 209, 209, -1,
                        210, 210, 210, -1, 211, 211, 211, -1,
                        212, 212, 212, -1, 213, 213, 213, -1,
                        214, 214, 214, -1, 215, 215, 215, -1,
                        216, 216, 216, -1, 217, 217, 217, -1,
                        218, 218, 218, -1, 219, 219, 219, -1,
                        220, 220, 220, -1, 221, 221, 221, -1,
                        222, 222, 222, -1, 223, 223, 223, -1,
                        224, 224, 224, -1, 225, 225, 225, -1,
                        226, 226, 226, -1, 227, 227, 227, -1,
                        228, 228, 228, -1, 229, 229, 229, -1,
                        230, 230, 230, -1, 231, 231, 231, -1,
                        232, 8, 232, -1, 233, 9, 233, -1,
                        234, 234, 234, -1, 235, 235, 235, -1,
                        236, 12, 236, -1, 237, 237, 237, -1,
                        238, 14, 238, -1, 239, 239, 239, -1,
                        240, 240, 240, -1, 241, 241, 241, -1,
                        242, 242, 242, -1, 243, 243, 243, -1,
                        244, 244, 244, -1, 245, 245, 245, -1,
                        246, 246, 246, -1, 247, 247, 247, -1,
                        248, 248, 248, -1, 249, 249, 249, -1,
                        250, 250, 250, -1, 251, 251, 251, -1,
                        252, 252, 252, -1, 253, 253, 253, -1,
                        254, 254, 254, -1, 255, 255, 255, -1,
                        256, 256, 256, -1, 257, 257, 257, -1,
                        258, 258, 258, -1, 259, 259, 259, -1,
                        260, 260, 260, -1, 261, 261, 261, -1,
                        262, 262, 262, -1, 263, 263, 263, -1,
                        264, 264, 264, -1, 265, 265, 265, -1,
                        266, 266, 266, -1, 267, 267, 267, -1,
                        268, 268, 268, -1, 269, 269, 269, -1,
                        270, 270, 270, -1, 271, 271, 271, -1,
                        272, 272, 272, -1, 273, 273, 273, -1,
                        274, 274, 274, -1, 275, 275, 275, -1,
                        276, 276, 276, -1, 277, 277, 277, -1,
                        278, 278, 278, -1, 279, 279, 279, -1,
                        280, 280, 280, -1, 281, 281, 281, -1,
                        282, 282, 282, -1, 283, 283, 283, -1,
                        284, 284, 284, -1, 285, 285, 285, -1,
                        286, 286, 286, -1, 287, 287, 287, -1,
                        288, 288, 288, -1, 289, 289, 289, -1,
                        290, 290, 290, -1, 291, 291, 291, -1,
                        292, 292, 292, -1, 293, 293, 293, -1,
                        294, 294, 294, -1, 295, 295, 295, -1,
                        296, 296, 296, -1, 297, 297, 297, -1,
                        298, 298, 298, -1, 299, 299, 299, -1,
                        300, 300, 300, -1, 301, 301, 301, -1,
                        302, 302, 302, -1, 303, 303, 303, -1,
                        304, 304, 304, -1, 305, 81, 305, -1,
                        306, 306, 306, -1, 307, 307, 307, -1,
                        308, 308, 308, -1, 309, 309, 309, -1,
                        310, 310, 310, -1, 311, 311, 311, -1,
                        312, 312, 312, -1, 313, 313, 313, -1,
                        314, 314, 314, -1, 315, 315, 315, -1,
                        316, 316, 316, -1, 317, 317, 317, -1,
                        318, 318, 318, -1, 319, 319, 319, -1,
                        320, 320, 320, -1, 321, 321, 321, -1,
                        322, 98, 322, -1, 323, 99, 323, -1,
                        324, 324, 324, -1, 325, 325, 325, -1,
                        326, 326, 326, -1, 327, 327, 327, -1,
                        328, 328, 328, -1, 329, 329, 329, -1,
                        330, 330, 330, -1, 331, 331, 331, -1,
                        332, 332, 332, -1, 333, 109, 333, -1,
                        334, 334, 334, -1, 335, 335, 335, -1,
                        336, 336, 336, -1, 337, 337, 337, -1,
                        338, 338, 338, -1, 339, 339, 339, -1,
                        340, 340, 340, -1, 341, 341, 341, -1,
                        342, 118, 342, -1, 343, 343, 343, -1,
                        344, 344, 344, -1, 345, 345, 345, -1,
                        346, 346, 346, -1, 347, 347, 347, -1,
                        348, 348, 348, -1, 349, 349, 349, -1,
                        350, 350, 350, -1, 351, 127, 351, -1,
                        352, 128, 352, -1, 353, 353, 353, -1,
                        354, 354, 354, -1, 355, 355, 355, -1,
                        356, 356, 356, -1, 357, 357, 357, -1,
                        358, 358, 358, -1, 359, 359, 359, -1,
                        360, 360, 360, -1, 361, 361, 361, -1,
                        362, 362, 362, -1, 363, 363, 363, -1,
                        364, 364, 364, -1, 365, 365, 365, -1,
                        366, 366, 366, -1, 367, 367, 367, -1,
                        368, 368, 368, -1, 369, 369, 369, -1,
                        370, 370, 370, -1, 371, 371, 371, -1,
                        372, 372, 372, -1, 373, 373, 373, -1,
                        374, 374, 374, -1, 375, 375, 375, -1,
                        376, 376, 376, -1, 377, 377, 377, -1,
                        378, 378, 378, -1, 379, 379, 379, -1,
                        380, 380, 380, -1, 381, 381, 381, -1,
                        382, 158, 382, -1, 383, 383, 383, -1,
                        384, 384, 384, -1, 385, 385, 385, -1,
                        386, 162, 386, -1, 387, 387, 387, -1,
                        388, 388, 388, -1, 389, 389, 389, -1,
                        390, 390, 390, -1, 391, 391, 391, -1,
                        392, 392, 392, -1, 393, 393, 393, -1,
                        394, 394, 394, -1, 395, 395, 395, -1,
                        396, 396, 396, -1, 397, 397, 397, -1,
                        398, 398, 398, -1, 399, 399, 399, -1,
                        400, 400, 400, -1, 401, 401, 401, -1,
                        402, 402, 402, -1, 403, 403, 403, -1,
                        404, 404, 404, -1, 405, 405, 405, -1,
                        406, 406, 406, -1, 407, 407, 407, -1,
                        408, 408, 408, -1, 409, 409, 409, -1,
                        410, 410, 410, -1, 411, 411, 411, -1,
                        412, 412, 412, -1, 413, 413, 413, -1,
                        414, 414, 414, -1, 415, 415, 415, -1,
                        416, 416, 416, -1, 417, 417, 417, -1,
                        418, 418, 418, -1, 419, 419, 419, -1,
                        420, 420, 420, -1, 421, 421, 421, -1,
                        422, 422, 422, -1, 423, 423, 423, -1,
                        424, 424, 424, -1, 425, 425, 425, -1,
                        426, 426, 426, -1, 427, 427, 427, -1,
                        428, 428, 428, -1, 429, 429, 429, -1,
                        430, 430, 430, -1, 431, 431, 431, -1,
                        432, 432, 432, -1, 433, 433, 433, -1,
                        434, 434, 434, -1, 435, 435, 435, -1,
                        436, 436, 436, -1, 437, 437, 437, -1,
                        438, 438, 438, -1, 439, 439, 439, -1,
                        440, 440, 440, -1, 441, 441, 441, -1,
                        442, 442, 442, -1, 443, 443, 443, -1,
                        444, 220, 444, -1, 445, 445, 445, -1,
                        446, 446, 446, -1, 447, 447, 447, -1 ]
                    ccw TRUE
                    solid FALSE
                    convex TRUE
                    creaseAngle 0

                  }

                }

            }

        }

    }

}
