#VRML V2.0 utf8


Group {
  children 
    Group {
      children 
        Transform {
          scale 1.74 1.74 1.74
          children 
            Group {
              children 
                Shape {
                  appearance 
                  Appearance {
                    material 
                    Material {
                      diffuseColor 0.65864992 0.50308388 0.31538299
                      ambientIntensity 0.10572245

                    }

                  }
                  geometry 
                  IndexedFaceSet {
                    coord 
                    Coordinate {
                      point [ 0.03331434 0.019125041 -0.05656343,
                          0.035932481 0.035872102 -0.062062789,
                          0.040300012 0.039230458 -0.035121851,
                          -0.02015 0.039230399 -0.03512197,
                          -0.02015 0.039230399 -0.069499962,
                          -0.035932481 0.035872102 -0.062062848,
                          -0.034686562 -0.01891177 -0.024540721,
                          -0.029280361 -0.018591341 -0.045307212,
                          -0.02602916 -0.031981882 -0.04037201,
                          0.01464813 -0.037584178 -0.02249717,
                          0.01392161 -0.033915039 -0.04209917,
                          0.025849281 -0.031981882 -0.040371951,
                          -0.017422849 0.01910352 -0.06150382,
                          -0.033316959 0.019125041 -0.05656343,
                          0.01512223 0.01914393 0.065823309,
                          0.029133489 0.01925659 0.060715009,
                          0.02677655 0.035743829 0.062679522,
                          0.036142111 0.01917976 0.035533842,
                          0.038680669 0.019097921 0.0024942751,
                          0.040300012 0.039230399 0.002577245,
                          -0.02015 0.039230399 0.002577245,
                          -0.040300012 0.039230399 0.002577245,
                          -0.035444491 0.039230399 0.039742172,
                          -0.0356692 -0.01847684 0.002092123,
                          -0.0291059 -0.032723181 0.001746475,
                          -0.028257839 -0.026126441 0.023947651,
                          0.01473975 -0.02924889 0.02380508,
                          0.01514202 -0.036562141 0.001701295,
                          0.029105481 -0.032723241 0.001746416,
                          0.02015 0.039230399 -0.069499962,
                          0 0.039230399 -0.069499962,
                          0 0.039230399 -0.035121851,
                          -0.0140568 -0.033915099 -0.042099111,
                          -4.4532098e-005 -0.03514415 -0.043096539,
                          -2.7067999e-005 -0.039230458 -0.022900101,
                          0.017421599 0.01910346 -0.06150388,
                          0 0.01908195 -0.062721781,
                          0 0.019031281 0.067167282,
                          0 0.037691168 0.069499962,
                          -0.01354348 0.03727138 0.06864088,
                          0.017722121 0.039230399 0.039742172,
                          0.02015 0.039230399 0.002577245,
                          0 0.039230399 0.002577245,
                          -0.01514226 -0.036562141 0.001701295,
                          0 -0.03812325 0.0016851421,
                          2.67997e-005 -0.030572411 0.02412897,
                          0.029162221 -0.018591341 -0.045307212,
                          0.031377729 -0.00053476798 -0.050483339,
                          0.037129749 -0.00062749098 -0.02749747,
                          -0.038470801 0.01911211 -0.03072243,
                          -0.031407289 -0.00053478498 -0.050483339,
                          -0.016433289 -0.00073091598 -0.055343501,
                          0.01525682 -0.01094007 0.051591691,
                          0.02920931 -0.01108735 0.047164019,
                          0.0305593 0.001193881 0.054806639,
                          0.03465515 -0.01467937 0.02755993,
                          0.035668962 -0.01847684 0.002092123,
                          0.037793688 -0.00063139101 0.002435684,
                          -0.038680669 0.01909798 0.0024942751,
                          -0.037793752 -0.00063134398 0.0024356239,
                          -0.036605351 0.00031159 0.03197401,
                          0.01520729 -0.01927918 -0.04996812,
                          -2.62633e-005 -0.01991415 -0.051494241,
                          -3.86685e-006 -0.000918462 -0.0568211,
                          2.62633e-005 -0.01125872 0.053060051,
                          3.8072501e-006 0.001035213 0.061168369,
                          -0.015954429 0.001144766 0.059683971,
                          0.035444431 0.039230399 0.039742172,
                          -0.01772218 0.039230399 0.039742172,
                          -0.02677655 0.034356169 0.062679522,
                          -0.034578379 -0.01467937 0.027559809,
                          -0.02585452 -0.0196619 0.040172931,
                          0.02837461 -0.026126441 0.023947651,
                          0.02603399 -0.0196619 0.040172931,
                          0.01354354 0.038460791 0.06864088,
                          0 0.039230339 0.039742108,
                          -0.01392436 -0.020580349 0.041577809,
                          -0.01465415 -0.02924883 0.02380508,
                          0.03662359 0.000311618 0.03197401,
                          -0.036140788 0.01917976 0.035533842,
                          -0.03052973 0.001193881 0.054806639,
                          0.03846949 0.01911216 -0.03072243,
                          -0.040300012 0.039230399 -0.03512197,
                          -0.028365489 -0.033597998 -0.022343989,
                          0.028247589 -0.033598062 -0.022344111,
                          0.02015006 0.039230399 -0.035121851,
                          -0.0147345 -0.037584178 -0.02249717,
                          0.034609009 -0.01891177 -0.024540721,
                          -0.03714823 -0.00062754698 -0.02749747,
                          -0.01529276 -0.01927918 -0.049968179,
                          4.44576e-005 -0.02136719 0.042477012,
                          -0.029091351 -0.01108735 0.0471639,
                          0.01597303 0.001144707 0.059683848,
                          0.0164147 -0.00073091401 -0.055343561,
                          -0.01512098 0.01899522 0.065823309,
                          -0.02913099 0.018959161 0.0607149,
                          0.01405918 -0.020580349 0.041577749,
                          -0.01517134 -0.01094007 0.051591691 ]

                    }
                    normal 
                    Normal {
                      vector [ 0.97160363 -0.1956111 -0.13312738,
                          -0.20812678 0.97810191 0,
                          -0.91800964 -0.31275091 -0.2438139,
                          0.18353853 -0.96497881 -0.1874291,
                          -0.27969861 -0.3386887 -0.89836448,
                          0.34230039 -0.062771767 0.93749142,
                          0.99383003 -0.080253579 0.076558605,
                          0 1 0,
                          -0.89539152 -0.41633889 0.15791169,
                          0.25126287 -0.91755533 0.30815482,
                          -0.099584743 -0.97528398 -0.19724129,
                          0.066504806 -0.31814685 -0.94570595,
                          -0.058993716 -0.12382885 0.99054843,
                          -0.096912168 -0.94330204 0.31747344,
                          0.95307016 -0.18552266 -0.23924616,
                          -0.96898478 -0.15391484 -0.19333559,
                          -0.2984466 -0.29532519 -0.90758616,
                          0.25117803 -0.53116429 0.80918115,
                          0.99122971 -0.11912006 0.05722028,
                          -0.99812114 -0.044993442 0.041593138,
                          0.10709728 -0.26857325 -0.95728719,
                          -0.081155352 -0.54886085 0.83196491,
                          0.96311355 -0.022764271 0.26813081,
                          -0 0.97815847 0.20786048,
                          -0.77931875 -0.5338465 0.32813141,
                          0.20193325 -0.89947939 0.38750455,
                          -3.4572302e-006 0.99964565 0.026621278,
                          -0.090266779 -0.89365661 0.43957922,
                          0.9314757 -0.20982079 0.29720068,
                          -0.96583396 -0.024889484 0.25796419,
                          0.99588615 -0.090613641 -1.4326588e-007,
                          -0.91670048 -0.39864063 -0.02731231,
                          0.28074419 -0.95915234 0.034780409,
                          -0.10991538 -0.9929291 0.044838063,
                          0.98990405 -0.14002551 -0.021975057,
                          -0.99767345 -0.067879371 -0.0063323206,
                          -0.9540205 -0.18089038 -0.23900576,
                          -0.99104929 -0.11914597 0.060213972,
                          0.91617048 -0.31703746 -0.24519184,
                          -0.30794594 -0.39394504 -0.86601192,
                          0.21977606 -0.66406107 0.71464777,
                          0.89609396 -0.4165602 0.15327494,
                          0.10446104 -0.4803088 -0.87085664,
                          -0.084887013 -0.72059721 0.68813795,
                          -0.92982852 -0.2138983 0.29944378,
                          0.78226423 -0.53165042 0.3246699,
                          -0.99036902 -0.1367934 -0.021375151,
                          0.91556764 -0.40105182 -0.029889014,
                          0.9687745 -0.15522441 -0.19334303,
                          -0.29732865 -0.30833805 -0.90361679,
                          0.30579761 -0.27410918 0.91178513,
                          0.99814641 -0.044995856 0.040975966,
                          0.089189149 -0.28185797 -0.9553017,
                          -0.083274998 -0.31515586 0.94537944,
                          -0.97162879 -0.1954709 -0.13314965,
                          -0.99382704 -0.080253743 0.076598018,
                          0.96598524 -0.023929881 0.25748798,
                          -0.96317065 -0.02278523 0.2679238,
                          0.99761355 -0.068749592 -0.0063719223,
                          -0.99589199 -0.090549275 0,
                          0.099922448 -0.97521722 -0.1974003,
                          0.088704519 -0.1366623 0.98663825,
                          0.096921057 -0.94337118 0.31726527,
                          0.20812695 0.97810185 -3.6084975e-007,
                          0.32442307 -0.3869001 -0.86316752,
                          0.091202438 -0.55780292 0.82494736,
                          0.3163642 -0.28299856 -0.90544224,
                          0.090072945 -0.89377278 0.43938285,
                          0 0.98864388 0.15027787,
                          0.11016166 -0.99291283 0.044595025,
                          -2.9580544e-006 1 1.5810632e-006,
                          0.081277788 -0.72287554 0.68618137,
                          0.20124151 -0.47751194 -0.85526854,
                          0.08992584 -0.31771407 0.94391268,
                          0.28377482 -0.29752693 -0.91156441,
                          0 -0.36921591 -0.92934364,
                          -0.18282813 -0.96519947 -0.18698637,
                          -0.38856271 -0.10754293 0.91512495,
                          -0.25118351 -0.91727924 0.30904001,
                          -0.089127578 -0.28229314 -0.95517898,
                          -0.26708767 -0.54807621 0.79263908,
                          3.5972648e-006 0.99771023 0.067633383,
                          -0.20229828 -0.89910227 0.38818869,
                          -0.28012919 -0.95929468 0.035796043,
                          -0.10703133 -0.47782508 -0.87191033,
                          -0.13547541 -0.72215146 0.678339,
                          -0.066914186 -0.29898861 -0.95190769,
                          -0.3267889 -0.29369745 0.89830446,
                          0.97222662 -0.1308886 -0.19401954,
                          0 0.99232012 -0.12369699,
                          -0.89914834 -0.40992689 -0.1532723,
                          0.28042212 -0.95200837 -0.12265227,
                          -0.32442528 -0.38688603 -0.86317289,
                          0.39122981 -0.10144294 0.91468495,
                          0.99154657 0.0073121586 0.12954511,
                          -0.85447901 -0.50721806 0.11222961,
                          0.2111522 -0.9350459 0.28478757,
                          -0.11433414 -0.97576118 -0.18659528,
                          0 -0.3692126 -0.92934507,
                          -0.087262422 -0.14442381 0.98566073,
                          -3.3632966e-006 1 1.6037902e-006,
                          -0.092115253 -0.94473994 0.31461304,
                          0.952196 -0.17208967 -0.2524043,
                          -0.96482921 -0.10408214 -0.24139535,
                          -0.3157562 -0.28196919 -0.9059754,
                          0.26711112 -0.54705906 0.79333353,
                          0.98879802 -0.14271213 0.043725234,
                          -0.9970094 0.010092243 0.076619029,
                          0.0891781 -0.28259653 -0.95508462,
                          -0.091382734 -0.55815303 0.82469052,
                          0.92715114 0.08917883 0.36392015,
                          -0.25778502 0.96076024 0.10240435,
                          -0.77256626 -0.55011988 0.31703255,
                          0.11979252 -0.89050221 0.43892571,
                          -0.053397186 0.9972403 0.051580433,
                          -0.078968517 -0.89099663 0.4470894,
                          0.93009609 -0.26227331 0.25716564,
                          -0.96331418 -0.01329925 0.26804689,
                          0.99676263 -0.080147699 -0.0063713999,
                          -0.90829241 -0.41814217 -0.012731654,
                          0.26492551 -0.96392989 0.02556975,
                          -0.102427 -0.99392575 0.040253107,
                          0.99236989 -0.11743076 -0.037577339,
                          -0.99876207 -0.044834565 -0.02154449,
                          -0.95320493 -0.16888323 -0.2507565,
                          -0.98818225 -0.14670068 0.044439998,
                          0.89758563 -0.41217905 -0.15636054,
                          -0.20047005 -0.47701466 -0.85572708,
                          0.134993 -0.72184306 0.67876321,
                          0.85650831 -0.50442529 0.10930967,
                          0.10725968 -0.47810569 -0.87172836,
                          -0.081436269 -0.72307259 0.68595499,
                          -0.92815578 -0.26886728 0.25736597,
                          0.77675897 -0.54499555 0.31563517,
                          -0.992468 -0.11748793 -0.034699194,
                          0.90826941 -0.41803372 -0.017164089,
                          0.96462756 -0.104976 -0.24181338,
                          -0.28376901 -0.29730105 -0.91163993,
                          0.3297936 -0.2907694 0.89815885,
                          0.99700314 0.010994029 0.076576389,
                          0.066913597 -0.29904276 -0.95189083,
                          -0.089921594 -0.32015893 0.94308662,
                          -0.97224522 -0.13081825 -0.19397432,
                          -0.99154729 0.0072441539 0.1295436,
                          0.96330631 -0.011672737 0.26815063,
                          -0.92448604 0.094235465 0.36938512,
                          0.99874866 -0.044835433 -0.022158837,
                          -0.99676287 -0.080148116 -0.0063317823,
                          0.11458366 -0.97567815 -0.18687615,
                          0.069819354 -0.12374218 0.98985511,
                          0.091915384 -0.94486654 0.31429103,
                          -2.9260234e-006 0.99231988 -0.12369841,
                          0.2797209 -0.33872586 -0.89834356,
                          0.081115432 -0.54865611 0.83210391,
                          0.29853532 -0.29666612 -0.90711957,
                          0.078709066 -0.89107585 0.44697738,
                          0.22603029 0.97235745 0.058577698,
                          0.10243049 -0.99394011 0.039889067,
                          0.084615462 -0.7204684 0.68830633,
                          0.30846995 -0.39521605 -0.86524594,
                          0.086345367 -0.31504092 0.94514221,
                          0.29749662 -0.30870634 -0.90343583,
                          -0.066504367 -0.31814685 -0.94570595,
                          -0.27985451 -0.95230561 -0.1216367,
                          -0.34163243 -0.067371152 0.9374159,
                          -0.21153095 -0.93465197 0.28579786,
                          -0.10686198 -0.26834619 -0.95737708,
                          -0.25146309 -0.53243721 0.80825549,
                          -0.034210656 0.99808043 0.051623888,
                          -0.1202585 -0.8903138 0.43918023,
                          -0.26491323 -0.96389812 0.026860842,
                          -0.10411337 -0.48013461 -0.87099445,
                          -0.21999556 -0.66496772 0.71373665,
                          -0.089134559 -0.28182763 -0.95531583,
                          -0.3056027 -0.27872968 0.91044867 ]

                    }
                    coordIndex [ 0, 1, 2, -1, 3, 4, 5, -1,
                        6, 7, 8, -1, 9, 10, 11, -1,
                        12, 13, 5, -1, 14, 15, 16, -1,
                        17, 18, 19, -1, 20, 21, 22, -1,
                        23, 24, 25, -1, 26, 27, 28, -1,
                        29, 30, 31, -1, 32, 33, 34, -1,
                        35, 36, 30, -1, 37, 38, 39, -1,
                        40, 41, 42, -1, 43, 44, 45, -1,
                        46, 47, 48, -1, 49, 13, 50, -1,
                        7, 50, 51, -1, 52, 53, 54, -1,
                        55, 56, 57, -1, 58, 59, 60, -1,
                        61, 62, 63, -1, 64, 65, 66, -1,
                        15, 17, 67, -1, 68, 22, 69, -1,
                        70, 25, 71, -1, 26, 72, 73, -1,
                        74, 40, 75, -1, 76, 77, 45, -1,
                        53, 55, 78, -1, 79, 60, 80, -1,
                        81, 2, 19, -1, 20, 3, 82, -1,
                        23, 6, 83, -1, 27, 9, 84, -1,
                        41, 85, 31, -1, 86, 34, 44, -1,
                        87, 48, 57, -1, 58, 49, 88, -1,
                        88, 50, 7, -1, 59, 23, 70, -1,
                        11, 46, 87, -1, 8, 7, 89, -1,
                        73, 53, 52, -1, 72, 28, 56, -1,
                        10, 33, 62, -1, 76, 90, 64, -1,
                        60, 70, 91, -1, 73, 72, 55, -1,
                        59, 88, 6, -1, 84, 87, 56, -1,
                        47, 0, 81, -1, 51, 50, 13, -1,
                        92, 54, 15, -1, 78, 57, 18, -1,
                        93, 63, 36, -1, 65, 37, 94, -1,
                        82, 5, 13, -1, 21, 58, 79, -1,
                        54, 78, 17, -1, 22, 79, 95, -1,
                        48, 81, 18, -1, 21, 82, 49, -1,
                        34, 33, 10, -1, 37, 14, 74, -1,
                        45, 44, 27, -1, 1, 29, 85, -1,
                        35, 29, 1, -1, 67, 19, 41, -1,
                        64, 52, 92, -1, 46, 61, 93, -1,
                        45, 26, 96, -1, 16, 67, 40, -1,
                        44, 34, 9, -1, 19, 2, 85, -1,
                        96, 52, 64, -1, 11, 10, 61, -1,
                        65, 92, 14, -1, 93, 35, 0, -1,
                        30, 4, 3, -1, 12, 4, 30, -1,
                        42, 20, 68, -1, 8, 32, 86, -1,
                        94, 39, 69, -1, 24, 43, 77, -1,
                        89, 51, 63, -1, 97, 66, 80, -1,
                        75, 68, 39, -1, 71, 25, 77, -1,
                        31, 3, 20, -1, 83, 86, 43, -1,
                        32, 89, 62, -1, 71, 76, 97, -1,
                        51, 12, 36, -1, 66, 94, 95, -1,
                        81, 0, 2, -1, 82, 3, 5, -1,
                        83, 6, 8, -1, 84, 9, 11, -1,
                        4, 12, 5, -1, 74, 14, 16, -1,
                        67, 17, 19, -1, 68, 20, 22, -1,
                        70, 23, 25, -1, 72, 26, 28, -1,
                        85, 29, 31, -1, 86, 32, 34, -1,
                        29, 35, 30, -1, 94, 37, 39, -1,
                        75, 40, 42, -1, 77, 43, 45, -1,
                        87, 46, 48, -1, 88, 49, 50, -1,
                        89, 7, 51, -1, 92, 52, 54, -1,
                        78, 55, 57, -1, 79, 58, 60, -1,
                        93, 61, 63, -1, 97, 64, 66, -1,
                        16, 15, 67, -1, 39, 68, 69, -1,
                        91, 70, 71, -1, 96, 26, 73, -1,
                        38, 74, 75, -1, 90, 76, 45, -1,
                        54, 53, 78, -1, 95, 79, 80, -1,
                        18, 81, 19, -1, 21, 20, 82, -1,
                        24, 23, 83, -1, 28, 27, 84, -1,
                        42, 41, 31, -1, 43, 86, 44, -1,
                        56, 87, 57, -1, 59, 58, 88, -1,
                        6, 88, 7, -1, 60, 59, 70, -1,
                        84, 11, 87, -1, 32, 8, 89, -1,
                        96, 73, 52, -1, 55, 72, 56, -1,
                        61, 10, 62, -1, 97, 76, 64, -1,
                        80, 60, 91, -1, 53, 73, 55, -1,
                        23, 59, 6, -1, 28, 84, 56, -1,
                        48, 47, 81, -1, 12, 51, 13, -1,
                        14, 92, 15, -1, 17, 78, 18, -1,
                        35, 93, 36, -1, 66, 65, 94, -1,
                        49, 82, 13, -1, 22, 21, 79, -1,
                        15, 54, 17, -1, 69, 22, 95, -1,
                        57, 48, 18, -1, 58, 21, 49, -1,
                        9, 34, 10, -1, 38, 37, 74, -1,
                        26, 45, 27, -1, 2, 1, 85, -1,
                        0, 35, 1, -1, 40, 67, 41, -1,
                        65, 64, 92, -1, 47, 46, 93, -1,
                        90, 45, 96, -1, 74, 16, 40, -1,
                        27, 44, 9, -1, 41, 19, 85, -1,
                        90, 96, 64, -1, 46, 11, 61, -1,
                        37, 65, 14, -1, 47, 93, 0, -1,
                        31, 30, 3, -1, 36, 12, 30, -1,
                        75, 42, 68, -1, 83, 8, 86, -1,
                        95, 94, 69, -1, 25, 24, 77, -1,
                        62, 89, 63, -1, 91, 97, 80, -1,
                        38, 75, 39, -1, 76, 71, 77, -1,
                        42, 31, 20, -1, 24, 83, 43, -1,
                        33, 32, 62, -1, 91, 71, 97, -1,
                        63, 51, 36, -1, 80, 66, 95, -1 ]
                    normalIndex [ 0, 0, 0, -1, 1, 1, 1, -1,
                        2, 2, 2, -1, 3, 3, 3, -1,
                        4, 4, 4, -1, 5, 5, 5, -1,
                        6, 6, 6, -1, 7, 7, 7, -1,
                        8, 8, 8, -1, 9, 9, 9, -1,
                        7, 7, 7, -1, 10, 10, 10, -1,
                        11, 11, 11, -1, 12, 12, 12, -1,
                        7, 7, 7, -1, 13, 13, 13, -1,
                        14, 14, 14, -1, 15, 15, 15, -1,
                        16, 16, 16, -1, 17, 17, 17, -1,
                        18, 18, 18, -1, 19, 19, 19, -1,
                        20, 20, 20, -1, 21, 21, 21, -1,
                        22, 22, 22, -1, 23, 23, 23, -1,
                        24, 24, 24, -1, 25, 25, 25, -1,
                        26, 26, 26, -1, 27, 27, 27, -1,
                        28, 28, 28, -1, 29, 29, 29, -1,
                        30, 30, 30, -1, 7, 7, 7, -1,
                        31, 31, 31, -1, 32, 32, 32, -1,
                        7, 7, 7, -1, 33, 33, 33, -1,
                        34, 34, 34, -1, 35, 35, 35, -1,
                        36, 36, 36, -1, 37, 37, 37, -1,
                        38, 38, 38, -1, 39, 39, 39, -1,
                        40, 40, 40, -1, 41, 41, 41, -1,
                        42, 42, 42, -1, 43, 43, 43, -1,
                        44, 44, 44, -1, 45, 45, 45, -1,
                        46, 46, 46, -1, 47, 47, 47, -1,
                        48, 48, 48, -1, 49, 49, 49, -1,
                        50, 50, 50, -1, 51, 51, 51, -1,
                        52, 52, 52, -1, 53, 53, 53, -1,
                        54, 54, 54, -1, 55, 55, 55, -1,
                        56, 56, 56, -1, 57, 57, 57, -1,
                        58, 58, 58, -1, 59, 59, 59, -1,
                        60, 60, 60, -1, 61, 61, 61, -1,
                        62, 62, 62, -1, 63, 63, 63, -1,
                        64, 64, 64, -1, 7, 7, 7, -1,
                        65, 65, 65, -1, 66, 66, 66, -1,
                        67, 67, 67, -1, 68, 68, 68, -1,
                        69, 69, 69, -1, 70, 70, 70, -1,
                        71, 71, 71, -1, 72, 72, 72, -1,
                        73, 73, 73, -1, 74, 74, 74, -1,
                        7, 7, 7, -1, 75, 75, 75, -1,
                        7, 7, 7, -1, 76, 76, 76, -1,
                        77, 77, 77, -1, 78, 78, 78, -1,
                        79, 79, 79, -1, 80, 80, 80, -1,
                        81, 81, 81, -1, 82, 82, 82, -1,
                        7, 7, 7, -1, 83, 83, 83, -1,
                        84, 84, 84, -1, 85, 85, 85, -1,
                        86, 86, 86, -1, 87, 87, 87, -1,
                        88, 88, 88, -1, 89, 89, 89, -1,
                        90, 90, 90, -1, 91, 91, 91, -1,
                        92, 92, 92, -1, 93, 93, 93, -1,
                        94, 94, 94, -1, 7, 7, 7, -1,
                        95, 95, 95, -1, 96, 96, 96, -1,
                        7, 7, 7, -1, 97, 97, 97, -1,
                        98, 98, 98, -1, 99, 99, 99, -1,
                        100, 7, 7, -1, 101, 101, 101, -1,
                        102, 102, 102, -1, 103, 103, 103, -1,
                        104, 104, 104, -1, 105, 105, 105, -1,
                        106, 106, 106, -1, 107, 107, 107, -1,
                        108, 108, 108, -1, 109, 109, 109, -1,
                        110, 110, 110, -1, 111, 111, 111, -1,
                        112, 112, 112, -1, 113, 113, 113, -1,
                        114, 114, 114, -1, 115, 115, 115, -1,
                        116, 116, 116, -1, 117, 117, 117, -1,
                        118, 118, 118, -1, 7, 7, 7, -1,
                        119, 119, 119, -1, 120, 120, 120, -1,
                        7, 7, 7, -1, 121, 121, 121, -1,
                        122, 122, 122, -1, 123, 123, 123, -1,
                        124, 124, 124, -1, 125, 125, 125, -1,
                        126, 126, 126, -1, 127, 127, 127, -1,
                        128, 128, 128, -1, 129, 129, 129, -1,
                        130, 130, 130, -1, 131, 131, 131, -1,
                        132, 132, 132, -1, 133, 133, 133, -1,
                        134, 134, 134, -1, 135, 135, 135, -1,
                        136, 136, 136, -1, 137, 137, 137, -1,
                        138, 138, 138, -1, 139, 139, 139, -1,
                        140, 140, 140, -1, 141, 141, 141, -1,
                        142, 142, 142, -1, 143, 143, 143, -1,
                        144, 144, 144, -1, 145, 145, 145, -1,
                        146, 146, 146, -1, 147, 147, 147, -1,
                        148, 148, 148, -1, 149, 149, 149, -1,
                        150, 150, 150, -1, 151, 151, 151, -1,
                        152, 152, 152, -1, 7, 7, 7, -1,
                        153, 153, 153, -1, 154, 154, 154, -1,
                        155, 155, 155, -1, 156, 156, 156, -1,
                        157, 157, 157, -1, 7, 70, 7, -1,
                        158, 158, 158, -1, 159, 159, 159, -1,
                        160, 160, 160, -1, 161, 161, 161, -1,
                        7, 7, 7, -1, 162, 162, 162, -1,
                        100, 7, 7, -1, 163, 163, 163, -1,
                        164, 164, 164, -1, 165, 165, 165, -1,
                        166, 166, 166, -1, 167, 167, 167, -1,
                        168, 168, 168, -1, 169, 169, 169, -1,
                        7, 7, 7, -1, 170, 170, 170, -1,
                        171, 171, 171, -1, 172, 172, 172, -1,
                        173, 173, 173, -1, 174, 174, 174, -1 ]
                    ccw TRUE
                    solid FALSE
                    convex TRUE
                    creaseAngle 0

                  }

                }

            }

        }

    }

}
