#VRML V2.0 utf8


Group {
  children 
    Group {
      children 
        Transform {
          scale 1.74 1.74 1.74
          children 
            Group {
              children 
                Shape {
                  appearance 
                  Appearance {
                    material 
                    Material {
                      diffuseColor 0.65864992 0.50308388 0.31538299
                      ambientIntensity 0.10572245

                    }

                  }
                  geometry 
                  IndexedFaceSet {
                    coord 
                    Coordinate {
                      point [ -0.1133463 -0.040003002 -0.079671137,
                          -0.1136291 -0.040907081 -0.078017347,
                          -0.1141008 -0.042999741 -0.079597108,
                          -0.1075721 -0.042999741 -0.079597108,
                          -0.1075721 -0.040656619 -0.07725399,
                          -0.1058676 -0.040907081 -0.078017347,
                          -0.1060022 -0.039280768 -0.084758461,
                          -0.106586 -0.037889831 -0.083318651,
                          -0.1069372 -0.037203658 -0.08467757,
                          -0.1113303 -0.037994079 -0.086323731,
                          -0.1112519 -0.036938298 -0.084707491,
                          -0.11254 -0.037203599 -0.084677629,
                          -0.1078667 -0.039664619 -0.07933604,
                          -0.1061501 -0.040002938 -0.079671077,
                          -0.1113815 -0.048345979 -0.088011198,
                          -0.1128947 -0.048006412 -0.087654412,
                          -0.1126402 -0.049399368 -0.086529188,
                          -0.1136517 -0.046284251 -0.085943989,
                          -0.1139258 -0.044026129 -0.083698392,
                          -0.1141008 -0.045569241 -0.082166553,
                          -0.1075721 -0.045569241 -0.082166553,
                          -0.1053959 -0.045569241 -0.082166553,
                          -0.1059203 -0.048102312 -0.084699571,
                          -0.1058961 -0.041129231 -0.086540461,
                          -0.1066049 -0.04001772 -0.08760488,
                          -0.1066965 -0.042034678 -0.088614278,
                          -0.1113402 -0.041786488 -0.088842981,
                          -0.1113837 -0.039721482 -0.087894969,
                          -0.1128917 -0.04001772 -0.08760488,
                          -0.1119245 -0.040656619 -0.07725399,
                          -0.1097483 -0.040656619 -0.07725399,
                          -0.1097483 -0.042999741 -0.079597108,
                          -0.1082302 -0.036938298 -0.084707491,
                          -0.1097435 -0.03677642 -0.084733419,
                          -0.1097454 -0.037840899 -0.086421959,
                          -0.1116299 -0.039664619 -0.07933604,
                          -0.1097483 -0.03957992 -0.079254679,
                          -0.1097483 -0.048428949 -0.088111401,
                          -0.1097483 -0.050012939 -0.086845331,
                          -0.1082856 -0.04992234 -0.086818866,
                          -0.1116623 -0.048102312 -0.084699631,
                          -0.1119245 -0.045569241 -0.082166553,
                          -0.1097483 -0.045569241 -0.082166553,
                          -0.1081129 -0.039721482 -0.087894969,
                          -0.1097483 -0.03960114 -0.088013113,
                          -0.1097512 -0.041707449 -0.088966131,
                          -0.1128978 -0.037889831 -0.083318651,
                          -0.1131371 -0.038915992 -0.08158689,
                          -0.1137583 -0.040475599 -0.083160631,
                          -0.1055935 -0.041763239 -0.081433348,
                          -0.1063563 -0.038915992 -0.08158689,
                          -0.1079735 -0.038569741 -0.081270628,
                          -0.1113961 -0.045078568 -0.08933866,
                          -0.1129029 -0.044765528 -0.08904808,
                          -0.1130487 -0.046224289 -0.088631153,
                          -0.1134911 -0.043155011 -0.08798629,
                          -0.1136006 -0.041129231 -0.086540461,
                          -0.11383 -0.042515449 -0.085201077,
                          -0.1055708 -0.044026129 -0.083698392,
                          -0.1056666 -0.042515449 -0.085201077,
                          -0.1057949 -0.044600721 -0.087142281,
                          -0.1113907 -0.03751963 -0.083053462,
                          -0.1097455 -0.037367161 -0.08299797,
                          -0.1097479 -0.038454771 -0.081184261,
                          -0.1097512 -0.04515427 -0.089463048,
                          -0.1097487 -0.046645761 -0.08907681,
                          -0.1080253 -0.046552949 -0.088967264,
                          -0.1135763 -0.048102312 -0.084699631,
                          -0.1078343 -0.048102312 -0.084699631,
                          -0.1068565 -0.049293391 -0.086635172,
                          -0.1060138 -0.043155011 -0.08798629,
                          -0.106956 -0.043634228 -0.089226417,
                          -0.1128128 -0.042034678 -0.088614278,
                          -0.11256 -0.043634228 -0.089226417,
                          -0.111211 -0.050013181 -0.086728029,
                          -0.1097483 -0.048102312 -0.084699631,
                          -0.1082445 -0.043659799 -0.089392297,
                          -0.1081657 -0.041786488 -0.088842981,
                          -0.1137037 -0.044600721 -0.087142281,
                          -0.1058451 -0.046284251 -0.085943989,
                          -0.1064511 -0.046224289 -0.088631094,
                          -0.1139031 -0.041763239 -0.081433348,
                          -0.1053959 -0.042999741 -0.079597108,
                          -0.1066849 -0.038308971 -0.086029761,
                          -0.1127991 -0.038308971 -0.086029761,
                          -0.1119245 -0.042999741 -0.079597108,
                          -0.108157 -0.037994079 -0.086323731,
                          -0.1134861 -0.039280768 -0.084758461,
                          -0.1057363 -0.040475599 -0.083160631,
                          -0.1080967 -0.03751963 -0.083053462,
                          -0.1097531 -0.043660991 -0.089513712,
                          -0.1066064 -0.044765528 -0.08904808,
                          -0.1114734 -0.046552949 -0.088967264,
                          -0.1115211 -0.038569741 -0.081270628,
                          -0.1081153 -0.048334591 -0.08802253,
                          -0.1066022 -0.047983699 -0.087677121,
                          -0.1112667 -0.043659799 -0.089392357,
                          -0.1081098 -0.045078568 -0.08933866 ]

                    }
                    normal 
                    Normal {
                      vector [ 0.96940678 -0.2432605 0.032787126,
                          -0.20811436 0.69162381 -0.69162488,
                          -0.91111243 -0.41121748 0.027827118,
                          0.18268254 -0.82715029 0.53145999,
                          -0.25464207 -0.86614913 -0.4300501,
                          0.30934566 0.63112509 0.71132725,
                          0.99308461 0.0038577835 0.1173374,
                          0 0.70709956 -0.70711404,
                          -0.89256448 -0.1687326 0.41816032,
                          0.24827451 -0.39983124 0.88232356,
                          0 0.70710623 -0.70710737,
                          -0.099132739 -0.84171623 0.53074133,
                          0.060021039 -0.87899303 -0.47304207,
                          -0.052732117 0.6234889 0.78005183,
                          0 0.70710784 -0.70710576,
                          -0.095706321 -0.41022512 0.90694857,
                          0.94617993 -0.31841448 -0.05792876,
                          -0.96439713 -0.2607491 -0.044137649,
                          -0.27127296 -0.84339893 -0.46377727,
                          0.23252295 0.24571754 0.94103986,
                          0.99081987 -0.038860504 0.12948368,
                          -0.99790108 0.0011229999 0.064747408,
                          0.096377753 -0.85368526 -0.51179367,
                          -0.074819997 0.24987131 0.96538401,
                          0.95438325 0.19458677 0.22647023,
                          1.6320699e-005 0.85166651 -0.52408415,
                          -0.76878726 -0.11595732 0.62890381,
                          0.19814527 -0.32285759 0.92547369,
                          0 0.72787964 -0.68570495,
                          -0.088124678 -0.27687502 0.95685643,
                          0.92113084 0.086156271 0.37959859,
                          -0.95772368 0.18523517 0.22012103,
                          0.99588585 -0.064074755 0.064076155,
                          0 0.70709914 -0.70711446,
                          -0.91660768 -0.30349103 0.26023751,
                          0.28070709 -0.6505574 0.70567602,
                          -0.1098715 -0.66641897 0.73743749,
                          0.98984605 -0.11639947 0.081584379,
                          -0.9976694 -0.053010918 0.042961158,
                          -0.94714075 -0.31496504 -0.061004557,
                          -0.99059039 -0.036573835 0.13188265,
                          0.90920949 -0.41527972 0.029681304,
                          -0.282105 -0.88376153 -0.37333947,
                          0.206747 0.090899572 0.9741627,
                          0.89341068 -0.17261912 0.41475287,
                          0.095619842 -0.94235426 -0.32066414,
                          -0.080203138 0.033697318 0.99620885,
                          -0.91935998 0.085045256 0.3841154,
                          0.77192557 -0.11711852 0.62483138,
                          -0.99030912 -0.1136638 0.079802342,
                          0.91546804 -0.30722612 0.25986606,
                          0.96417528 -0.26172236 -0.043216337,
                          -0.25692096 -0.8521775 -0.45583466,
                          0.2776995 0.48006332 0.83211923,
                          0.99793345 0.00062942097 0.064253271,
                          0.080285519 -0.86108309 -0.50208586,
                          -0.075154498 0.47473878 0.87691224,
                          -0.96943396 -0.24316974 0.032654196,
                          -0.99308276 0.0039331666 0.11735034,
                          0.95790243 0.18553023 0.21909271,
                          -0.95445639 0.19439383 0.22632736,
                          0.99760568 -0.053668603 0.043618854,
                          -0.99588996 -0.064043626 0.064045019,
                          0.099459253 -0.84178954 0.53056401,
                          0.079370886 0.61308217 0.78602207,
                          0.09571477 -0.41044399 0.90684867,
                          0.20810217 0.69162565 -0.69162673,
                          0.29735285 -0.87758899 -0.376057,
                          0 0.70710784 -0.7071057,
                          0.084158674 0.23925149 0.96730357,
                          0.28769135 -0.83426803 -0.47035161,
                          0.087939151 -0.27714413 0.95679569,
                          0 0.81578875 -0.57834995,
                          0.11011881 -0.66659993 0.73723704,
                          0.076774932 0.030715495 0.99657524,
                          0.1847104 -0.93193966 -0.31204253,
                          0.081161462 0.47218853 0.87775338,
                          0.2713646 -0.844096 -0.46245357,
                          -0 -0.90276831 -0.4301272,
                          -0.18202764 -0.82697237 0.5319612,
                          -0.35269147 0.58902878 0.72708589,
                          -0.24817845 -0.39891714 0.88276422,
                          -0.080228038 -0.86127859 -0.50175959,
                          -0.24792612 0.22325699 0.94270301,
                          0 0.7586301 -0.65152162,
                          -0.19849904 -0.32205006 0.92567921,
                          0 0.70709908 -0.70711452,
                          -0.2801041 -0.64984524 0.70657116,
                          -0.09791664 -0.94133949 -0.32294342,
                          -0.12813783 0.025315743 0.99143326,
                          -0.060317423 -0.87012917 -0.48911858,
                          -0.29753709 0.45894459 0.83716291,
                          0.96758062 -0.24511465 -0.060881451,
                          0 0.60250312 -0.79811662,
                          -0.89645594 -0.4100765 0.1679405,
                          0.27989629 -0.76885599 0.57490736,
                          -0.29736874 -0.87758541 -0.37605301,
                          0.35512921 0.59270245 0.72290188,
                          0.98942447 0.10760596 0.09726432,
                          2.2019305e-005 0.70710671 -0.70710689,
                          -0.85308588 -0.26936814 0.44686165,
                          0.2089804 -0.43110824 0.87776589,
                          -0.11381651 -0.83411676 0.53971761,
                          -0.078122608 0.60758168 0.79040587,
                          0 0.70710778 -0.70710576,
                          -0.09098231 -0.41356578 0.90591705,
                          0.94453925 -0.31907627 -0.077692352,
                          -0.95773309 -0.26288179 -0.11679309,
                          -0.28709349 -0.83391255 -0.47134608,
                          0.24789837 0.22440325 0.94243813,
                          0.98855889 -0.066263832 0.13550113,
                          -0.99626273 0.067799501 0.053516235,
                          0.080279268 -0.86141723 -0.50151324,
                          -0.08432579 0.23885189 0.96738774,
                          0.91185975 0.34557554 0.22156151,
                          -0.25745517 0.75947589 -0.59742224,
                          -0.76281297 -0.13607587 0.63213915,
                          0.11699239 -0.275251 0.95422727,
                          -0.053378247 0.74576747 -0.66406453,
                          -0.077053443 -0.26902705 0.96004552,
                          0.9223274 0.018132776 0.38598379,
                          -0.95459074 0.20114158 0.21976942,
                          0.99675369 -0.06173249 0.051683612,
                          -0.90828371 -0.30574679 0.28555173,
                          0.2649093 -0.66127884 0.70180726,
                          -0.10242496 -0.6707682 0.73456055,
                          0.99219459 -0.11276881 0.053226463,
                          -0.99870276 -0.048769653 0.014640435,
                          -0.94564843 -0.31554976 -0.078596741,
                          -0.98793644 -0.068504706 0.13888399,
                          0.89479411 -0.41405863 0.1670299,
                          -0.18400976 -0.93186933 -0.31266594,
                          0.1277249 0.025875626 0.99147207,
                          0.85520041 -0.26967654 0.44261381,
                          0.098128624 -0.94142115 -0.32264078,
                          -0.076922491 0.030372523 0.9965744,
                          -0.92040366 0.013703611 0.39072919,
                          0.76704919 -0.13357522 0.6275295,
                          -0.99231285 -0.11056053 0.055604007,
                          0.90822583 -0.30917925 0.28201795,
                          0.95750183 -0.26387605 -0.11644649,
                          -0.27119419 -0.84401673 -0.46269819,
                          0.30031234 0.46072567 0.83519119,
                          0.99625897 0.068381526 0.052841246,
                          0.060316335 -0.87015581 -0.48907146,
                          -0.081181623 0.4701246 0.87885869,
                          -0.96760619 -0.24501804 -0.06086468,
                          -0.98942864 0.10752888 0.097306751,
                          0.95457274 0.20236629 0.21872121,
                          -0.9087702 0.35322449 0.22219175,
                          0.99868596 -0.049256261 0.014150165,
                          -0.99675733 -0.061701301 0.05165242,
                          0.11406435 -0.83426493 0.53943616,
                          0.062418256 0.62314016 0.77961558,
                          0.090788312 -0.41391546 0.90577674,
                          0 0.60250312 -0.79811656,
                          0.25470614 -0.86617601 -0.42995811,
                          0.074772812 0.25010753 0.96532661,
                          0.27137655 -0.8440029 -0.46261641,
                          0.076759644 -0.26917186 0.96002835,
                          0.22592373 0.73364812 -0.64087355,
                          0.10242675 -0.6710692 0.7342853,
                          0.079900555 0.033901606 0.99622619,
                          0.28264239 -0.88413769 -0.37204,
                          0.077903204 0.47466502 0.87671214,
                          0.25696975 -0.85231578 -0.4555485,
                          -0.060021266 -0.87899297 -0.47304201,
                          -0.27935082 -0.76830542 0.57590795,
                          -0.30871344 0.62815613 0.71422404,
                          -0.20934764 -0.43000224 0.8782208,
                          -0.096164882 -0.85359061 -0.51199156,
                          -0.23281139 0.24429645 0.94133854,
                          -0.034206524 0.74639511 -0.66462338,
                          -0.11739745 -0.27488881 0.95428193,
                          -0.26489303 -0.660236 0.70279449,
                          -0.095302865 -0.94231576 -0.32087153,
                          -0.20696312 0.089621484 0.97423524,
                          -0.080231868 -0.8610726 -0.50211257,
                          -0.27760342 0.47623396 0.83434856 ]

                    }
                    coordIndex [ 0, 1, 2, -1, 3, 4, 5, -1,
                        6, 7, 8, -1, 9, 10, 11, -1,
                        12, 13, 5, -1, 14, 15, 16, -1,
                        17, 18, 19, -1, 20, 21, 22, -1,
                        23, 24, 25, -1, 26, 27, 28, -1,
                        29, 30, 31, -1, 32, 33, 34, -1,
                        35, 36, 30, -1, 37, 38, 39, -1,
                        40, 41, 42, -1, 43, 44, 45, -1,
                        46, 47, 48, -1, 49, 13, 50, -1,
                        7, 50, 51, -1, 52, 53, 54, -1,
                        55, 56, 57, -1, 58, 59, 60, -1,
                        61, 62, 63, -1, 64, 65, 66, -1,
                        15, 17, 67, -1, 68, 22, 69, -1,
                        70, 25, 71, -1, 26, 72, 73, -1,
                        74, 40, 75, -1, 76, 77, 45, -1,
                        53, 55, 78, -1, 79, 60, 80, -1,
                        81, 2, 19, -1, 3, 82, 21, -1,
                        23, 6, 83, -1, 27, 9, 84, -1,
                        85, 31, 42, -1, 86, 34, 44, -1,
                        87, 48, 57, -1, 58, 49, 88, -1,
                        88, 50, 7, -1, 59, 23, 70, -1,
                        11, 46, 87, -1, 8, 7, 89, -1,
                        73, 53, 52, -1, 72, 28, 56, -1,
                        10, 33, 62, -1, 76, 90, 64, -1,
                        60, 70, 91, -1, 73, 72, 55, -1,
                        59, 88, 6, -1, 84, 87, 56, -1,
                        47, 0, 81, -1, 50, 13, 12, -1,
                        92, 54, 15, -1, 78, 57, 18, -1,
                        93, 63, 36, -1, 65, 37, 94, -1,
                        82, 5, 13, -1, 21, 58, 79, -1,
                        54, 78, 17, -1, 22, 79, 95, -1,
                        48, 81, 18, -1, 21, 82, 49, -1,
                        34, 33, 10, -1, 37, 14, 74, -1,
                        45, 44, 27, -1, 1, 29, 85, -1,
                        35, 29, 1, -1, 67, 19, 41, -1,
                        64, 52, 92, -1, 46, 61, 93, -1,
                        45, 26, 96, -1, 16, 67, 40, -1,
                        44, 34, 9, -1, 2, 85, 41, -1,
                        96, 52, 64, -1, 11, 10, 61, -1,
                        65, 92, 14, -1, 47, 93, 35, -1,
                        30, 4, 3, -1, 12, 4, 30, -1,
                        42, 20, 68, -1, 8, 32, 86, -1,
                        94, 39, 69, -1, 24, 43, 77, -1,
                        89, 51, 63, -1, 97, 66, 80, -1,
                        75, 68, 39, -1, 71, 25, 77, -1,
                        31, 3, 20, -1, 83, 86, 43, -1,
                        32, 89, 62, -1, 71, 76, 97, -1,
                        51, 12, 36, -1, 66, 94, 95, -1,
                        81, 0, 2, -1, 82, 3, 5, -1,
                        83, 6, 8, -1, 84, 9, 11, -1,
                        4, 12, 5, -1, 74, 14, 16, -1,
                        67, 17, 19, -1, 68, 20, 22, -1,
                        70, 23, 25, -1, 72, 26, 28, -1,
                        85, 29, 31, -1, 86, 32, 34, -1,
                        29, 35, 30, -1, 94, 37, 39, -1,
                        75, 40, 42, -1, 77, 43, 45, -1,
                        87, 46, 48, -1, 88, 49, 50, -1,
                        89, 7, 51, -1, 92, 52, 54, -1,
                        78, 55, 57, -1, 79, 58, 60, -1,
                        93, 61, 63, -1, 97, 64, 66, -1,
                        16, 15, 67, -1, 39, 68, 69, -1,
                        91, 70, 71, -1, 96, 26, 73, -1,
                        38, 74, 75, -1, 90, 76, 45, -1,
                        54, 53, 78, -1, 95, 79, 80, -1,
                        18, 81, 19, -1, 20, 3, 21, -1,
                        24, 23, 83, -1, 28, 27, 84, -1,
                        41, 85, 42, -1, 43, 86, 44, -1,
                        56, 87, 57, -1, 59, 58, 88, -1,
                        6, 88, 7, -1, 60, 59, 70, -1,
                        84, 11, 87, -1, 32, 8, 89, -1,
                        96, 73, 52, -1, 55, 72, 56, -1,
                        61, 10, 62, -1, 97, 76, 64, -1,
                        80, 60, 91, -1, 53, 73, 55, -1,
                        23, 59, 6, -1, 28, 84, 56, -1,
                        48, 47, 81, -1, 51, 50, 12, -1,
                        14, 92, 15, -1, 17, 78, 18, -1,
                        35, 93, 36, -1, 66, 65, 94, -1,
                        49, 82, 13, -1, 22, 21, 79, -1,
                        15, 54, 17, -1, 69, 22, 95, -1,
                        57, 48, 18, -1, 58, 21, 49, -1,
                        9, 34, 10, -1, 38, 37, 74, -1,
                        26, 45, 27, -1, 2, 1, 85, -1,
                        0, 35, 1, -1, 40, 67, 41, -1,
                        65, 64, 92, -1, 47, 46, 93, -1,
                        90, 45, 96, -1, 74, 16, 40, -1,
                        27, 44, 9, -1, 19, 2, 41, -1,
                        90, 96, 64, -1, 46, 11, 61, -1,
                        37, 65, 14, -1, 0, 47, 35, -1,
                        31, 30, 3, -1, 36, 12, 30, -1,
                        75, 42, 68, -1, 83, 8, 86, -1,
                        95, 94, 69, -1, 25, 24, 77, -1,
                        62, 89, 63, -1, 91, 97, 80, -1,
                        38, 75, 39, -1, 76, 71, 77, -1,
                        42, 31, 20, -1, 24, 83, 43, -1,
                        33, 32, 62, -1, 91, 71, 97, -1,
                        63, 51, 36, -1, 80, 66, 95, -1 ]
                    normalIndex [ 0, 0, 0, -1, 1, 1, 1, -1,
                        2, 2, 2, -1, 3, 3, 3, -1,
                        4, 4, 4, -1, 5, 5, 5, -1,
                        6, 6, 6, -1, 7, 7, 7, -1,
                        8, 8, 8, -1, 9, 9, 9, -1,
                        10, 10, 10, -1, 11, 11, 11, -1,
                        12, 12, 12, -1, 13, 13, 13, -1,
                        14, 14, 14, -1, 15, 15, 15, -1,
                        16, 16, 16, -1, 17, 17, 17, -1,
                        18, 18, 18, -1, 19, 19, 19, -1,
                        20, 20, 20, -1, 21, 21, 21, -1,
                        22, 22, 22, -1, 23, 23, 23, -1,
                        24, 24, 24, -1, 25, 25, 25, -1,
                        26, 26, 26, -1, 27, 27, 27, -1,
                        28, 28, 28, -1, 29, 29, 29, -1,
                        30, 30, 30, -1, 31, 31, 31, -1,
                        32, 32, 32, -1, 33, 33, 33, -1,
                        34, 34, 34, -1, 35, 35, 35, -1,
                        33, 33, 33, -1, 36, 36, 36, -1,
                        37, 37, 37, -1, 38, 38, 38, -1,
                        39, 39, 39, -1, 40, 40, 40, -1,
                        41, 41, 41, -1, 42, 42, 42, -1,
                        43, 43, 43, -1, 44, 44, 44, -1,
                        45, 45, 45, -1, 46, 46, 46, -1,
                        47, 47, 47, -1, 48, 48, 48, -1,
                        49, 49, 49, -1, 50, 50, 50, -1,
                        51, 51, 51, -1, 52, 52, 52, -1,
                        53, 53, 53, -1, 54, 54, 54, -1,
                        55, 55, 55, -1, 56, 56, 56, -1,
                        57, 57, 57, -1, 58, 58, 58, -1,
                        59, 59, 59, -1, 60, 60, 60, -1,
                        61, 61, 61, -1, 62, 62, 62, -1,
                        63, 63, 63, -1, 64, 64, 64, -1,
                        65, 65, 65, -1, 66, 66, 66, -1,
                        67, 67, 67, -1, 68, 68, 68, -1,
                        69, 69, 69, -1, 70, 70, 70, -1,
                        71, 71, 71, -1, 72, 72, 72, -1,
                        73, 73, 73, -1, 33, 33, 33, -1,
                        74, 74, 74, -1, 75, 75, 75, -1,
                        76, 76, 76, -1, 77, 77, 77, -1,
                        10, 10, 33, -1, 78, 78, 78, -1,
                        14, 7, 14, -1, 79, 79, 79, -1,
                        80, 80, 80, -1, 81, 81, 81, -1,
                        82, 82, 82, -1, 83, 83, 83, -1,
                        84, 84, 84, -1, 85, 85, 85, -1,
                        86, 33, 7, -1, 87, 87, 87, -1,
                        88, 88, 88, -1, 89, 89, 89, -1,
                        90, 90, 90, -1, 91, 91, 91, -1,
                        92, 92, 92, -1, 93, 93, 93, -1,
                        94, 94, 94, -1, 95, 95, 95, -1,
                        96, 96, 96, -1, 97, 97, 97, -1,
                        98, 98, 98, -1, 99, 7, 99, -1,
                        100, 100, 100, -1, 101, 101, 101, -1,
                        33, 10, 86, -1, 102, 102, 102, -1,
                        78, 78, 78, -1, 103, 103, 103, -1,
                        104, 14, 14, -1, 105, 105, 105, -1,
                        106, 106, 106, -1, 107, 107, 107, -1,
                        108, 108, 108, -1, 109, 109, 109, -1,
                        110, 110, 110, -1, 111, 111, 111, -1,
                        112, 112, 112, -1, 113, 113, 113, -1,
                        114, 114, 114, -1, 115, 115, 115, -1,
                        116, 116, 116, -1, 117, 117, 117, -1,
                        118, 118, 118, -1, 119, 119, 119, -1,
                        120, 120, 120, -1, 121, 121, 121, -1,
                        122, 122, 122, -1, 7, 33, 33, -1,
                        123, 123, 123, -1, 124, 124, 124, -1,
                        33, 33, 14, -1, 125, 125, 125, -1,
                        126, 126, 126, -1, 127, 127, 127, -1,
                        128, 128, 128, -1, 129, 129, 129, -1,
                        130, 130, 130, -1, 131, 131, 131, -1,
                        132, 132, 132, -1, 133, 133, 133, -1,
                        134, 134, 134, -1, 135, 135, 135, -1,
                        136, 136, 136, -1, 137, 137, 137, -1,
                        138, 138, 138, -1, 139, 139, 139, -1,
                        140, 140, 140, -1, 141, 141, 141, -1,
                        142, 142, 142, -1, 143, 143, 143, -1,
                        144, 144, 144, -1, 145, 145, 145, -1,
                        146, 146, 146, -1, 147, 147, 147, -1,
                        148, 148, 148, -1, 149, 149, 149, -1,
                        150, 150, 150, -1, 151, 151, 151, -1,
                        152, 152, 152, -1, 153, 153, 153, -1,
                        154, 154, 154, -1, 155, 155, 155, -1,
                        156, 156, 156, -1, 14, 68, 33, -1,
                        157, 157, 157, -1, 77, 158, 158, -1,
                        159, 159, 159, -1, 160, 160, 160, -1,
                        161, 161, 161, -1, 33, 33, 33, -1,
                        162, 162, 162, -1, 163, 163, 163, -1,
                        164, 164, 164, -1, 165, 165, 165, -1,
                        86, 10, 33, -1, 166, 166, 166, -1,
                        104, 14, 99, -1, 167, 167, 167, -1,
                        168, 168, 168, -1, 169, 169, 169, -1,
                        170, 170, 170, -1, 171, 171, 171, -1,
                        172, 172, 172, -1, 173, 173, 173, -1,
                        14, 86, 7, -1, 174, 174, 174, -1,
                        175, 175, 175, -1, 176, 176, 176, -1,
                        177, 177, 177, -1, 178, 178, 178, -1 ]
                    ccw TRUE
                    solid FALSE
                    convex TRUE
                    creaseAngle 0

                  }

                }

            }

        }

    }

}
